课程,老师,院系
高等数学I1,权豫西,机电工程学院
工程制图基础,焦丹,机电工程学院
概率论与数理统计,陈光,机电工程学院
大学物理2,史彭,机电工程学院
电工学（土建类）,严洁,机电工程学院
高等数学II1,彭璟,机电工程学院
理论力学I1(土木类),吴艳红,机电工程学院
弹性力学,刘新东,机电工程学院
大学化学,史玲,机电工程学院
建筑设计基础I,陈聪,机电工程学院
有机化学I,史玲,机电工程学院
画法几何及阴影透视1,高燕,机电工程学院
建筑概论,李钰,机电工程学院
无机化学I1,张良,机电工程学院
土木工程概论,赵楠,机电工程学院
结构力学,刘超,机电工程学院
机械设计基础II,杨振乾,机电工程学院
复变函数与积分变换,苏变萍,机电工程学院
高等数学III,王兰芳,机电工程学院
电路基础,张宇,机电工程学院
建筑设计III,裴钊,机电工程学院
流体力学III,崔海航,机电工程学院
有机化学,张耀君,机电工程学院
软件基础CAD,王东,机电工程学院
材料科学基础,魏剑,机电工程学院
建筑设计4,马龙,机电工程学院
建筑结构概论,杜高潮,机电工程学院
理论力学II1（机械类）,吴艳红,机电工程学院
物理化学A2,陈斌,机电工程学院
混凝土结构设计原理,杨勇,机电工程学院
岩石力学,宋战平,机电工程学院
电工学下,徐英鸽,机电工程学院
C语言程序设计,朱旭东,机电工程学院
建筑透视与阴影1,王明海,机电工程学院
工程热力学,赵蕾,机电工程学院
土力学,曹卫平,机电工程学院
微机原理与接口技术,段中兴,机电工程学院
磁性物理学,孙可为,机电工程学院
流体力学I ,徐品晶,机电工程学院
自动控制理论,启春,机电工程学院
电气控制与PLC,何波,机电工程学院
工程力学,刘伟,机电工程学院
电路理论,周军妮,机电工程学院
解析几何,潘智民,机电工程学院
电动力学,张欣会,机电工程学院
轨道交通桥梁工程概论,叶毅,机电工程学院
土建工程,叶毅,机电工程学院
机械测绘,成彬,机电工程学院
机械制图II,太良平,机电工程学院
电气工程导论,腾维淑,机电工程学院
电工学上,张宇,机电工程学院
互换性与技术测量,付鹏,机电工程学院
材料力学II机械类,孔旭光,机电工程学院
机械原理,同志学,机电工程学院
工程材料及机械制造基础,蔡安江,机电工程学院
土木工程制图,张青,机电工程学院
物理化学A1,陈斌,机电工程学院
物理化学B,付一乐,机电工程学院
工程地质学,王铁行,机电工程学院
工程测量II,冯晓刚,机电工程学院
分析化学,江元汝,机电工程学院
模拟电子技术,朱晓娟,机电工程学院
MATLAB程序设计,郭师虹,机电工程学院
数学物理方程,朱立平,机电工程学院
CAD高级技术应用,李进,机电工程学院
单片机原理及应用,何波,机电工程学院
钢结构设计原理,杨俊芳,机电工程学院
混凝土结构设计,史庆轩,机电工程学院
砌体结构,徐善华,机电工程学院
钢筋混凝土及砌体结构,李晓文,机电工程学院
计算结构力学,王玲玲,机电工程学院
结构力学I2,谢异同,机电工程学院
建筑设计原理,孙自然,机电工程学院
电磁场,孙锴,机电工程学院
结构化学,张国,机电工程学院
过程检测及控制原理,陈延信,机电工程学院
钢与混凝土组合结构,薛建阳,机电工程学院
集散控制系统,华新峰,机电工程学院
电机与拖动基础,徐胜军,机电工程学院
工程地质与水文地质,李辉,机电工程学院
随机信号分析,江莉,机电工程学院
大规模集成电路设计,卫铭裴,机电工程学院
自动控制概论,陈登峰,机电工程学院
有色冶金化工工程及设备,朱军,机电工程学院
热泵技术及地热利用,刘雄,机电工程学院
冶金原料处理与工艺,施瑞盟,机电工程学院
电力系统继电保护,赵小国,机电工程学院
电力电子技术,于瑛,机电工程学院
机械装备制作设计,薄相峰,机电工程学院
空气矿床地下开采,郭进平,机电工程学院
热质交换原理与技术,樊菊芳,机电工程学院
高压绝缘技术,孙伟,机电工程学院
材料力学性能,冯广海,机电工程学院
预应力混凝土结构,杨勇,机电工程学院
直流拖动自动控制系统,佟威,机电工程学院
自动检测技术,陈登峰,机电工程学院
机械工程控制基础,武小兰,机电工程学院
机械优化设计,刘昌军,机电工程学院
车亮控制工程,武小兰,机电工程学院
材料磨损机理及耐磨性,王发展,机电工程学院
现代控制理论,刘沛津,机电工程学院
数控理论与加工技术,阮晓光,机电工程学院
钢结构制作与安装,李峰,机电工程学院
复合材料,张强,机电工程学院
机械制作技术基础,阮晓光,机电工程学院
制作系统设计理论与方法,蔡安江,机电工程学院
土力学与基础工程,冯志焱,机电工程学院
现代传感与测试技术,马松龄,机电工程学院
机电系统建模与仿真,原思聪,机电工程学院
工程经济与项目原理,郭宏珠,机电工程学院
建筑材料与建筑结构,何梅,机电工程学院
电路与电子线路,朱军妮,机电工程学院
控制电机,赵南南,机电工程学院
统计学,刘淑茹,机电工程学院
金属学与热处理,王伯建,机电工程学院
冶金传输原理,王超,机电工程学院
离散数学,何箐,机电工程学院
电磁场理论,毛利,机电工程学院
传感器与检测技术,孙继武,机电工程学院
道路勘测设计,王乾,机电工程学院
冶金热工仪表,马红周,机电工程学院
水文地质,李辉,机电工程学院
发电厂电气部分,刘小军,机电工程学院
高频电子电路,卫铭裴,机电工程学院
化学反应工程学,田宇红,机电工程学院
有色冶金传输与设备,朱军,机电工程学院
有色冶金原理,李林波,机电工程学院
配电自动化,刘建辉,机电工程学院
控制轧制与控制冷却,张郑,机电工程学院
工程结构抗震,白国良,机电工程学院
面向对象程序设计,白晓平,机电工程学院
安全原理,赵江平,机电工程学院
化工热力学,许妮君,机电工程学院
给水排水CAD绘图,熊家晴,机电工程学院
材料研究与测试技术,魏英,机电工程学院
水处理微生物学,王俊萍,机电工程学院
材料加工测试技术,杨洪波,机电工程学院
土层地下建筑结构,罗少锋,机电工程学院
压力加工数模与优化,蔡军,机电工程学院
金属塑性加工学,王文礼,机电工程学院
建筑电气控制技术,冯增喜,机电工程学院
结构试验与检测加固,王泽军,机电工程学院
内燃机原理与构造,王晓云,机电工程学院
工程机械底盘构造与设计,东亚斌,机电工程学院
液压与液力传动,吕刚,机电工程学院
结构力学与钢结构,黄会荣,机电工程学院
液压与气压传动,张征凯,机电工程学院
机密机械设计,史丽晨,机电工程学院
电路与模电数电实验,张征凯,机电工程学院
华清数控技术,冯增喜,机电工程学院
信息经济学,骆正山,机电工程学院
机械系统动力学,罗丹,机电工程学院
计算机控制技术,腾淑维,机电工程学院
机械工程检测技术与信号处理,张锦华,机电工程学院
机电传动基础,温庆国,机电工程学院
可靠性工程概论,李玲,机电工程学院
测试技术与信号处理,张郑凯,机电工程学院
先进制造技术概论,李玲,机电工程学院
机构力学与建筑机械钢结构,黄会荣,机电工程学院
机电一体化系统设计,史丽晨,机电工程学院
建筑供配电系统与照明技术,魏勇,机电工程学院
振动机械,郭宝良,机电工程学院
建设监理概论,郑成华,机电工程学院
微机原理与嵌入式系统,王海涛,机电工程学院
机械制作装备设计,薄相峰,机电工程学院
机械信号测试实验,薄相峰,机电工程学院
数控实验,王苗,机电工程学院
设备维修与管理,薄相峰,机电工程学院
电气工程软件应用,杨前,机电工程学院
轧钢设备及工艺,何育民,机电工程学院
数据库及管理信息系统,董朝阳,机电工程学院
电力拖动自动控制技术,刘建辉,机电工程学院
起重运输机械,罗丹,机电工程学院
机械结构设计与有限元分析,阎龙,机电工程学院
工程机械电液控制技术,李鹏举,机电工程学院
非开发机械,原思聪,机电工程学院
工程机械化智能技术,李鹏举,机电工程学院
计算机集成制作系统,李菲,机电工程学院
数控加工工艺与编程技术,叶向东,机电工程学院
混凝土机械,刘强,机电工程学院
焊接设备及焊接工艺,王发展,机电工程学院
交流调速系统,赵南南,机电工程学院
工程机械状态监测与故障诊断,东亚斌,机电工程学院
隧道工程概论,牛泽林,机电工程学院
机械控制工程基础,温庆国,机电工程学院
机械电子工程导论,温庆国,机电工程学院
精密机械设计,史丽晨,机电工程学院
机械制作与装备自动化,蔡安江,机电工程学院
机电智能控制技术,吴晓君,机电工程学院
压力加工设备,庞玉华,机电工程学院
结构实验与检测加固,喻磊,机电工程学院
冶金概论,李小明,机电工程学院
建筑光环境,王新彬,机电工程学院
建筑构图原理,马龙,机电工程学院
建筑声环境,王新彬,机电工程学院
autoCAD二次开发,李进,材料与矿资学院
景观学引导,刘晖,材料与矿资学院
材料工艺学II,李玉祥,材料与矿资学院
湿陷性黄土地基,曹卫平,材料与矿资学院
桥梁概论,王天利,材料与矿资学院
高分子化学,孟晓荣,材料与矿资学院
eda技术及应用,郑普亮,材料与矿资学院
交通工程学,李晓伟,材料与矿资学院
水利水文学,徐金兰,材料与矿资学院
建筑结构I2,胡冗冗,材料与矿资学院
路桥试验与检测,王乾,材料与矿资学院
工程结构软件及应用,曾珂,材料与矿资学院
概念几何,李咛,材料与矿资学院
工业设计方法学,张博,材料与矿资学院
水工程施工,王东英,材料与矿资学院
水质工程学2,袁红林,材料与矿资学院
建筑科学基础,陈晓育,材料与矿资学院
建筑工程管理概论,李芊,材料与矿资学院
工业水处理,徐金兰,材料与矿资学院
水工艺与工程新技术,王社平,材料与矿资学院
金属成型概论,刘世峰,材料与矿资学院
电动力学,张欣会,材料与矿资学院
桥梁抗震与抗风设计,孙建鹏,材料与矿资学院
表面与胶体化学,柴瑞涛,材料与矿资学院
水工艺设备基础,熊家晴,材料与矿资学院
水泵与水泵站,王旭冕,材料与矿资学院
厂矿道路勘测设计,林宇凡,材料与矿资学院
工程测量I,选修,材料与矿资学院
遥感图像处理与应用,许五弟,材料与矿资学院
工业铁路线路与站场,王秋平,材料与矿资学院
检测与控制工程基础,刘明华,材料与矿资学院
自动控制原理,董建园,材料与矿资学院
先进制造系统工程概论,李玲,材料与矿资学院
热工基础,朱常琳,材料与矿资学院
矢量分析与场论,候新凯,材料与矿资学院
技术经济学III,唐晓灵,材料与矿资学院
采选概论,李慧,材料与矿资学院
热力学统计物理,贺格平,材料与矿资学院
传递工程基础实验,党方方,材料与矿资学院
通信原理,毛力,材料与矿资学院
钢结构稳定,冉红东,材料与矿资学院
金属材料技法与锻造,郝映明,材料与矿资学院
高温反应工程,杨康,材料与矿资学院
有机合成化学,孟晓荣,材料与矿资学院
过程检测及控制原理,陈延信,材料与矿资学院
地基处理,张荫,材料与矿资学院
面向对象方法学,董丽丽,材料与矿资学院
控制网络与应用,郑普亮,材料与矿资学院
房屋建筑学,岳鹏,材料与矿资学院
循环经济概论,酒少武,材料与矿资学院
室内空气品质与质量控制技术,王晓理,材料与矿资学院
爆破工程,程平,材料与矿资学院
模糊数学,曹艳平,材料与矿资学院
金属矿床露天开采,程平,材料与矿资学院
材料工艺学实验,刘礼才,材料与矿资学院
矿石学与岩矿鉴定,贺汇文,材料与矿资学院
碎矿与磨矿,王森,材料与矿资学院
给排水工程结构,赵歆冬,材料与矿资学院
金属矿床地下开采,王森,材料与矿资学院
随机过程,王建国,材料与矿资学院
材料研究与测试方法实验,胡亚茹,材料与矿资学院
磁电选矿,李慧,材料与矿资学院
表面物理化学,伍勇华,材料与矿资学院
水泥表面积测定,周媛,材料与矿资学院
流体力学与流体机械,常志英,材料与矿资学院
纳米材料与技术,张耀君,材料与矿资学院
断裂力学与增韧,肖国庆,材料与矿资学院
材料性能学,张军战,材料与矿资学院
材料科学与导论,尹洪峰,材料与矿资学院
高等岩石力学,李俊平,材料与矿资学院
井巷及隧道工程,李俊平,材料与矿资学院
薄膜考试,杨春利,材料与矿资学院
冶金企业自动化,马红周,材料与矿资学院
工程力学实验,马红周,材料与矿资学院
磁性材料,金丹,材料与矿资学院
工程造价,贾康,材料与矿资学院
耐火材料,薛群虎,材料与矿资学院
过程工程单元操作,李斌斌,材料与矿资学院
无机非金属材料生产设备,马林,材料与矿资学院
荷重软化温度测定,高云琴,材料与矿资学院
胶凝材料,朱建辉,材料与矿资学院
数字化矿山技术,李角群,材料与矿资学院
常温抗折强度测定,马邵,材料与矿资学院
数控技术,郭宝良,材料与矿资学院
风险评估理论与技术,赵江平,材料与矿资学院
热膨胀系数测定,高云琴,材料与矿资学院
真密度测定,刘民生,材料与矿资学院
安全经济学,郭梨,材料与矿资学院
电气安全,景亚杰,材料与矿资学院
特种设备安全,益朋,材料与矿资学院
机械及热工设备,马林,材料与矿资学院
安全工程实验下,孟晓静,材料与矿资学院
工业通风与除尘,付林志,材料与矿资学院
传递工程原理,常娜,材料与矿资学院
建筑施工技术与安全,景亚杰,材料与矿资学院
分析测试技术,杨康,材料与矿资学院
混凝土工艺学,李国新,材料与矿资学院
矿山CAD,龙涛,材料与矿资学院
固体废弃物资源化,冯邵航,材料与矿资学院
采矿系统工程,汪朝,材料与矿资学院
矿山机械与运输,张遵毅,材料与矿资学院
矿石可选性研究,王森,材料与矿资学院
矿山企业设备原理,程平,材料与矿资学院
功能复合材料,雷西萍,材料与矿资学院
安全检测与监控,刘鹏刚,材料与矿资学院
矿山经济学,张雯,材料与矿资学院
矿山数字化技术,李角群,材料与矿资学院
矿山应用岩石力学,李俊平,材料与矿资学院
金属的熔炼与铸锭,王文礼,材料与矿资学院
金属学II,张聪慧,材料与矿资学院
稀贵金属冶金,党晓娥,材料与矿资学院
复合材料力学,刘伟,材料与矿资学院
煤化工工艺学,宋永辉,材料与矿资学院
供配电技术,吴昊,材料与矿资学院
冶金原理,洪涛,冶金工程学院
现代冶金检测技术,华建设,冶金工程学院
冶金过程数学模拟,周德宁,冶金工程学院
现代钢铁冶金工程,袁守谦,冶金工程学院
冶金反应工程学,赵俊学,冶金工程学院
电磁场,孙锴,冶金工程学院
控制性详细规划,邓向明,冶金工程学院
路基路面工程,王乾,冶金工程学院
塑性加工力学,张郑,冶金工程学院
建筑热环境,朱新荣,冶金工程学院
建筑材料与构造,万杰,冶金工程学院
建筑供配电与照明技术,卢英,冶金工程学院
建筑透视与阴影II,何知衡,冶金工程学院
工业技术经济,折媛,冶金工程学院
矿井通风与安全,张遵毅,冶金工程学院
桥梁工程II,孙建鹏,冶金工程学院
机床与刀具,郗长青,冶金工程学院
环境设施设备设计原理,张博,冶金工程学院
萃取冶金,洪涛,冶金工程学院
炉外精炼,杨军,冶金工程学院
连续铸钢,杨军,冶金工程学院
钢铁冶金设备,董洁,冶金工程学院
线性系统理论工程,启春,冶金工程学院
燃气供应工程,张莉,冶金工程学院
冲压工艺与模具设计师,杨程,冶金工程学院
建筑设备自动化,冯增喜,冶金工程学院
凝固原理及技术,马幼平,冶金工程学院
通风与空气污染控制,党一荣,冶金工程学院
冰蓄冷技术,王智伟,冶金工程学院
建筑环境测试技术,刘艳峰,冶金工程学院
综合布线,孙继武,冶金工程学院
建筑电气cad,丁有军,冶金工程学院
精密测控与系统,陈静,冶金工程学院
现场总线技术及应用,段中兴,冶金工程学院
城市轨道交通概论,陈君,冶金工程学院
环境岩土工程学,苏立君,冶金工程学院
数学物理方法,朱立平,冶金工程学院
沥青与沥青混合料,王乾,冶金工程学院
河流动力学,崔海航,冶金工程学院
桥梁施工与组织管理,汪洁,冶金工程学院
材料分析检测技术,刘晓燕,冶金工程学院
选矿概论,王冠甫,冶金工程学院
现代轧制理论与工艺,王庆娟,冶金工程学院
现代塑性加工力学,王文礼,冶金工程学院
工力实验拉压,王文礼,冶金工程学院
凝固原理,崔春娟,冶金工程学院
特种冶炼,俞娟,冶金工程学院
稀土冶金,王碧侠,冶金工程学院
粉末冶金,梁李斯,冶金工程学院
煤化学,汤洁莉,冶金工程学院
加热炉,刘明华,冶金工程学院
分离科学与工程,张玉洁,冶金工程学院
无机精细化工工艺学,董缘,冶金工程学院
建筑物理,朱新荣,冶金工程学院
深加工工艺学III,刘环,冶金工程学院
挤压与拉拔工艺及模具设计,杨程,冶金工程学院
深加工工艺学I,杨程,冶金工程学院
深加工工艺学II,杨西荣,冶金工程学院
钢铁冶金学,马杰,冶金工程学院
化工腐蚀与防护,唐长斌,冶金工程学院
材料腐蚀与防护,王耀勉,冶金工程学院
材料制备技术,胡平,冶金工程学院
金属涂镀工艺学,刘晓平,冶金工程学院
现代冶金新工艺与新技术,崔亚茹,冶金工程学院
车间设计基础,杨占林,冶金工程学院
连铸连轧技术,王文礼,冶金工程学院
压力加工车间设计,王耀宁,冶金工程学院
催化原理,马晶,冶金工程学院
冶金环保及资源综合利用,张朝晖,冶金工程学院
轧制过程自动化,刘明华,冶金工程学院
塑性成型原理,杨西荣,冶金工程学院
水分析化学,张军,冶金工程学院
直接还原与熔融还原,折媛,冶金工程学院
冶金实验技术,鲁路,冶金工程学院
板型控制技术,张兵,冶金工程学院
材料成型物理冶金学,赵西成,冶金工程学院
电化学基础,唐长斌,冶金工程学院
高等合金热力学,杨西荣,冶金工程学院
建筑设备安装技术与施工,刘艳峰,冶金工程学院
材料加工热工基础,华建社,冶金工程学院
建筑快速表现技法,张寅斐,冶金工程学院
城市规划设计初步,张凡,环境与市政工程学院
工学基础2,郭瑞峰,环境与市政工程学院
数据结构,顾清华,环境与市政工程学院
造园艺术与园林设计II,徐鼎黄,环境与市政工程学院
数字信号处理,张立材,环境与市政工程学院
DSP应用系统设计,张立材,环境与市政工程学院
线性系统理论基础,启春,环境与市政工程学院
误差理论与数据处理,陈俊英,环境与市政工程学院
Fortran语言,高然,环境与市政工程学院
热传导对流换热基础,郭亚军,环境与市政工程学院
流体输配管网,张莉,环境与市政工程学院
胶体科学引论,段晋明,环境与市政工程学院
环境流体力学,张志政,环境与市政工程学院
土木工程施工I,梅源,环境与市政工程学院
热传导,郭亚军,环境与市政工程学院
城市水工程概论,王东英,环境与市政工程学院
计算传热学,朱常琳,环境与市政工程学院
建筑能耗分析方法,郑庆红,环境与市政工程学院
给排水工程管道施工,吴乐颂,环境与市政工程学院
水处理吸附理论与技术,郭新超,环境与市政工程学院
分子生物学概论,李永军,环境与市政工程学院
空气调节原理与技术,李安桂,环境与市政工程学院
水处理高级氧化与消毒,王文东,环境与市政工程学院
混凝与絮凝,段晋明,环境与市政工程学院
膜处理理论与技术,王磊,环境与市政工程学院
水质生态净化,任勇翔,环境与市政工程学院
高级氧化与消毒,任勇翔,环境与市政工程学院
水处理过滤理论技术,张建峰,环境与市政工程学院
管道工程理论造价与实作,吴乐颂,环境与市政工程学院
管道材料与设备,吴乐颂,环境与市政工程学院
泵站课设,郑庆红,环境与市政工程学院
VB语言,高然,环境与市政工程学院
高等流体力学,张鸿雁,环境与市政工程学院
建筑环境与能源应用工程概论,李安桂,环境与市政工程学院
现代城市规划与设计理论,刘克成,环境与市政工程学院
水污染控制工程2,闫东杰,环境与市政工程学院
大气污染控制工艺设计,闫东杰,环境与市政工程学院
水质工程学1,李伟,环境与市政工程学院
锅炉房工艺与设备,王欢,环境与市政工程学院
给水排水管网系统,吕永涛,环境与市政工程学院
制冷压缩机,熊伟,环境与市政工程学院
水处理实验3,刘伟,环境与市政工程学院
高等混泥土结构,赵歆冬,土木工程学院
机械原理,张小龙,土木工程学院
粉体工程,侯新凯,土木工程学院
bim技术,王茹,土木工程学院
混凝土非线性分析,梁兴文,土木工程学院
高等混泥土,叶毅,土木工程学院
施工技术,叶毅,土木工程学院
机场与港口规划,林宇凡,土木工程学院
工程地质学原理,韩晓雷,土木工程学院
路基路面工程II,王铁行,土木工程学院
预应力混凝土结构设计原理,杨勇,土木工程学院
建筑空间设计转轮,孙自然,土木工程学院
减震隔震,杨勇,土木工程学院
总图设计,李锐,土木工程学院
建筑电气施工与概预算,刘光辉,土木工程学院
城市规划设计初步2,王侠,土木工程学院
高层建筑结构设计,徐亚洲,土木工程学院
岩土工程勘察,王平安,土木工程学院
高层地基基础,王铁行,土木工程学院
建筑工程bim设计与应用,张慧,土木工程学院
岩石工程测试技术,王平安,土木工程学院
大跨混泥土桥梁,闫雯,土木工程学院
机械化运输与仓储工程,李婷,土木工程学院
建筑设计专题1,党瑞,建筑学院
建筑力学II,张卫喜,建筑学院
建筑信息模型,侯冰洋,建筑学院
近现代建筑理论,马龙,建筑学院
建筑设备1,吴小虎,建筑学院
建筑设计原理2,王芳,建筑学院
现代建筑科学技术,杜高潮,建筑学院
生态建筑原理与技术,何泉,建筑学院
建筑结构1,任瑞,建筑学院
建筑构造新技术,赵西平,建筑学院
建筑传热与传湿理论基础,闫增峰,建筑学院
建筑工程检测技术,丁有军,建筑学院
居住建筑设计理论,尤涛,建筑学院
建筑动力与照明设计技术,魏勇,建筑学院
热学,高当丽,理学院
数学分析2,庞永峰,理学院
光学,王博,理学院
电磁学,张华萍,理学院
经济学原理,赵智龙,理学院
数学分析3,田清,理学院
电路分析基础,徐仰彬,理学院
生物化学与技术,郭育涛,理学院
微机原理,王民,理学院
结构动力学,惠宽堂,理学院
光电子学与光子学的原理及应用,李隆,理学院
功能材料化学,江元汝,理学院
现代分离化学,董社英,理学院
材料显微结构分析方法,谢会东,理学院
无机合成化学,谢会东,理学院
纳米力学,李隆,理学院
激光原理与技术,李隆,理学院
原子物理学,周超,理学院
高等光学,张引科,理学院
振动理论,刘彤,理学院
光电检测技术及应用,柴瑞鹏,理学院
泛函分析,石智,理学院
有机污染物化学,柴守宁,理学院
传感器原理及工程应用,孙继武,理学院
工程项目质量与安全管理,来雨,管理学院
工程项目管理III,王碧剑,管理学院
会计电算化,陆秋琴,管理学院
数字建筑设计概论,叶飞,管理学院
大规模数据库系统,黄光球,管理学院
有色冶金学,马红周,管理学院
