2014-12-20
update_hot_day: 2014-12-21
get_hottest_resource: 2014-12-21
update_hot_day: 2014-12-22
get_hottest_resource: 2014-12-22
update_hot_day: 2014-12-23
get_hottest_resource: 2014-12-23
update_hot_day: 2014-12-24
get_hottest_resource: 2014-12-24
update_hot_day: 2014-12-25
get_hottest_resource: 2014-12-25
update_hot_day: 2014-12-26
get_hottest_resource: 2014-12-26
update_hot_day: 2014-12-27
get_hottest_resource: 2014-12-27
update_hot_day: 2014-12-28
get_hottest_resource: 2014-12-28
update_hot_day: 2014-12-29
get_hottest_resource: 2014-12-29
update_hot_day: 2014-12-30
get_hottest_resource: 2014-12-30
update_hot_day: 2014-12-31
get_hottest_resource: 2014-12-31
update_hot_day: 2015-01-01
get_hottest_resource: 2015-01-01
update_hot_day: 2015-01-02
get_hottest_resource: 2015-01-02
update_hot_day: 2015-01-03
get_hottest_resource: 2015-01-03
update_hot_day: 2015-01-04
get_hottest_resource: 2015-01-04
update_hot_day: 2015-01-05
get_hottest_resource: 2015-01-05
update_hot_day: 2015-01-06
get_hottest_resource: 2015-01-06
update_hot_day: 2015-01-07
get_hottest_resource: 2015-01-07
update_hot_day: 2015-01-08
get_hottest_resource: 2015-01-08
update_hot_day: 2015-01-09
get_hottest_resource: 2015-01-09
update_hot_day: 2015-01-10
get_hottest_resource: 2015-01-10
update_hot_day: 2015-01-11
get_hottest_resource: 2015-01-11
update_hot_day: 2015-01-12
get_hottest_resource: 2015-01-12
update_hot_day: 2015-01-13
get_hottest_resource: 2015-01-13
update_hot_day: 2015-01-14
get_hottest_resource: 2015-01-14
update_hot_day: 2015-01-15
get_hottest_resource: 2015-01-15
update_hot_day: 2015-01-16
get_hottest_resource: 2015-01-16
update_hot_day: 2015-01-17
get_hottest_resource: 2015-01-17
update_hot_day: 2015-01-18
get_hottest_resource: 2015-01-18
update_hot_day: 2015-01-19
get_hottest_resource: 2015-01-19
update_hot_day: 2015-01-20
get_hottest_resource: 2015-01-20
update_hot_day: 2015-01-21
get_hottest_resource: 2015-01-21
update_hot_day: 2015-01-22
get_hottest_resource: 2015-01-22
update_hot_day: 2015-01-23
get_hottest_resource: 2015-01-23
update_hot_day: 2015-01-24
get_hottest_resource: 2015-01-24
update_hot_day: 2015-01-25
get_hottest_resource: 2015-01-25
update_hot_day: 2015-01-26
get_hottest_resource: 2015-01-26
update_hot_day: 2015-01-27
get_hottest_resource: 2015-01-27
update_hot_day: 2015-01-28
get_hottest_resource: 2015-01-28
update_hot_day: 2015-01-29
get_hottest_resource: 2015-01-29
update_hot_day: 2015-01-30
get_hottest_resource: 2015-01-30
update_hot_day: 2015-01-31
get_hottest_resource: 2015-01-31
update_hot_day: 2015-02-01
get_hottest_resource: 2015-02-01
update_hot_day: 2015-02-02
get_hottest_resource: 2015-02-02
update_hot_day: 2015-02-03
get_hottest_resource: 2015-02-03
update_hot_day: 2015-02-04
get_hottest_resource: 2015-02-04
update_hot_day: 2015-02-05
get_hottest_resource: 2015-02-05
update_hot_day: 2015-02-06
get_hottest_resource: 2015-02-06
update_hot_day: 2015-02-07
get_hottest_resource: 2015-02-07
update_hot_day: 2015-02-08
get_hottest_resource: 2015-02-08
update_hot_day: 2015-02-09
get_hottest_resource: 2015-02-09
update_hot_day: 2015-02-10
get_hottest_resource: 2015-02-10
update_hot_day: 2015-02-11
get_hottest_resource: 2015-02-11
update_hot_day: 2015-02-12
get_hottest_resource: 2015-02-12
update_hot_day: 2015-02-13
get_hottest_resource: 2015-02-13
update_hot_day: 2015-02-14
get_hottest_resource: 2015-02-14
update_hot_day: 2015-02-15
get_hottest_resource: 2015-02-15
update_hot_day: 2015-02-16
get_hottest_resource: 2015-02-16
update_hot_day: 2015-02-17
get_hottest_resource: 2015-02-17
update_hot_day: 2015-02-18
get_hottest_resource: 2015-02-18
update_hot_day: 2015-02-19
get_hottest_resource: 2015-02-19
update_hot_day: 2015-02-20
get_hottest_resource: 2015-02-20
update_hot_day: 2015-02-21
get_hottest_resource: 2015-02-21
update_hot_day: 2015-02-22
get_hottest_resource: 2015-02-22
update_hot_day: 2015-02-23
get_hottest_resource: 2015-02-23
update_hot_day: 2015-02-24
get_hottest_resource: 2015-02-24
update_hot_day: 2015-02-25
get_hottest_resource: 2015-02-25
update_hot_day: 2015-02-26
get_hottest_resource: 2015-02-26
update_hot_day: 2015-02-27
get_hottest_resource: 2015-02-27
update_hot_day: 2015-02-28
get_hottest_resource: 2015-02-28
update_hot_day: 2015-03-01
get_hottest_resource: 2015-03-01
update_hot_day: 2015-03-02
get_hottest_resource: 2015-03-02
update_hot_day: 2015-03-03
get_hottest_resource: 2015-03-03
update_hot_day: 2015-03-04
get_hottest_resource: 2015-03-04
update_hot_day: 2015-03-05
get_hottest_resource: 2015-03-05
update_hot_day: 2015-03-06
get_hottest_resource: 2015-03-06
update_hot_day: 2015-03-07
get_hottest_resource: 2015-03-07
update_hot_day: 2015-03-08
get_hottest_resource: 2015-03-08
update_hot_day: 2015-03-09
get_hottest_resource: 2015-03-09
update_hot_day: 2015-03-10
get_hottest_resource: 2015-03-10
