课程中文名称,教师,开课院系
物流概论,梁雯,商学院
物流规划与设计,叶春森,商学院
微观经济学,陈来推,商学院
宏观经济学,蒋长流,商学院
会计学,王素玲,商学院
统计学,高文武,商学院
经济法,唐里亚,商学院
财务管理,何文龙,商学院
市场营销,李阳颂,商学院
金融市场学,袁庆,商学院
审计学,方兆强,商学院
管理会计,李晓玲,商学院
会计信息系统,王鹏,商学院
国际金融,吴成颂,经济学院
产业经济学,宋涛,经济学院
财政学,何炼成,经济学院
公共经济学,田慧敏,经济学院
城市经济学,徐礼成,经济学院
国际贸易,程嘉平,经济学院
保险学,朱庆文,经济学院
证券投资学,林阳,经济学院
金融市场学,刘光辉,经济学院
无机及分析化学,毛昌杰,化学化工学院
有机化学,许献云,化学化工学院
物理化学,袁玉鹏,化学化工学院
材料科学基础,吴庆云,化学化工学院
结构化学,马文,化学化工学院
化工原理,张芳,化学化工学院
化工热力学,刘庆安,化学化工学院
色谱分析,陈鹏,化学化工学院
化学信息学,杨敏,化学化工学院
理论电化学,徐畅,化学化工学院
理论力学,林继平,物理与材料科学学院
原子物理学,丁宗玲,物理与材料科学学院
数学物理方法,明烨,物理与材料科学学院
电动力学,吴明在,物理与材料科学学院
量子力学,李峰,物理与材料科学学院
固体物理学,丁基万,物理与材料科学学院
计算物理,程雅玲,物理与材料科学学院
激光原理与技术,冯磊,物理与材料科学学院
近代物理实验,丁伯坤,物理与材料科学学院
模拟电子技术,陈钱,物理与材料科学学院
高级语言程序设计,张玲,计算机科学与技术学院
汇编语言程序设计,韦穗,计算机科学与技术学院
数字逻辑,张磊,计算机科学与技术学院
离散数学,张诚,数学科学学院
数据结构,王文兵,计算机科学与技术学院
数据库原理,吴福虎,计算机科学与技术学院
计算机组成原理,柴小东,计算机科学与技术学院
网络工程,陶亮,计算机科学与技术学院
算法设计分析,华栋,计算机科学与技术学院
高级数据库系统,吴同,计算机科学与技术学院
分析数学,王奇,数学科学学院
运筹学,李晓,数学科学学院
概率论,徐怀,数学科学学院
数值分析,李甜甜,数学科学学院
管理谋划,杜先能,数学科学学院
代数学,张海峰,数学科学学院
组合学,范益正,数学科学学院
复变函数论,董柏青,数学科学学院
泛函微分方程,何国红,数学科学学院
数理统计,李微,数学科学学院
机械制图,李海青,电气工程与自动化学院
工程力学,刘永兵,电气工程与自动化学院
机械制造基础,孙占里,电气工程与自动化学院
机械设计,朱明星,电气工程与自动化学院
机械制造工艺学,刘小燕,电气工程与自动化学院
机械工程材料,刘方程,电气工程与自动化学院
机电传动控制,王群京,电气工程与自动化学院
自动化仪表与过程控制,高清维,电气工程与自动化学院
工程电磁场,何舒平,电气工程与自动化学院
自动控制理论,章军,电气工程与自动化学院
