110	数学
11011	　　数学史
11014	　　数理逻辑与数学基础
1101410	　　　演绎逻辑学	亦称符号逻辑学
1101420	　　　证明论	亦称元数学
1101430	　　　递归论
1101440	　　　模型论
1101450	　　　公理集合论
1101460	　　　数学基础
1101499	　　　数理逻辑与数学基础其他学科
11017	　　数论
1101710	　　　初等数论
1101720	　　　解析数论
1101730	　　　代数数论
1101740	　　　超越数论
1101750	　　　丢番图逼近
1101760	　　　数的几何
1101770	　　　概率数论
1101780	　　　计算数论
1101799	　　　数论其他学科
11021	　　代数学
1102110	　　　线性代数
1102115	　　　群论
1102120	　　　域论
1102125	　　　李群
1102130	　　　李代数
1102135	　　　Kac-Moody代数
1102140	　　　环论	包括交换环与交换代数,结合环与结合代数,非结合环与非结合代数等
1102145	　　　模论
1102150	　　　格论
1102155	　　　泛代数理论
1102160	　　　范畴论
1102165	　　　同调代数
1102170	　　　代数K理论
1102175	　　　微分代数
1102180	　　　代数编码理论
1102199	　　　代数学其他学科
11024	　　代数几何学
11027	　　几何学
1102710	　　　几何学基础
1102715	　　　欧氏几何学
1102720	　　　非欧几何学	包括黎曼几何学等
1102725	　　　球面几何学
1102730	　　　向量和张量分析
1102735	　　　仿射几何学
1102740	　　　射影几何学
1102745	　　　微分几何学
1102750	　　　分数维几何
1102755	　　　计算几何学
1102799	　　　几何学其他学科
11031	　　拓扑学
1103110	　　　点集拓扑学
1103115	　　　代数拓扑学
1103120	　　　同伦论
1103125	　　　低维拓扑学
1103130	　　　同调论
1103135	　　　维数论
1103140	　　　格上拓扑学
1103145	　　　纤维丛论
1103150	　　　几何拓扑学
1103155	　　　奇点理论
1103160	　　　微分拓扑学
1103199	　　　拓扑学其他学科
11034	　　数学分析
1103410	　　　微分学
1103420	　　　积分学
1103430	　　　级数论
1103499	　　　数学分析其他学科
11037	　　非标准分析
11041	　　函数论
1104110	　　　实变函数论
1104120	　　　单复变函数论
1104130	　　　多复变函数论
1104140	　　　函数逼近论
1104150	　　　调和分析
1104160	　　　复流形
1104170	　　　特殊函数论
1104199	　　　函数论其他学科
11044	　　常微分方程
1104410	　　　定性理论
1104420	　　　稳定性理论
1104430	　　　解析理论
1104499	　　　常微分方程其他学科
11047	　　偏微分方程
1104710	　　　椭圆型偏微分方程
1104720	　　　双曲型偏微分方程
1104730	　　　抛物型偏微分方程
1104740	　　　非线性偏微分方程
1104799	　　　偏微分方程其他学科
11051	　　动力系统
1105110	　　　微分动力系统
1105120	　　　拓扑动力系统
1105130	　　　复动力系统
1105199	　　　动力系统其他学科
11054	　　积分方程
11057	　　泛函分析
1105710	　　　线性算子理论
1105715	　　　变分法
1105720	　　　拓扑线性空间
1105725	　　　希尔伯特空间
1105730	　　　函数空间
1105735	　　　巴拿赫空间
1105740	　　　算子代数
1105745	　　　测度与积分
1105750	　　　广义函数论
1105755	　　　非线性泛函分析
1105799	　　　泛函分析其他学科
11061	　　计算数学
1106120	　　　常微分方程数值解
1106130	　　　偏微分方程数值解
1106140	　　　积分变换与积分方程数值方法	原名为“积分方程数值解”
1106150	　　　数值代数
1106155	　　　优化计算方法
1106165	　　　数值逼近与计算几何
1106170	　　　随机数值方法与统计计算	原名为“随机数值实验”
1106175	　　　并行计算算法
1106180	　　　误差分析与区间算法	原名为“误差分析”
1106185	　　　小波分析与傅立叶分析的数值方法
1106190	　　　反问题计算方法
1106195	　　　符号计算与计算机推理
1106199	　　　计算数学其他学科
11064	　　概率论
1106410	　　　几何概率
1106420	　　　概率分布
1106430	　　　极限理论
1106440	　　　随机过程	包括正态过程与平稳过程、点过程等
1106450	　　　马尔可夫过程
1106460	　　　随机分析
1106470	　　　鞅论
1106480	　　　应用概率论	具体应用入有关学科
1106499	　　　概率论其他学科
11067	　　数理统计学
1106710	　　　抽样理论	包括抽样分布、抽样调查等
1106715	　　　假设检验
1106720	　　　非参数统计
1106725	　　　方差分析
1106730	　　　相关回归分析
1106735	　　　统计推断
1106740	　　　贝叶斯统计	包括参数估计等
1106745	　　　试验设计
1106750	　　　多元分析
1106755	　　　统计判决理论
1106760	　　　时间序列分析
1106765	　　　空间统计
1106799	　　　数理统计学其他学科
11071	　　应用统计数学
1107110	　　　统计质量控制
1107120	　　　可靠性数学
1107130	　　　保险数学
1107135	　　　统计计算
1107140	　　　统计模拟
1107199	　　　应用统计数学其他学科
11074	　　运筹学
1107410	　　　线性规划
1107415	　　　非线性规划
1107420	　　　动态规划
1107425	　　　组合最优化
1107430	　　　参数规划
1107435	　　　整数规划
1107440	　　　随机规划
1107445	　　　排队论
1107450	　　　对策论	亦称博弈论
1107455	　　　库存论
1107460	　　　决策论
1107465	　　　搜索论
1107470	　　　图论
1107475	　　　统筹论
1107480	　　　最优化
1107499	　　　运筹学其他学科
11077	　　组合数学
11081	　　离散数学
11084	　　模糊数学
11085	　　计算机数学
11087	　　应用数学	具体应用入有关学科
11099	　　数学其他学科
120	信息科学与系统科学
12010	　　信息科学与系统科学基础学科
1201010	　　　信息论
1201020	　　　控制论
1201030	　　　系统论
1201099	　　　信息科学与系统科学基础学科其他学科
	　　运筹学	见11074
12020	　　系统学
	　　　微分动力系统	见1105110
1202010	　　　混沌
1202020	　　　一般系统论
1202030	　　　耗散结构理论
1202040	　　　协同学
1202050	　　　突变论
1202060	　　　超循环论
1202070	　　　复杂系统与复杂性科学
1202099	　　　系统学其他学科
12030	　　控制理论
1203010	　　　大系统理论
1203020	　　　系统辨识
1203030	　　　状态估计
1203040	　　　鲁棒控制
1203099	　　　控制理论其他学科
12040	　　系统评估与可行性分析
12050	　　系统工程方法论
1205010	　　　系统建模
	　　　决策分析	见6305035
	　　　决策支持系统	见6305040
	　　　管理信息系统	见6305045
1205099	　　　系统工程方法论其他学科
12099	　　信息科学与系统科学其他学科
130	力学
13010	　　基础力学
1301010	　　　理论力学
1301020	　　　理性力学
1301030	　　　非线性力学
1301040	　　　连续介质力学
1301050	　　　摩擦学
1301060	　　　柔性多体力学
1301070	　　　陀螺力学
1301080	　　　飞行力学
1301099	　　　基础力学其他学科
13015	　　固体力学
1301510	　　　弹性力学
1301515	　　　塑性力学	包括弹塑性力学
1301520	　　　粘弹性、粘塑性力学
1301525	　　　蠕变
1301530	　　　界面力学与表面力学
1301535	　　　疲劳
1301540	　　　损伤力学
1301545	　　　断裂力学
1301550	　　　散体力学
1301555	　　　细观力学
1301556	　　　微观力学
1301560	　　　电磁固体力学
	　　　材料力学	见4301010
1301565	　　　结构力学
1301570	　　　计算固体力学
1301575	　　　实验固体力学
1301599	　　　固体力学其他学科
13020	　　振动与波
1302010	　　　线性振动力学
1302020	　　　非线性振动力学
1302030	　　　弹性体振动力学
1302040	　　　随机振动力学
1302050	　　　振动控制理论
1302060	　　　固体中的波
1302070	　　　流体—固体耦合振动
1302099	　　　振动与波其他学科
13025	　　流体力学
1302511	　　　理论流体力学
1302514	　　　水动力学
1302517	　　　气体动力学
1302521	　　　空气动力学
1302524	　　　悬浮体力学
1302527	　　　湍流理论
1302531	　　　粘性流体力学
1302534	　　　多相流体力学
1302537	　　　渗流力学
1302541	　　　物理—化学流体力学
1302544	　　　等离子体动力学
1302547	　　　电磁流体力学
1302551	　　　非牛顿流体力学
1302554	　　　流体机械流体力学
1302557	　　　旋转与分层流体力学
1302561	　　　辐射流体力学
1302564	　　　计算流体力学
1302567	　　　实验流体力学
1302571	　　　环境流体力学
1302574	　　　微流体力学
1302599	　　　流体力学其他学科
13030	　　流变学
13035	　　爆炸力学
1303510	　　　爆轰与爆燃理论
1303520	　　　爆炸波、冲击波、应力波
1303530	　　　高速碰撞动力学
1303599	　　　爆炸力学其他学科
13040	　　物理力学
1304010	　　　高压固体物理力学
1304020	　　　稠密流体物理力学
1304030	　　　高温气体物理力学
1304040	　　　多相介质物理力学
1304050	　　　临界现象与相变
1304060	　　　原子与分子动力学
1304099	　　　物理力学其他学科
13041	　　生物力学	包括生物流体力学与生物流变学等
13045	　　统计力学
13050	　　应用力学	具体应用入有关学科
13099	　　力学其他学科
140	物理学
14010	　　物理学史
14015	　　理论物理学
1401510	　　　数学物理
1401520	　　　电磁场理论
1401530	　　　经典场论
1401540	　　　相对论	原名为“相对论与引力场”
1401550	　　　量子力学
1401560	　　　统计物理学
1401599	　　　理论物理学其他学科
14020	　　声学
1402010	　　　普通线性声学	含射线声学、波动声学、大气声学、声波反射、散射、衍射、干涉、传播衰减。原名为“物理声学”
1402020	　　　非线性声学
1402025	　　　流体动力声学	含航空声学、流体运动与声波相互作用、流体声辐射、燃烧声学等
1402035	　　　超声学、量子声学和声学效应
1402045	　　　次声学
1402050	　　　水声和海洋声学	原名为“水声学”
1402053	　　　结构声学和振动
1402056	　　　噪声、噪声效应及其控制
1402059	　　　建筑声学与电声学
1402063	　　　声学信号处理
1402066	　　　生理、心理声学和生物声学
1402069	　　　语言声学和语音信号处理
1402073	　　　音乐声学
1402076	　　　声学换能器、声学测量及方法
1402079	　　　声学测量方法
1402083	　　　声学材料
1402086	　　　信息科学中的声学问题	含通信声学、声学微机电系统、声学信道
1402099	　　　与声学有关的其它物理问题和交叉学科	原名为“声学其他学科”
14025	　　热学
1402510	　　　热力学
1402520	　　　热物性学
1402530	　　　传热学
1402599	　　　热学其他学科
14030	　　光学
1403010	　　　几何光学
1403015	　　　物理光学
1403020	　　　非线性光学
1403025	　　　光谱学
1403030	　　　量子光学
1403035	　　　信息光学
1403040	　　　导波光学
1403045	　　　发光学
1403050	　　　红外物理
1403055	　　　激光物理
1403057	　　　光子学与集成光学
1403060	　　　应用光学	具体应用入有关学科
	　　　大气光学	参见1701510
1403062	　　　环境光学
1403064	　　　海洋光学
1403066	　　　光学遥感
1403068	　　　超快激光及应用
1403099	　　　光学其他学科
14035	　　电磁学
1403510	　　　电学
	　　　磁学	见1405065
1403520	　　　静电学
1403530	　　　静磁学
1403540	　　　电动力学
1403599	　　　电磁学其他学科
14040	　　无线电物理
1404010	　　　电磁波物理
1404020	　　　量子无线电物理
1404030	　　　微波物理学
1404040	　　　超高频无线电物理
1404050	　　　统计无线电物理
1404099	　　　无线电物理其他学科
14045	　　电子物理学
1404510	　　　量子电子学
1404520	　　　电子离子与真空物理
1404530	　　　带电粒子光学
1404599	　　　电子物理学其他学科
14050	　　凝聚态物理学
1405010	　　　凝聚态理论
1405015	　　　金属物理学
1405020	　　　半导体物理学
1405025	　　　电介质物理学
1405030	　　　晶体学	包括晶体生长、晶体化学等
1405035	　　　非晶态物理学
1405040	　　　软物质物理学	原名为“液晶物理学”
1405045	　　　薄膜物理学
1405050	　　　低维物理
1405055	　　　表面与界面物理学
1405060	　　　固体发光
1405065	　　　磁学
1405070	　　　超导物理学
1405075	　　　低温物理学
1405080	　　　高压物理学
	　　　摩擦学	见1301050
1405085	　　　介观物理学
1405090	　　　量子调控
1405099	　　　凝聚态物理学其他学科
14055	　　等离子体物理学
1405510	　　　热核聚变等离子体物理学
1405520	　　　低温等离子体物理学
1405530	　　　等离子体诊断学	原名为“等离子体光谱学”
1405540	　　　凝聚态等离子体物理学
1405599	　　　等离子体物理学其他学科
14060	　　原子分子物理学
1406010	　　　原子与分子理论
1406020	　　　原子光谱学
1406030	　　　分子光谱学
1406040	　　　波谱学
1406050	　　　原子与分子碰撞过程
1406055	　　　玻色—爱因斯坦凝聚和冷原子物理
1406099	　　　原子分子物理学其他学科
14065	　　原子核物理学
1406510	　　　核结构
1406515	　　　核能谱学
1406520	　　　低能核反应
1406525	　　　中子物理学
1406530	　　　裂变物理学
1406535	　　　聚变物理学
1406540	　　　轻粒子核物理学
1406545	　　　重离子核物理学
1406550	　　　中高能核物理学
1406599	　　　原子核物理学其他学科
14070	　　高能物理学
1407010	　　　粒子物理学	原名为“基本粒子物理学”
1407020	　　　宇宙线物理学
1407030	　　　粒子加速器物理学
1407040	　　　高能物理实验
1407050	　　　粒子宇宙学
1407099	　　　高能物理学其他学科
14075	　　计算物理学
14080	　　应用物理学	具体应用入有关学科
14099	　　物理学其他学科
150	化学
15010	　　化学史
15015	　　无机化学
1501510	　　　元素化学
1501520	　　　配位化学
1501530	　　　同位素化学
1501540	　　　无机固体化学
1501550	　　　无机合成化学
1501560	　　　无机分离化学
1501570	　　　物理无机化学
1501580	　　　生物无机化学
1501599	　　　无机化学其他学科
15020	　　有机化学
1502010	　　　元素有机化学	包括金属有机化学等
1502020	　　　天然产物有机化学
1502030	　　　有机固体化学
1502040	　　　有机合成化学
1502050	　　　有机光化学
1502060	　　　物理有机化学	包括理论有机化学、立体化学等
1502070	　　　生物有机化学
1502075	　　　金属有机光化学
1502099	　　　有机化学其他学科
15025	　　分析化学
1502510	　　　化学分析	包括定性分析、定量分析等
1502515	　　　电化学分析
1502520	　　　光谱分析
1502525	　　　波谱分析
1502530	　　　质谱分析
1502535	　　　热化学分析	原名为“热谱分析”
1502540	　　　色谱分析
1502545	　　　光度分析
1502550	　　　放射分析
1502555	　　　状态分析与物相分析
1502560	　　　分析化学计量学
1502599	　　　分析化学其他学科
15030	　　物理化学
1503010	　　　化学热力学
1503015	　　　化学动力学	包括分子反应动力学等
1503020	　　　结构化学	包括表面化学、结构分析等
1503025	　　　量子化学
1503030	　　　胶体化学与界面化学
1503035	　　　催化化学
1503040	　　　热化学
1503045	　　　光化学	包括超分子光化学、光电化学、激光化学、感光化学等
1503050	　　　电化学
1503055	　　　磁化学
1503060	　　　高能化学	包括辐射化学,等离体化学
1503065	　　　计算化学
1503099	　　　物理化学其他学科
15035	　　化学物理学
15040	　　高分子物理
15045	　　高分子化学
1504510	　　　无机高分子化学
1504520	　　　天然高分子化学
1504530	　　　功能高分子	包括液晶高分子化学
1504540	　　　高分子合成化学
1504550	　　　高分子物理化学
1504560	　　　高分子光化学
1504599	　　　高分子化学其他学科
15050	　　核化学
1505010	　　　放射化学
1505020	　　　核反应化学
1505030	　　　裂变化学
1505040	　　　聚变化学
1505050	　　　重离子核化学
1505060	　　　核转变化学
1505070	　　　环境放射化学
1505099	　　　核化学其他学科
15055	　　应用化学	具体应用入有关学科
15060	　　化学生物学
15065	　　材料化学
1506510	　　　软化学
1506520	　　　碳化学
1506530	　　　纳米化学
1506599	　　　材料化学其他学科
15099	　　化学其他学科
160	天文学
16010	　　天文学史
16015	　　天体力学
1601510	　　　摄动理论
1601520	　　　天体力学定性理论
1601530	　　　天体形状与自转理论
1601540	　　　天体力学数值方法
1601550	　　　天文动力学	包括人造卫星、宇宙飞船动力学等
1601560	　　　历书天文学
1601599	　　　天体力学其他学科
16020	　　天体物理学
1602010	　　　理论天体物理学
1602020	　　　相对论天体物理学
	　　　磁流体力学	见1302547
	　　　等离子体动力学	见1302544
1602040	　　　高能天体物理学	包括天体核物理学
1602050	　　　实测天体物理学
1602099	　　　天体物理学其他学科
16025	　　宇宙化学	原名为“天体化学”
1602510	　　　空间化学
1602520	　　　天体元素学
1602530	　　　月球与行星化学
1602599	　　　宇宙化学其他学科
16030	　　天体测量学
1603020	　　　基本天体测量学
1603030	　　　照相天体测量学
1603040	　　　射电天体测量学
1603050	　　　空间天体测量学
1603060	　　　方位天文学
1603070	　　　实用天文学
1603099	　　　天体测量学其他学科
16035	　　射电天文学
1603510	　　　射电天体物理学
1603520	　　　射电天文方法
1603599	　　　射电天文学其他学科
16040	　　空间天文学
1604010	　　　红外天文学
1604020	　　　紫外天文学
1604030	　　　X射线天文学
1604040	　　　γ射线天文学
1604050	　　　中微子天文学
1604099	　　　空间天文学其他学科
16045	　　天体演化学	各层次天体形成与演化入各学科
16050	　　星系与宇宙学
1605010	　　　星系动力学
1605020	　　　星系天文学
1605030	　　　运动宇宙学
1605040	　　　星系际物质
1605050	　　　大爆炸宇宙论
1605060	　　　星系形成与演化
1605070	　　　宇宙大尺度结构起源与演化
1605099	　　　星系与宇宙学其他学科
16055	　　恒星与银河系
1605510	　　　恒星物理学
1605520	　　　恒星天文学
1605530	　　　恒星形成与演化
1605540	　　　星际物质物理学
1605550	　　　银河系结构与运动
1605599	　　　恒星与银河系其他学科
16060	　　太阳与太阳系
1606010	　　　太阳物理学
1606020	　　　太阳系物理学
1606030	　　　太阳系形成与演化
1606040	　　　行星物理学
1606050	　　　行星际物理学
1606060	　　　陨星学
1606070	　　　比较行星学
1606080	　　　月球科学
1606099	　　　太阳与太阳系其他学科
16065	　　天体生物学
16070	　　天文地球动力学	代码原为1603010
16075	　　时间测量学
1607510	　　　时间尺度
1607520	　　　时间测量与方法
1607530	　　　守时理论
1607540	　　　授时理论与方法
1607599	　　　时间测量学其他学科
16099	　　天文学其他学科
170	地球科学
17010	　　地球科学史
17015	　　大气科学
1701510	　　　大气物理学	包括大气光学、大气声学、大气电学、中层物理学等
1701515	　　　大气化学
	　　　大气环境学	参见6102010
1701520	　　　大气探测	包括大气遥感
1701525	　　　动力气象学	包括数值天气预报与数值模拟等
1701530	　　　天气学
1701535	　　　气候学
1701540	　　　大气边界层物理学	原名为“云与降水物理学”
1701545	　　　应用气象学	具体应用入有关学科
1701599	　　　大气科学其他学科
17020	　　固体地球物理学
1702010	　　　地球动力学	亦有“大陆动力学，大地构造物理学，地质物理”等名称
1702015	　　　地球重力学
1702020	　　　地球流体力学
1702025	　　　地壳与地形变
1702030	　　　地球内部物理学
1702035	　　　地声学
1702040	　　　地热学
1702045	　　　地电学
1702050	　　　地磁学
1702055	　　　放射性地球物理学
1702060	　　　地震学
1702065	　　　勘探地球物理学
1702070	　　　计算地球物理学
1702075	　　　实验地球物理学
1702099	　　　固体地球物理学其他学科
17025	　　空间物理学
1702510	　　　电离层物理学
1702520	　　　高层大气物理学
1702530	　　　磁层物理学
1702540	　　　空间物理探测
1702550	　　　空间环境学
1702599	　　　空间物理学其他学科
17030	　　地球化学
1703010	　　　元素地球化学
1703015	　　　有机地球化学
1703020	　　　放射性地球化学
1703025	　　　同位素地球化学
1703030	　　　生物地球化学
1703035	　　　地球内部化学
1703040	　　　同位素地质年代学
1703045	　　　成矿地球化学
1703050	　　　勘探地球化学
1703055	　　　实验地球化学
1703060	　　　能源地球化学
1703099	　　　地球化学其他学科
17035	　　大地测量学
1703510	　　　地球形状学
1703520	　　　几何大地测量学
1703530	　　　物理大地测量学
1703540	　　　动力大地测量学
1703550	　　　空间大地测量学
1703560	　　　行星大地测量学
1703599	　　　大地测量学其他学科
17040	　　地图学
17045	　　地理学
1704510	　　　自然地理学	包括生态地理学、冰川学、冻土学、沙漠学、岩溶学等
1704511	　　　生物地理学
	　　　土壤地理学	见2105020
1704513	　　　化学地理学
1704514	　　　地貌学
1704520	　　　人文地理学
1704523	　　　区域地理学
1704526	　　　城市地理学
	　　　人口地理学	见8407135
1704539	　　　旅游地理学
	　　　经济地理学	见79019
1704531	　　　世界地理学
	　　　历史地理学	见7707045
1704599	　　　地理学其他学科
17050	　　地质学
1705011	　　　数学地质学
1705014	　　　地质力学
1705017	　　　动力地质学
1705021	　　　矿物学	包括放射性矿物学
1705024	　　　矿床学与矿相学	包括放射性矿床学，不包括石油、天然气和煤
1705027	　　　岩石学
1705031	　　　岩土力学
1705034	　　　沉积学
1705037	　　　古地理学
1705041	　　　古生物学
1705044	　　　地层学与地史学
1705047	　　　前寒武纪地质学
1705051	　　　第四纪地质学
1705054	　　　构造地质学	包括显微构造学等
1705057	　　　大地构造学
1705061	　　　勘查地质学
1705064	　　　水文地质学	包括放射性水文地质学
1705067	　　　遥感地质学
1705071	　　　区域地质学
1705074	　　　火山学
1705077	　　　石油与天然气地质学	含天然气水合物地质学
1705081	　　　煤田地质学
1705084	　　　实验地质学
	　　　工程地质学	见41030
1705099	　　　地质学其他学科
17055	　　水文学
1705510	　　　水文物理学
1705515	　　　水文化学
1705520	　　　水文地理学
1705525	　　　水文气象学
1705530	　　　水文测量
1705535	　　　水文图学
1705540	　　　湖沼学
1705545	　　　河流学与河口水文学
1705550	　　　地下水文学
1705555	　　　区域水文学
1705560	　　　生态水文学
1705599	　　　水文学其他学科
17060	　　海洋科学
1706010	　　　海洋物理学
1706015	　　　海洋化学
1706020	　　　海洋地球物理学
1706025	　　　海洋气象学
1706030	　　　海洋地质学
1706035	　　　物理海洋学
1706040	　　　海洋生物学
1706045	　　　海洋地理学和河口海岸学	原名为“河口、海岸学”
1706050	　　　海洋调查与监测
	　　　海洋工程	见41630
	　　　海洋测绘学	见42050
1706061	　　　遥感海洋学	亦名卫星海洋学
1706065	　　　海洋生态学
1706070	　　　环境海洋学
1706075	　　　海洋资源学
1706080	　　　极地科学
1706099	　　　海洋科学其他学科
17099	　　地球科学其他学科
180	生物学
18011	　　生物数学
18014	　　生物物理学
1801410	　　　生物信息论与生物控制论
1801420	　　　理论生物物理学
1801425	　　　生物声学与声生物物理学
1801430	　　　生物光学与光生物物理学
1801435	　　　生物电磁学
1801440	　　　生物能量学
1801445	　　　低温生物物理学
1801450	　　　分子生物物理学与结构生物学	原名为“分子生物物理学”
1801455	　　　空间生物物理学
1801460	　　　仿生学	参见41040
1801465	　　　系统生物物理学
1801470	　　　生物影像学
1801499	　　　生物物理学其他学科
	　　生物力学	见13041
18017	　　生物化学
1801710	　　　多肽与蛋白质生物化学
1801715	　　　核酸生物化学
1801720	　　　多糖生物化学
1801725	　　　脂类生物化学
1801730	　　　酶学
1801735	　　　膜生物化学
1801740	　　　激素生物化学
1801745	　　　生殖生物化学
1801750	　　　免疫生物化学
1801755	　　　毒理生物化学
1801760	　　　比较生物化学
	　　　生物化学工程	见53067
1801765	　　　应用生物化学	具体应用入有关学科
1801799	　　　生物化学其他学科
18021	　　细胞生物学
1802110	　　　细胞生物物理学
1802120	　　　细胞结构与形态学
1802130	　　　细胞生理学
1802140	　　　细胞进化学
1802150	　　　细胞免疫学
1802160	　　　细胞病理学
1802170	　　　膜生物学
1802180	　　　干细胞生物学
1802199	　　　细胞生物学其他学科
18022	　　免疫学
1802210	　　　分子免疫学
	　　　细胞免疫学	见1802150
	　　　肿瘤免疫学	见3206710
	　　　免疫病理学	见3104440
1802215	　　　免疫治疗学
1802220	　　　疫苗学
	　　　免疫遗传学	见1803155
	　　　人体免疫学	见31034
1802299	　　　免疫学其他学科
18024	　　生理学
1802411	　　　形态生理学
1802414	　　　新陈代谢与营养生理学
1802417	　　　心血管生理学
1802421	　　　呼吸生理学
1802424	　　　消化生理学
1802427	　　　血液生理学
1802431	　　　泌尿生理学
1802434	　　　内分泌生理学
1802437	　　　感官生理学
1802441	　　　生殖生理学
1802444	　　　骨骼生理学
1802447	　　　肌肉生理学
1802451	　　　皮肤生理学
1802454	　　　循环生理学
1802457	　　　比较生理学
1802461	　　　年龄生理学
1802464	　　　特殊环境生理学
1802467	　　　语言生理学
1802499	　　　生理学其他学科
18027	　　发育生物学
	　　　动物发育生物学	见1805737
	　　　植物发育生物学	见1805150
1802710	　　　比较发育生物学
1802720	　　　演化发育生物学
1802730	　　　繁殖生物学
1802799	　　　发育生物学其他学科
	　　古生物学	见1705041
18031	　　遗传学
1803110	　　　数量遗传学
1803115	　　　生化遗传学
1803120	　　　细胞遗传学
1803125	　　　体细胞遗传学
1803130	　　　发育遗传学	亦称发生遗传学
1803135	　　　分子遗传学
1803140	　　　辐射遗传学
1803145	　　　进化遗传学
1803150	　　　生态遗传学
1803155	　　　免疫遗传学
1803160	　　　毒理遗传学
1803165	　　　行为遗传学
1803170	　　　群体遗传学
1803175	　　　表观遗传学
1803199	　　　遗传学其他学科
18034	　　放射生物学
1803410	　　　放射生物物理学
1803420	　　　细胞放射生物学
1803430	　　　放射生理学
1803440	　　　分子放射生物学
1803450	　　　放射免疫学
1803460	　　　放射毒理学
1803499	　　　放射生物学其他学科
18037	　　分子生物学
1803710	　　　基因组学	包括结构基因组学、营养基因组学
1803720	　　　核糖核酸组学	　　　
1803730	　　　蛋白质组学
1803740	　　　代谢组学
1803750	　　　生物信息学
1803799	　　　分子生物学其他学科
18039	　　专题生物学研究
1803910	　　　水生生物学
1803920	　　　保护生物学
1803930	　　　计算生物学
1803940	　　　营养生物学	包括生化营养学、动物营养学、植物营养学、微生物营养学等
1803999	　　　专题生物学研究其他学科
18041	　　生物进化论
18044	　　生态学
1804410	　　　数学生态学
1804415	　　　化学生态学
1804420	　　　生理生态学
1804421	　　　进化生态学
1804422	　　　分子生态学
1804423	　　　行为生态学
1804425	　　　生态毒理学
1804430	　　　区域生态学
1804435	　　　种群生态学
1804440	　　　群落生态学
1804445	　　　生态系统生态学
1804450	　　　生态工程学
1804455	　　　恢复生态学
1804460	　　　景观生态学
1804465	　　　水生生态学与湖泊生态学
	　　　海洋生态学	见1706065
1804499	　　　生态学其他学科
18047	　　神经生物学
1804710	　　　神经生物物理学
1804715	　　　神经生物化学
1804720	　　　神经形态学
1804725	　　　细胞神经生物学
1804730	　　　神经生理学
1804735	　　　发育神经生物学
1804740	　　　分子神经生物学
1804745	　　　比较神经生物学
1804750	　　　系统神经生物学
1804799	　　　神经生物学其他学科
18051	　　植物学
1805110	　　　植物化学
1805115	　　　植物生物物理学
1805120	　　　植物生物化学
1805125	　　　植物形态学
1805130	　　　植物解剖学
1805135	　　　植物细胞学
1805140	　　　植物生理学	包括植物营养学
1805145	　　　植物生殖生物学	原名为“植物胚胎学”
1805150	　　　植物发育学	包括植物孢粉学
1805155	　　　植物遗传学
1805156	　　　植物引种驯化
1805160	　　　植物生态学
	　　　植物病理学	见2106020
1805165	　　　植物地理学
1805170	　　　植物群落学
1805175	　　　植物分类学
1805180	　　　实验植物学
1805181	　　　民族植物学
1805185	　　　植物寄生虫学
1805199	　　　植物学其他学科
18054	　　昆虫学
1805410	　　　昆虫生物化学
1805415	　　　昆虫形态学
1805420	　　　昆虫组织学
1805425	　　　昆虫生理学
1805430	　　　昆虫生态学
1805435	　　　昆虫病理学
1805440	　　　昆虫毒理学
1805445	　　　昆虫行为学
1805450	　　　昆虫分类学
1805455	　　　实验昆虫学
1805460	　　　昆虫病毒学
1805499	　　　昆虫学其他学科
18057	　　动物学
1805711	　　　动物生物物理学
1805714	　　　动物生物化学
1805717	　　　动物形态学
1805721	　　　动物解剖学
1805724	　　　动物组织学
1805727	　　　动物细胞学
1805731	　　　动物生理学
1805734	　　　动物生殖生物学	包括动物繁殖学
1805737	　　　动物生长发育学	包括动物胚胎学
1805741	　　　动物遗传学
1805744	　　　动物生态学
1805747	　　　动物病理学
1805751	　　　动物行为学	含动物驯化学
1805754	　　　动物地理学	含昆虫生物地理学
1805757	　　　动物分类学
1805761	　　　实验动物学
1805764	　　　动物寄生虫学
1805767	　　　动物病毒学
1805799	　　　动物学其他学科
18061	　　微生物学
1806110	　　　微生物生物化学
1806115	　　　微生物生理学
1806120	　　　微生物遗传学
1806125	　　　微生物生态学
1806130	　　　微生物免疫学
1806135	　　　微生物分类学
1806140	　　　真菌学
1806145	　　　细菌学
1806150	　　　应用与环境微生物学	具体应用入有关学科。原名为“应用微生物学”
1806199	　　　微生物学其他学科
18064	　　病毒学
1806405	　　　普通病毒学
1806410	　　　病毒生物化学
1806420	　　　分子病毒学
1806430	　　　病毒生态学
1806440	　　　病毒分类学
1806450	　　　噬菌体学
	　　　植物病毒学	见2106035
	　　　昆虫病毒学	见1805460
	　　　动物病毒学	见1805767
1806460	　　　医学病毒学
1806499	　　　病毒学其他学科
18067	　　人类学
1806710	　　　人类起源与演化学
1806715	　　　人类形态学
1806720	　　　人类遗传学
1806725	　　　分子人类学
1806730	　　　人类生态学	亦称“人文生态学”
1806735	　　　心理人类学
1806740	　　　古人类学
1806745	　　　人种学
1806750	　　　人体测量学
1806799	　　　人类学其他学科
18099	　　生物学其他学科
190	心理学
19010	　　心理学史
	　　　科学心理学	见6303530
1901010	　　　心理学国际传播
1901020	　　　心理学理论	包括西方心理学流派
19015	　　认知心理学
1901510	　　　知觉
1901520	　　　阅读心理学
1901530	　　　心理语言学
1901540	　　　认知神经科学
1901550	　　　色彩心理学
1901599	　　　认知心理学其他学科
19020	　　社会心理学	代码原为84051
1902010	　　　家庭心理学
1902020	　　　婚姻心理学
1902030	　　　人际心理学
1902040	　　　道德心理学
1902099	　　　社会心理学其他学科
19025	　　实验心理学
1902510	　　　心理学研究方法
1902599	　　　实验心理学其他学科
19030	　　发展心理学
1903010	　　　婴儿心理学
1903020	　　　儿童心理学
1903030	　　　妇女心理学
1903040	　　　老年心理学	包括长寿心理学
1903099	　　　发展心理学其他学科
19040	　　医学心理学	代码原为31054
	　　　护理心理学	见3207140
1904010	　　　医患心理学
1904020	　　　健康心理学
1904099	　　　医学心理学其他学科
19041	　　人格心理学
1904110	　　　异常心理学
1904199	　　　人格心理学其他学科
19042	　　临床与咨询心理学
1904210	　　　咨询心理技术
1904220	　　　员工援助技术
1904299	　　　临床与咨询心理学其他学科
19045	　　心理测量
1904510	　　　心理测量理论
1904520	　　　心理测量技术
19046	　　心理统计
1904610	　　　心理统计原理
1904620	　　　心理统计方法
19050	　　生理心理学
1905010	　　　感觉心理学
1905020	　　　比较心理学
1905030	　　　心理神经免疫学
1905040	　　　心理药理学
1905099	　　　生理心理学其他学科
19055	　　工业心理学
	　　　工效学	见6305055
	　　　工程心理学	见41045
1905510	　　　交通心理学
	　　　安全心理学	见6202520
1905515	　　　消费心理学	参见7906330
1905520	　　　营销心理学
	　　　劳动心理学	见8407435
1905525	　　　经济心理学	包括市场心理学、投资心理学
1905599	　　　工业心理学其他学科
19060	　　管理心理学	代码原为63020
1906010	　　　干部心理学
1906020	　　　绩效评估技术
1906099	　　　管理心理学其他学科
19065	　　应用心理学
	　　　艺术心理学	见76010
	　　　宗教心理学	见7301130
1906510	　　　心理人类学
1906599	　　　应用心理学其他学科
19070	　　教育心理学	代码原为88027
1907010	　　　学习心理学
1907020	　　　学校心理学
1907099	　　　教育心理学其他学科
19075	　　法制心理学
1907510	　　　罪犯心理学
1907520	　　　证人心理学
1907599	　　　法制心理学其他学科
19099	　　心理学其他学科
210	农学
21010	　　农业史
2101010	　　　农业科技史
	　　　农业经济史	见7905940
2101020	　　　农村社会史	参见8402731
2101030	　　　农业文化史
2101099	　　　农业史其他学科
21020	　　农业基础学科
2102010	　　　农业数学
2102020	　　　农业气象学与农业气候学
2102030	　　　农业生物物理学
2102040	　　　农业生物化学
2102050	　　　农业生态学
2102060	　　　农业植物学
2102070	　　　农业微生物学
2102080	　　　植物营养学
2102099	　　　农业基础学科其他学科
21030	　　农艺学
2103010	　　　作物形态学
2103015	　　　作物生理学
2103020	　　　作物遗传学
2103025	　　　作物生态学
2103030	　　　种子学
2103033	　　　作物育种学	包括航天育种学
2103036	　　　良种繁育学
2103040	　　　作物栽培学
2103045	　　　作物耕作学
2103050	　　　作物种质资源学
2103099	　　　农艺学其他学科
21040	　　园艺学
2104010	　　　果树学
2104020	　　　瓜果学
2104030	　　　蔬菜学
2104050	　　　茶学	包括茶加工等
2104060	　　　观赏园艺学
2104099	　　　园艺学其他学科
21045	　　农产品贮藏与加工
2104510	　　　农产品贮藏与加工
2104520	　　　粮油产品贮藏与加工
2104530	　　　果蔬贮藏与加工	代码原为2104040
	　　　畜产品贮藏与加工	见2302055
2104540	　　　土特产品贮藏与加工
2104550	　　　农副产品综合利用
2104599	　　　农产品贮藏与加工其他学科
21050	　　土壤学
2105010	　　　土壤物理学
2105015	　　　土壤化学
2105020	　　　土壤地理学
2105025	　　　土壤生物学
2105030	　　　土壤生态学
2105035	　　　土壤耕作学
2105040	　　　土壤改良学
2105045	　　　土壤肥料学
2105050	　　　土壤分类学
	　　　土壤环境学	见6102030
2105055	　　　土壤调查与评价
2105060	　　　土壤修复
2105099	　　　土壤学其他学科
21060	　　植物保护学
2106010	　　　植物检疫学
2106015	　　　植物免疫学
2106020	　　　植物病理学
2106025	　　　植物药理学
2106030	　　　农业昆虫学
2106035	　　　植物病毒学
2106036	　　　植物真菌学
2106037	　　　植物细菌学
2106038	　　　植物线虫学
2106040	　　　农药学
2106045	　　　有害生物监测预警	原名为“植物病虫害测报学”
2106050	　　　抗病虫害育种
2106055	　　　有害生物化学防治
2106060	　　　有害生物生物防治
2106065	　　　有害生物综合防治
2106066	　　　有害生物生态调控
2106067	　　　农业转基因生物安全学
2106070	　　　杂草防除	原名为“杂草防治”
2106075	　　　鸟兽、鼠害防治
2106099	　　　植物保护学其他学科
21099	　　农学其他学科
220	林学
22010	　　林业基础学科
2201010	　　　森林气象学
2201020	　　　森林地理学
2201030	　　　森林水文学
2201040	　　　森林土壤学
2201050	　　　树木生理学
2201060	　　　森林生态学
2201070	　　　森林植物学
2201099	　　　林业基础学科其他学科
22015	　　林木遗传育种学
2201510	　　　林木育种学
2201520	　　　林木遗传学
2201599	　　　林木遗传育种学其他学科
22020	　　森林培育学
2202010	　　　种苗学
2202020	　　　造林学	包括治沙造林学
	　　　水土保持学	见4165030
2202099	　　　森林培育学其他学科
22025	　　森林经理学
2202510	　　　森林测计学
2202520	　　　森林测量学
2202530	　　　林业遥感
2202540	　　　林业信息管理
2202550	　　　林业系统工程
2202599	　　　森林经理学其他学科
22030	　　森林保护学
2203010	　　　森林病理学
2203020	　　　森林昆虫学
2203030	　　　森林防火学
2203099	　　　森林保护学其他学科
22035	　　野生动物保护与管理
22040	　　防护林学
22045	　　经济林学
22050	　　园林学
2205010	　　　园林植物学
2205020	　　　风景园林工程
2205030	　　　风景园林经营与管理
2205099	　　　园林学其他学科
22055	　　林业工程
2205510	　　　森林采运学
2205520	　　　林业机械
2205530	　　　林业机械化与电气化
2205540	　　　木材学
2205550	　　　木材加工与人造板工艺学	包括家具设计与制造等
2205560	　　　木材防腐学
2205570	　　　林产化学加工学
2205599	　　　林业工程其他学科
22060	　　森林统计学
22065	　　林业经济学
22099	　　林学其他学科
230	畜牧、兽医科学
23010	　　畜牧、兽医科学基础学科
2301010	　　　家畜生物化学
2301020	　　　家畜生理学
2301030	　　　家畜遗传学
2301040	　　　家畜生态学
2301050	　　　家畜微生物学
2301099	　　　畜牧、兽医科学基础学科其他学科
23020	　　畜牧学
2302005	　　　农业动物资源学
2302010	　　　家畜遗传育种学	原名为“家畜育种学”
2302015	　　　家畜繁殖学	参见1805734
2302020	　　　动物营养学
2302025	　　　饲料学
2302030	　　　家畜饲养管理学
2302035	　　　特种经济动物饲养学
2302040	　　　家畜行为学
2302045	　　　家畜卫生学
2302050	　　　草原学	包括牧草学、牧草育种学、牧草栽培学、草地生态学、草地保护学等
2302055	　　　畜产品贮藏与加工
2302060	　　　畜牧机械化
2302065	　　　养禽学
2302070	　　　养蜂学
2302075	　　　养蚕学
2302080	　　　畜牧经济学
2302099	　　　畜牧学其他学科
23030	　　兽医学
2303005	　　　预防兽医学
2303006	　　　兽医病原学
2303007	　　　兽医流行学
2303010	　　　家畜解剖学与组织学	原名为“家畜解剖学”
	　　　家畜生理学	见2301020
2303015	　　　家畜组织胚胎学
2303016	　　　动物分子病原学
2303020	　　　兽医免疫学
2303025	　　　家畜病理学	亦称兽医病理学
2303030	　　　兽医药理学与毒理学	原名为“兽医药理学”
2303035	　　　兽医临床学
2303040	　　　兽医卫生检疫学
2303045	　　　家畜寄生虫学
2303050	　　　家畜传染病学
2303055	　　　家畜病毒学
2303060	　　　中兽医学
2303065	　　　兽医器械学
2303099	　　　兽医学其他学科
23099	　　畜牧、兽医科学其他学科
240	水产学
24010	　　水产学基础学科
2401010	　　　水产化学
2401020	　　　水产地理学
2401030	　　　水产生物学
2401033	　　　水产遗传育种学
2401036	　　　水产动物医学
2401040	　　　水域生态学
2401099	　　　水产学基础学科其他学科
24015	　　水产增殖学
24020	　　水产养殖学
24025	　　水产饲料学
24030	　　水产保护学
24035	　　捕捞学
24040	　　水产品贮藏与加工
24045	　　水产工程学
24050	　　水产资源学
24055	　　水产经济学
24099	　　水产学其他学科
310	基础医学
31010	　　医学史
31011	　　医学生物化学
31014	　　人体解剖学
3101410	　　　系统解剖学
3101420	　　　局部解剖学
3101499	　　　人体解剖学其他学科
31017	　　医学细胞生物学
31021	　　人体生理学
31024	　　人体组织胚胎学
31027	　　医学遗传学
31031	　　放射医学
31034	　　人体免疫学
31037	　　医学寄生虫学
3103710	　　　医学寄生虫免疫学
3103720	　　　医学昆虫学
3103730	　　　医学蠕虫学
3103740	　　　医学原虫学
3103799	　　　医学寄生虫学其他学科
31041	　　医学微生物学
	　　医学病毒学	见1806460
31044	　　病理学
3104410	　　　病理生物学
3104420	　　　病理解剖学
3104430	　　　病理生理学
3104440	　　　免疫病理学
3104450	　　　实验病理学
3104460	　　　比较病理学
3104470	　　　系统病理学
3104480	　　　环境病理学
3104485	　　　分子病理学
3104499	　　　病理学其他学科
31047	　　药理学
3104710	　　　基础药理学
3104720	　　　临床药理学
3104730	　　　生化药理学
3104740	　　　分子药理学
3104750	　　　免疫药理学
3104799	　　　药理学其他学科
31051	　　医学实验动物学
	　　医学心理学	见19040
31057	　　医学统计学
31099	　　基础医学其他学科
320	临床医学
32011	　　临床诊断学
3201110	　　　症状诊断学
3201120	　　　物理诊断学
3201130	　　　机能诊断学
3201140	　　　医学影象学	包括放射诊断学、同位素诊断学、超声诊断学等
3201150	　　　临床放射学
3201160	　　　实验诊断学
3201199	　　　临床诊断学其他学科
32014	　　保健医学
3201410	　　　康复医学
3201420	　　　运动医学	包括力学运动医学等
3201430	　　　老年医学	包括老年基础医学和老年临床医学
3201499	　　　保健医学其他学科
32017	　　理疗学
32021	　　　麻醉学
3202110	　　　麻醉生理学
3202120	　　　麻醉药理学
3202130	　　　麻醉应用解剖学
3202199	　　　麻醉学其他学科
32024	　　内科学
3202410	　　　心血管病学
3202415	　　　呼吸病学
3202420	　　　结核病学
3202425	　　　消化病学	原名为“胃肠病学”
3202430	　　　血液病学
3202435	　　　肾脏病学
3202440	　　　内分泌病学与代谢病学	原名为“内分泌学”
3202445	　　　风湿病学与自体免疫病学
3202450	　　　变态反应学
3202455	　　　感染性疾病学
3202460	　　　传染病学	代码原为33024
3202499	　　　内科学其他学科
32027	　　外科学
3202710	　　　普通外科学
3202715	　　　显微外科学
3202720	　　　神经外科学
3202725	　　　颅脑外科学
3202730	　　　胸外科学
3202735	　　　心血管外科学
3202740	　　　泌尿外科学
3202745	　　　骨外科学
3202750	　　　烧伤外科学
3202755	　　　整形外科学
3202760	　　　器官移植外科学
3202765	　　　实验外科学
3202770	　　　小儿外科学	包括小儿普通外科学、小儿骨外科学、小儿胸外科学、小儿心血管外科学、小儿烧伤外科学、小儿整形外科学、小儿神经外科学、新生儿外科学等
3202799	　　　外科学其他学科
32031	　　妇产科学
3203110	　　　妇科学
3203120	　　　产科学
3203130	　　　围产医学	亦称围生医学
3203140	　　　助产学
3203150	　　　胎儿学
3203160	　　　妇科产科手术学
3203199	　　　妇产科学其他学科
32034	　　儿科学
	　　　小儿外科学	见3202770
3203410	　　　小儿内科学
3203499	　　　儿科学其他学科
32037	　　眼科学
32041	　　耳鼻咽喉科学
32044	　　口腔医学
3204410	　　　口腔解剖生理学
3204415	　　　口腔组织学与口腔病理学
3204420	　　　口腔材料学
3204425	　　　口腔影象诊断学
3204430	　　　口腔内科学
3204435	　　　口腔颌面外科学
3204440	　　　口腔矫形学
3204445	　　　口腔正畸学
3204450	　　　口腔病预防学
3204499	　　　口腔医学其他学科
32047	　　皮肤病学
32051	　　性医学
32054	　　神经病学
32057	　　精神病学	包括精神卫生及行为医学等
32058	　　重症医学
32061	　　急诊医学
32064	　　核医学	含放射治疗学
32065	　　全科医学
32067	　　肿瘤学
3206710	　　　肿瘤免疫学
3206720	　　　肿瘤病因学
3206730	　　　肿瘤病理学
3206740	　　　肿瘤诊断学
3206750	　　　肿瘤治疗学
3206760	　　　肿瘤预防学
3206770	　　　实验肿瘤学
3206799	　　　肿瘤学其他学科
32071	　　护理学
3207110	　　　基础护理学
3207120	　　　专科护理学
3207130	　　　特殊护理学
3207140	　　　护理心理学
3207150	　　　护理伦理学
3207160	　　　护理管理学
3207199	　　　护理学其他学科
32099	　　临床医学其他学科
330	预防医学与公共卫生学	原名为“预防医学与卫生学”
33011	　　营养学
33014	　　毒理学
33017	　　消毒学
33021	　　流行病学
33027	　　媒介生物控制学
33031	　　环境医学	亦为环境卫生学
33034	　　职业病学
33037	　　地方病学
33035	　　热带医学
33041	　　社会医学
33044	　　卫生检验学
33047	　　食品卫生学
33051	　　儿少与学校卫生学	原名为“儿少卫生学”
33054	　　妇幼卫生学
33057	　　环境卫生学
33061	　　劳动卫生学
33064	　　放射卫生学
33067	　　卫生工程学
33071	　　卫生经济学
33072	　　卫生统计学	原代码为9104030
	　　计划生育学	见8407170
33074	　　优生学
33077	　　健康促进与健康教育学	原名为“健康促进与健康教育学”
33081	　　卫生管理学
3308110	　　　卫生监督学
3308120	　　　卫生政策学
	　　　卫生法学	见8203072
3308130	　　　卫生信息管理学
3308199	　　　卫生管理学其他学科
33099	　　预防医学与公共卫生学其他学科
340	军事医学与特种医学
34010	　　军事医学
3401010	　　　野战外科学和创伤外科学	原名为“野战外科学”
3401015	　　　军队流行病学
3401020	　　　军事环境医学
3401025	　　　军队卫生学
3401030	　　　军队卫生装备学
3401035	　　　军事人机工效学
3401040	　　　核武器医学防护学
3401045	　　　化学武器医学防护学
3401050	　　　生物武器医学防护学
3401055	　　　激光与微波医学防护学
3401099	　　　军事医学其他学科
34020	　　特种医学
3402010	　　　航空航天医学
3402020	　　　潜水医学
3402030	　　　航海医学
3402040	　　　法医学
3402050	　　　高压氧医学
3402099	　　　特种医学其他学科
34099	　　军事医学与特种医学其他学科
350	药学
35010	　　药物化学	包括天然药物化学等
35020	　　生物药物学
35025	　　微生物药物学
35030	　　放射性药物学
35035	　　药剂学
35040	　　药效学
	　　医药工程	见5306410
35045	　　药物管理学
35050	　　药物统计学
35099	　　药学其他学科
360	中医学与中药学
36010	　　中医学
3601011	　　　中医基础理论	包括经络学等
3601014	　　　中医诊断学
3601017	　　　中医内科学
3601021	　　　中医外科学
3601024	　　　中医骨伤科学
3601027	　　　中医妇科学
3601031	　　　中医儿科学
3601034	　　　中医眼科学
3601037	　　　中医耳鼻咽喉科学
3601041	　　　中医口腔科学
3601044	　　　中医老年病学
3601047	　　　针灸学	包括针刺镇痛与麻醉等
3601051	　　　按摩推拿学
3601054	　　　中医养生康复学	包括气功研究等
3601057	　　　中医护理学
3601061	　　　中医食疗学
3601064	　　　方剂学
3601067	　　　中医文献学	包括难经、内经、伤寒论、金匮要略、腧穴学等
3601099	　　　中医学其他学科
36020	　　民族医学
3602010	　　　藏医药学
3602020	　　　蒙医药学
3602030	　　　维吾尔医药学
3602040	　　　民族草药学
3602099	　　　民族医学其他学科
36030	　　中西医结合医学
3603010	　　　中西医结合基础医学
3603020	　　　中西医结合医学导论
3603030	　　　中西医结合预防医学
3603040	　　　中西医结合临床医学
3603050	　　　中西医结合护理学
3603060	　　　中西医结合康复医学
3603070	　　　中西医结合养生保健医学
3603099	　　　中西医结合医学其他学科
36040	　　中药学
3604010	　　　中药化学
3604015	　　　中药药理学
3604020	　　　本草学
3604025	　　　药用植物学
3604030	　　　中药鉴定学
3604035	　　　中药炮制学
3604040	　　　中药药剂学
3604045	　　　中药资源学
3604050	　　　中药管理学
3604099	　　　中药学其他学科
36099	　　中医学与中药学其他学科
410	工程与技术科学基础学科
41010	　　工程数学
41015	　　工程控制论
41020	　　工程力学
41025	　　工程物理学
41030	　　工程地质学
41035	　　工程水文学	参见17055
41040	　　工程仿生学	参见1801460
41045	　　工程心理学
41050	　　标准科学技术	又名标准学
4105010	　　　标准原理与方法	包括标准原理、标准体系、标准一致性测试、标准统计方法、标准化认证与认可方法、标准规程与格式等方面的研究
4105020	　　　标准基础学	包括标准化发展史、标准经济学、术语标准化、信息分类编码标准化、图形符号标准化、标准物质研究、标准文献学等
4105050	　　　标准工程与应用	包括标准化机制与体制研究、标准管理学、质量控制与评价标准化、人类工效标准化等
4105099	　　　标准科学技术其他学科
41055	　　计量学
41060	　　工程图学
41065	　　勘查技术
41070	　　工程通用技术
4107010	　　　密封技术
4107020	　　　粉末技术
4107030	　　　真空技术
4107040	　　　薄膜技术
4107050	　　　爆破技术
4107060	　　　包装技术
4107070	　　　照相技术
4107080	　　　物料搬运技术
4107099	　　　工程通用技术其他学科
41075	　　工业工程学	亦称工程系统工程
41099	　　工程与技术科学基础学科其他学科
413	信息与系统科学相关工程与技术
41310	　　控制科学与技术
4131010	　　　自动控制应用理论	包括线性、非线性、随机控制，最优控制、自适应控制系统、分布式控制系统、柔性控制系统等。代码原为5108010
4131015	　　　指挥与控制系统工程
4131020	　　　控制系统仿真技术	代码原为5108020
4131025	　　　导航制导与控制	包括惯性导航与惯性制导
4131030	　　　机电一体化技术	代码原为5108030
	　　　流体传动与控制	见46045
4131040	　　　自动化仪器仪表与装置	代码原为5108040
4131050	　　　机器人控制	代码原为5108050
4131060	　　　自动化技术应用	具体应用入有关学科。代码原为5108060
4131099	　　　控制科学与技术其它学科
41315	　　仿真科学技术
4131510	　　　仿真科学技术基础学科
4131520	　　　仿真建模理论与技术
4131530	　　　仿真系统理论与技术
	　　　控制系统仿真技术	见4131020
4131540	　　　仿真应用	具体应用入有关学科
4131599	　　　仿真科学技术其它学科
41320	　　信息安全技术
4132010	　　　密码学	代码原为8304050
4132015	　　　安全协议
4132020	　　　系统安全
4132025	　　　网络安全
4132030	　　　软件安全
4132035	　　　信息隐藏
4132040	　　　安全测评
4132045	　　　信息安全工程
4132099	　　　信息安全其他学科
41330	　　信息技术系统性应用
4133010	　　　地理信息系统	代码原为4203040
4133020	　　　全球定位系统
4133030	　　　海洋信息技术
4133099	　　　信息技术系统性应用其他学科
41399	　　信息与系统科学相关工程与技术其他学科
416	自然科学相关工程与技术
41610	　　物理学相关工程与技术
4161010	　　　同步辐射及实验技术
4161099	　　　物理学相关工程与技术其他学科
41620	　　光学工程
41630	　　海洋工程与技术	代码原为57050，原名为“海洋工程”
4163010	　　　海洋工程结构与施工	代码原为5705010
4163015	　　　海底矿产开发	代码原为5705020
4163020	　　　海水资源利用	代码原为5705030
4163025	　　　海洋环境工程	代码原为5705040
4163030	　　　海岸工程
4163035	　　　近海工程
4163040	　　　深海工程
4163045	　　　海洋资源开发利用技术	包括海洋矿产资源、海水资源、海洋生物、海洋能开发技术等
4163050	　　　海洋观测预报技术	包括海洋水下技术、海洋观测技术、海洋遥感技术、海洋预报预测技术等
4163055	　　　海洋环境保护技术
4163099	　　　海洋工程与技术其他学科	代码原为5705099
41640	　　生物工程	亦称生物技术。代码原为18071
4164010	　　　基因工程	亦称遗传工程。代码原为1807110
4164015	　　　细胞工程	代码原为1807120
4164020	　　　蛋白质工程	代码原为1807130
4164025	　　　代谢工程
4164030	　　　酶工程	代码原为1807140
4164040	　　　发酵工程	亦称微生物工程。代码原为1807150
4164045	　　　生物传感技术
4164050	　　　纳米生物分析技术
4164099	　　　生物工程其他学科	代码原为1807199
41650	　　农业工程	代码原为21070
4165010	　　　农业机械学	包括农业机械制造等。代码原为2107010
4165015	　　　农业机械化	代码原为2107015
4165020	　　　农业电气化与自动化	代码原为2107020
4165025	　　　农田水利	包括灌溉工程、排水工程等。代码原为2107025
4165030	　　　水土保持学	包括土壤侵蚀学、水土保持监测、水土保持生态学、水土保持工程、荒漠化防治等。代码原为2107030
4165035	　　　农田测量	代码原为2107035
4165040	　　　农业环保工程	代码原为2107040
4165045	　　　农业区划	含农业土地利用学。代码原为2107045
4165050	　　　农业系统工程	代码原为2107050
4165099	　　　农业工程其他学科	代码原为2107099
41660	　　生物医学工程学	代码原为31061
4166010	　　　生物医学电子学	代码原为3106110
4166020	　　　临床工程学	代码原为3106120
4166030	　　　康复工程学	代码原为3106130
4166040	　　　生物医学测量学	代码原为3106140
4166050	　　　人工器官与生物医学材料学	代码原为3106150
4166060	　　　干细胞与组织工程学
4166070	　　　医学成像技术
4166099	　　　生物医学工程学其他学科	代码原为3106199
420	测绘科学技术
42010	　　大地测量技术
4201010	　　　大地测量定位
4201020	　　　重力测量
4201030	　　　测量平差
4201099	　　　大地测量技术其他学科
42020	　　摄影测量与遥感技术
4202010	　　　地物波谱学
4202020	　　　近景摄影测量
4202030	　　　航空摄影测量
4202040	　　　遥感信息工程
4202099	　　　摄影测量与遥感技术其他学科
42030	　　地图制图技术
4203010	　　　地图投影学
4203020	　　　地图设计与编绘
4203030	　　　图形图象复制技术
4203099	　　　地图制图技术其他学科
42040	　　工程测量技术
4204010	　　　地籍测量
4204020	　　　精密工程测量
	　　　矿山测量	见44015
	　　　土木建筑工程测量	见56020
	　　　水利工程测量	见57015
4204099	　　　工程测量技术其他学科
42050	　　海洋测绘
4205010	　　　海洋大地测量
4205015	　　　海洋重力测量
4205020	　　　海洋磁力测量
4205025	　　　海洋跃层测量
4205030	　　　海洋声速测量
4205035	　　　海道测量
4205040	　　　海底地形测量
4205045	　　　海图制图
4205050	　　　海洋工程测量
4205099	　　　海洋测绘其他学科
42060	　　测绘仪器
42099	　　测绘科学技术其他学科
430	材料科学
43010	　　材料科学基础学科
4301010	　　　材料力学
4301020	　　　相图与相变	包括合金化等
4301030	　　　材料的组织、结构、缺陷与性能
4301035	　　　计算材料学
4301040	　　　金属学
4301050	　　　陶瓷学
4301060	　　　高分子材料学
4301099	　　　材料科学基础学科其他学科
43015	　　材料表面与界面	包括表面优化技术
43020	　　材料失效与保护	包括材料腐蚀、磨损、老化、断裂及其控制等
43025	　　材料检测与分析技术
43030	　　材料实验
43035	　　材料合成与加工工艺
43040	　　金属材料
4304010	　　　黑色金属及其合金
4304020	　　　有色金属及其合金
4304030	　　　非晶、微晶金属材料	包括准晶和纳米晶材料等
4304040	　　　低维金属材料	包括薄膜、纤维和零维金属材料等
4304050	　　　特种功能金属材料
4304099	　　　金属材料其他学科
43045	　　无机非金属材料
4304510	　　　玻璃与非晶无机非金属材料	包括生物玻璃材料
4304520	　　　低维无机非金属材料	包括薄膜、纤维和零维非金属材料等
4304530	　　　人工晶体
4304540	　　　陶瓷材料	包括陶瓷膜材料、多孔陶瓷材料、生物陶瓷材料、耐火材料等。原名为“无机陶瓷材料”
4304550	　　　特种功能无机非金属材料
4304599	　　　无机非金属材料其他学科
43050	　　有机高分子材料
4305010	　　　塑料、橡胶和纤维
4305020	　　　功能高分子材料
4305030	　　　高性能高分子材料
4305040	　　　高分子液晶材料
4305099	　　　有机高分子材料其他学科
43055	　　复合材料
4305510	　　　金属基复合材料	包括多相复合材料等
4305520	　　　无机非金属基复合材料	包括无机多相复合材料等
4305530	　　　聚合物基复合材料	包括有机多相复合材料等
4305540	　　　有机-无机杂化复合材料	又名混杂复合材料
4305550	　　　生物复合材料
4305560	　　　功能复合材料
4305599	　　　复合材料其他学科
43060	　　生物材料
4306010	　　　组织工程材料
4306020	　　　医学工程材料
4306030	　　　环境友好材料
4306099	　　　生物材料其他学科
43070	　　纳米材料	包括纳米光电材料、纳米信息材料、纳米存储材料等
	　　专用材料	各专用材料入有关学科
43099	　　材料科学其他学科
440	矿山工程技术
44010	　　矿山地质学
44015	　　矿山测量
44020	　　矿山设计
4402010	　　　地下矿设计
4402020	　　　露天矿设计
4402099	　　　矿山设计其他学科
44025	　　矿山地面工程
44030	　　井巷工程
4403010	　　　矿山压力工程
4403020	　　　矿山支护工程
4403099	　　　井巷工程其他学科
44035	　　采矿工程
4403510	　　　煤矿开采
4403520	　　　煤及油母页岩地下气化
4403530	　　　金属矿开采
4403540	　　　非金属矿开采
4403599	　　　采矿工程其他学科
44040	　　选矿工程
4404010	　　　选矿理论
4404020	　　　选矿技术
4404030	　　　矿石处理
4404099	　　　选矿工程其他学科
44045	　　钻井工程
44050	　　油气田井开发工程
44055	　　石油、天然气储存与运输工程
44060	　　矿山机械工程
4406010	　　　采矿机械
4406020	　　　选矿机械
4406030	　　　矿山运输机械
4406099	　　　矿山机械工程其他学科
44065	　　矿山电气工程
44070	　　采矿环境工程
44075	　　矿山安全
44080	　　矿山综合利用工程
44099	　　矿山工程技术其他学科
450	冶金工程技术
45010	　　冶金物理化学
45015	　　冶金反应工程
45020	　　冶金原料与预处理
45025	　　冶金热能工程
4502510	　　　冶金燃料
4502520	　　　燃烧理论
4502530	　　　燃烧计算
4502540	　　　冶金分析
4502599	　　　冶金热能工程其他学科
45030	　　冶金技术
4503010	　　　提炼冶金
4503015	　　　粉末冶金
4503020	　　　真空冶金
4503025	　　　电磁冶金
4503030	　　　原子能冶金
4503035	　　　湿法冶金
4503040	　　　纤维冶金
4503045	　　　卤素冶金
4503050	　　　微生物冶金
4503099	　　　冶金技术其他学科
45035	　　钢铁冶金
4503510	　　　炼铁
4503520	　　　炼钢
4503530	　　　铁合金冶炼
4503599	　　　钢铁冶金其他学科
45040	　　有色金属冶金
45045	　　轧制
45050	　　冶金机械及自动化
45099	　　冶金工程技术其他学科
460	机械工程
46010	　　机械史
46015	　　机械学
4601510	　　　机械原理与机构学
4601520	　　　机械动力学与振动
4601530	　　　机械强度
4601540	　　　机械摩擦、磨损及润滑
4601599	　　　机械学其他学科
46020	　　机械设计
4602010	　　　机械设计原理与方法
4602020	　　　机械零件及传动
4602030	　　　机械公差、配合与技术测量
4602040	　　　机械制图
4602099	　　　机械设计其他学科
	　　　计算机辅助设计	见5206050
46025	　　机械制造工艺与设备
4602510	　　　铸造工艺与设备
4602515	　　　焊接工艺与设备	包括连接工艺与设备
4602520	　　　塑性加工工艺与设备
4602525	　　　热处理工艺与设备
4602530	　　　切削加工工艺
4602535	　　　特种加工工艺
4602540	　　　机器装配工艺
4602545	　　　非金属加工工艺
4602599	　　　机械制造工艺与设备其他学科
46030	　　刀具技术
4603010	　　　切削理论
4603020	　　　切削刀具
4603030	　　　磨削工具
4603099	　　　刀具技术其他学科
46035	　　机床技术
4603510	　　　机床基础理论
4603520	　　　金属切削机床
4603530	　　　数字控制机床
4603540	　　　特种加工机床
4603599	　　　机床技术其他学科
46045	　　流体传动与控制	包括气动液压控制技术等
46050	　　机械制造自动化
4605010	　　　成组技术
4605020	　　　数控技术
4605030	　　　机器人技术	包括工业机器人、智能机器人、服务机器人
4605040	　　　计算机辅助制造
4605099	　　　机械制造自动化其他学科
46099	　　机械工程其他学科
470	动力与电气工程
47010	　　工程热物理
4701010	　　　工程热力学
4701020	　　　工程传热、传质学
4701030	　　　燃烧学
4701040	　　　多相流动
4701050	　　　微尺度热物理学
4701099	　　　工程热物理其他学科
47020	　　热工学
4702010	　　　热工测量与仪器仪表
4702030	　　　供热工程
4702040	　　　工业锅炉
4702099	　　　热工学其他学科
47030	　　动力机械工程
4703010	　　　蒸汽工程	包括锅炉、蒸汽机、汽轮机等
4703020	　　　内燃机工程	包括汽油机、柴油机、气体燃料发动机等
4703030	　　　流体机械及流体动力工程
4703040	　　　喷气推进机与涡轮机械
4703050	　　　微动力工程
4703099	　　　动力机械工程其他学科
47035	　　制冷与低温工程	代码原为4702020
4703510	　　　制冷工程
4703520	　　　低温工程
4703530	　　　热泵与空调
4703599	　　　制冷与低温工程其他学科
47040	　　电气工程
4704011	　　　电工学
4704014	　　　电路理论
	　　　电磁场理论	见1401520
4704017	　　　电磁测量技术及其仪器	原名为“电气测量技术及其仪器仪表”
4704021	　　　电工材料
4704024	　　　电机学
4704025	　　　电源技术
4704027	　　　电器学
4704031	　　　电力电子技术
4704034	　　　高电压工程
4704037	　　　绝缘技术
4704041	　　　电热与高频技术
4704044	　　　超导电工技术
4704047	　　　发电工程	包括水力、热力、风力、磁流体发电工程等
4704051	　　　输配电工程
4704054	　　　电力系统及其自动化
4704057	　　　电力拖动及其自动化
4704061	　　　用电技术	包括节电技术
4704064	　　　电加工技术	亦可称作微细加工技术
4704067	　　　脉冲功率技术
4704071	　　　放电理论与发电等离子体技术
4704073	　　　电磁环境与电磁兼容
4704075	　　　生物与医学电工技术
4704077	　　　可再生能源发电技术
4704079	　　　分布式电力技术
4704081	　　　电气化交通技术
4704083	　　　强磁场技术
4704099	　　　电气工程其他学科
47099	　　动力与电气工程其他学科
480	能源科学技术
48010	　　能源化学
48020	　　能源地理学
48030	　　能源计算与测量
48040	　　储能技术
48050	　　节能技术	包括工业节能、生活节能、建筑节能等
48060	　　一次能源
4806010	　　　煤炭能
4806020	　　　石油、天然气能
4806030	　　　水能	包括海洋能等
4806040	　　　风能
4806050	　　　地热能
4806060	　　　生物能
4806070	　　　太阳能
4806075	　　　生活固体废弃物能	即城市生活垃圾能源
4806080	　　　核能
4806085	　　　天然气水合物能
4806099	　　　一次能源其他学科
48070	　　二次能源
4807010	　　　煤气能
4807020	　　　电能
4807030	　　　蒸汽能
4807040	　　　沼气能
4807045	　　　氢能
4807050	　　　激光能
4807099	　　　二次能源其他学科
48080	　　能源系统工程
	　　能源经济学	见7904940
48099	　　能源科学技术其他学科
490	核科学技术
49010	　　辐射物理与技术
49015	　　核探测技术与核电子学
49020	　　放射性计量学
49025	　　核仪器、仪表
49030	　　核材料与工艺技术
4903010	　　　核燃料与工艺技术
4903099	　　　核材料与工艺技术其他学科
49035	　　粒子加速器
	　　　粒子加速器物理学	见1407030
4903510	　　　粒子加速器工程技术	原名为“粒子加速器工艺”
4903520	　　　粒子加速器应用
4903599	　　　粒子加速器其他学科
49040	　　裂变堆工程技术
4904010	　　　裂变堆物理
4904020	　　　裂变堆热工与水力
4904030	　　　裂变堆控制
4904040	　　　裂变堆结构
4904050	　　　裂变堆屏蔽与防护
4904060	　　　裂变堆建造技术
4904099	　　　裂变堆工程技术其他学科
49045	　　核聚变工程技术
4904510	　　　磁约束聚变技术
4904520	　　　惯性约束聚变技术
4904530	　　　聚变堆工程
4904540	　　　聚变裂变混合堆工程
4904599	　　　核聚变工程技术其他学科
49050	　　核动力工程技术
4905010	　　　舰船核动力
4905020	　　　空间核动力
4905030	　　　核电站
4905040	　　　核动力运行技术
4905099	　　　核动力工程技术其他学科
49055	　　同位素技术
4905510	　　　同位素分离技术
4905520	　　　同位素制备技术
4905530	　　　同位素应用技术
4905599	　　　同位素技术其他学科
49060	　　核爆炸工程
49065	　　核安全	包括核电站安全
49070	　　乏燃料后处理技术
49075	　　辐射防护技术
49080	　　核设施退役技术
49085	　　放射性三废处理、处置技术
49099	　　核科学技术其他学科
510	电子与通信技术	原名为“电子、通信与自动控制技术”
51010	　　电子技术
5101010	　　　电子电路
5101015	　　　天线电波传播
5101020	　　　无线电技术
5101025	　　　微波技术
5101030	　　　敏感电子学
5101035	　　　微电子学
5101040	　　　仿真技术
5101045	　　　超导电子技术
5101050	　　　电子元件与器件技术
5101055	　　　电子束、离子束技术
5101060	　　　红外与夜视技术
5101099	　　　电子技术其他学科
51020	　　光电子学与激光技术
51030	　　半导体技术
5103010	　　　半导体测试技术
5103020	　　　半导体材料
5103030	　　　半导体器件与技术
	　　　传感器技术	见5351020
5103040	　　　集成电路技术
5103050	　　　半导体加工技术
5103099	　　　半导体技术其他学科
51040	　　信息处理技术
5104010	　　　信号检测
5104020	　　　参数估计
5104030	　　　数据处理
5104040	　　　语音处理
5104050	　　　图象处理
5104099	　　　信息处理技术其他学科
51050	　　通信技术
5105010	　　　有线通信技术
5105015	　　　无线通信技术	包括微波通信、卫星通信、激光通信技术等
5105020	　　　光纤通信技术
5105025	　　　通信传输技术
5105030	　　　通信网络技术
5105035	　　　通信终端技术
5105040	　　　电信
5105045	　　　邮政
5105050	　　　邮电通信管理工程
5105099	　　　通信技术其他学科
51060	　　广播与电视工程技术
51070	　　雷达工程
51099	　　电子与通信技术其他学科	原名为“电子、通信与自动控制技术其他学科”
520	计算机科学技术
52010	　　计算机科学技术基础学科
5201010	　　　自动机理论
5201020	　　　可计算性理论
5201030	　　　计算机可靠性理论
5201040	　　　算法理论
5201050	　　　数据结构
5201060	　　　数据安全与计算机安全
5201099	　　　计算机科学技术基础学科其他学科
52020	　　人工智能
5202010	　　　人工智能理论
5202020	　　　自然语言处理
5202030	　　　机器翻译
5202040	　　　模式识别
5202050	　　　计算机感知
5202060	　　　计算机神经网络
5202070	　　　知识工程	包括专家系统
5202099	　　　人工智能其他学科
52030	　　计算机系统结构
5203010	　　　计算机系统设计
5203020	　　　并行处理
5203030	　　　分布式处理系统
5203040	　　　计算机网络
5203050	　　　计算机运行测试与性能评价
5203099	　　　计算机系统结构其他学科
52040	　　计算机软件
5204010	　　　软件理论
5204020	　　　操作系统与操作环境
5204030	　　　程序设计及其语言
5204040	　　　编译系统
5204050	　　　数据库
5204060	　　　软件开发环境与开发技术
5204070	　　　软件工程
5204099	　　　计算机软件其他学科
52050	　　计算机工程
5205010	　　　计算机元器件
5205020	　　　计算机处理器技术
5205030	　　　计算机存储技术
5205040	　　　计算机外围设备
5205050	　　　计算机制造与检测
5205060	　　　计算机高密度组装技术
5205099	　　　计算机工程其他学科
52060	　　计算机应用	具体应用入有关学科
5206010	　　　中国语言文字信息处理	包括汉字信息处理
5206020	　　　计算机仿真
5206030	　　　计算机图形学
5206040	　　　计算机图象处理
5206050	　　　计算机辅助设计
5206060	　　　计算机过程控制
5206070	　　　计算机信息管理系统
5206080	　　　计算机决策支持系统
5206099	　　　计算机应用其他学科
52099	　　计算机科学技术其他学科
530	化学工程
53011	　　化学工程基础学科
5301110	　　　化工热力学
5301120	　　　化工流体力学
5301130	　　　化工流变学
5301140	　　　颗粒学
5301199	　　　化学工程基础学科其他学科
53014	　　化工测量技术与仪器仪表
53017	　　化工传递过程
53021	　　化学分离工程
5302110	　　　蒸馏
5302120	　　　吸收
5302130	　　　萃取
5302140	　　　吸附与离子交换
5302150	　　　膜分离
5302160	　　　蒸发与结晶
5302170	　　　干燥
5302199	　　　化学分离工程其他学科
53024	　　化学反应工程
5302410	　　　催化反应工程
5302420	　　　催化剂工程
5302430	　　　固定床反应工程
5302440	　　　多相流反应工程
5302450	　　　生化反应工程
5302460	　　　聚合化学反应工程
5302470	　　　电化学反应工程
5302499	　　　化学反应工程其他学科
53027	　　化工系统工程
5302710	　　　化工过程动态学
5302720	　　　化工过程控制与模拟
5302730	　　　化工系统优化
5302799	　　　化工系统工程其他学科
53031	　　化工机械与设备
53034	　　无机化学工程
5303410	　　　酸碱盐工程技术
5303420	　　　硅酸盐工程技术
5303430	　　　放射化工
5303440	　　　化肥工程技术
5303450	　　　化学冶金
5303499	　　　无机化学工程其他学科
53037	　　有机化学工程
53041	　　电化学工程
5304110	　　　电解
5304120	　　　电镀
5304130	　　　电池
5304140	　　　腐蚀与防腐化学
5304199	　　　电化学工程其他学科
53044	　　高聚物工程
53047	　　煤化学工程
53051	　　石油化学工程
53052	　　天然气化学工程
53054	　　精细化学工程
5305410	　　　表面活性剂
5305420	　　　香料学
5305430	　　　化妆品学
5305440	　　　染料
5305450	　　　颜料与涂料学
5305460	　　　粘合剂	亦称胶粘剂
5305499	　　　精细化学工程其他学科
53057	　　造纸技术
53061	　　毛皮与制革工程
53064	　　制药工程
5306410	　　　医药工程
5306420	　　　农药工程
5306430	　　　兽药工程
5306499	　　　制药工程其他学科
53067	　　生物化学工程
53099	　　化学工程其他学科
535	产品应用相关工程与技术
53510	　　仪器仪表技术	代码原为46040
5351010	　　　仪器仪表基础理论	代码原为4604010
5351015	　　　仪器仪表材料	代码原为4604015
5351020	　　　传感器技术	代码原为4604020
5351025	　　　精密仪器制造	代码原为4604025
5351030	　　　测试计量仪器	代码原为4604030
5351035	　　　光学技术与仪器	代码原为4604035
5351040	　　　天文仪器	代码原为4604040
5351045	　　　地球科学仪器	代码原为4604045
5351050	　　　大气仪器仪表	代码原为4604050
5351099	　　　仪器仪表技术其他学科	代码原为4604099
53520	　　兵器科学与技术	　　
5352010	　　　兵器科学与技术基础学科
5352015	　　　兵器系统与运用工程
5352020	　　　兵器结构、动力、传动与平台技术
5352025	　　　弹道学	含发射、推进与毁伤
5352030	　　　兵器识别、导引与控制技术
5352035	　　　军用光学与光电子技术
5352040	　　　军事信息工程与信息对抗技术
5352045	　　　含能材料技术
5352050	　　　兵器制造技术
5352055	　　　兵器材料科学与工程
5352060	　　　兵器测试与实验技术
5352099	　　　兵器科学与技术其他学科
53530	　　产品应用专用性技术
5353010	　　　印刷、复制技术	代码原为4605510
5353099	　　　产品应用专用性技术其他学科
53599	　　产品应用相关工程与技术其他学科
540	纺织科学技术
54010	　　纺织科学技术基础学科
5401010	　　　纺织化学
5401020	　　　纺织美学与色彩学
5401099	　　　纺织科学技术基础学科其他学科
54020	　　纺织材料
54030	　　纤维制造技术
54040	　　纺织技术
5404010	　　　纺织品结构与设计
5404015	　　　棉纺学
5404020	　　　棉织学
5404025	　　　麻纺织
5404030	　　　毛纺织
5404035	　　　丝纺织
5404040	　　　化学纤维纺织
5404045	　　　新型纺纱、无纺布与特种织物
5404050	　　针织
5404099	　　　纺织技术其他学科
54050	　　　染整技术
5405010	　　　染炼技术
5405020	　　　印花技术
5405030	　　　染色技术
5405040	　　　整理技术
5405099	　　　染整技术其他学科
54060	　　服装技术
5406010	　　　服装设计
5406020	　　　服装加工
5406099	　　　服装技术其他学科
54070	　　纺织机械与设备
5407010	　　　纺织器材设计与制造
5407020	　　　纺织机械设计与制造
5407099	　　　纺织机械与设备其他学科
54099	　　纺织科学技术其他学科
550	食品科学技术
55010	　　食品科学技术基础学科
5501010	　　　食品化学	原名为“食品生物化学”
5501020	　　　食品营养学
5501030	　　　食品检验学
5501035	　　　食品微生物学
5501040	　　　食品生物技术
5501045	　　　谷物化学
5501050	　　　油脂化学
5501099	　　　食品科学技术基础学科其他学科
55020	　　食品加工技术
5502010	　　　食用油脂加工技术
5502015	　　　制糖技术
5502020	　　　肉加工技术
5502025	　　　乳加工技术
5502030	　　　蛋加工技术
	　　　水果、蔬菜加工技术	参见2104530。代码原为5502035
5502040	　　　食品发酵与酿造技术
5502045	　　　烘焙食品加工技术	原名为“食品焙烤加工技术”
5502050	　　　调味品加工技术	包括食盐加工技术等
5502055	　　　食品添加剂技术
5502060	　　　饮料冷食制造技术
5502065	　　　罐头技术
5502070	　　　米面制品加工技术	包括其他粮食加工技术
5502075	　　　植物蛋白加工技术
5502099	　　　食品加工技术其他学科
55030	　　食品包装与储藏
55040	　　食品机械
55050	　　食品加工的副产品加工与利用
55060	　　食品工业企业管理学
55070	　　食品工程与粮油工程
5507010	　　　食品工程
5507020	　　　粮油工程
55099	　　食品科学技术其他学科
560	土木建筑工程
56010	　　建筑史
56015	　　土木建筑工程基础学科
	　　　工程数学	见41010
	　　　工程力学	见41020
5601510	　　　建筑光学
5601520	　　　建筑声学
5601530	　　　建筑气象学
5601599	　　　土木建筑工程基础学科其他学科
56020	　　土木建筑工程测量
56025	　　建筑材料
5602510	　　　金属建筑材料
5602520	　　　非金属建筑材料
5602530	　　　复合建筑材料
5602540	　　　特种建筑材料	包括隔音、防水、防火、绝热、耐震、防蚀、装修材料等
5602599	　　　建筑材料其他学科
56030	　　工程结构
5603010	　　　杆件结构
5603020	　　　薄壳结构
5603030	　　　悬索与张拉结构
5603040	　　　实体结构
5603050	　　　结构设计
5603099	　　　工程结构其他学科
56035	　　土木建筑结构
5603510	　　　木结构
5603520	　　　砖结构
5603530	　　　金属结构
5603540	　　　混凝土与钢筋混凝土结构
5603550	　　　喷锚结构
5603560	　　　复合结构
5603570	　　　特种结构
5603599	　　　土木建筑结构其他学科
56040	　　土木建筑工程设计
5604010	　　　建筑设计方法与理论
5604020	　　　城乡规划方法与理论
5604030	　　　建筑美学
5604040	　　　建筑室内设计
5604050	　　　建筑室外环境设计
5604060	　　　土木工程设计
5604099	　　　土木建筑工程设计其他学科
56045	　　土木建筑工程施工
5604510	　　　地基基础工程
5604520	　　　地面工程
5604530	　　　地下工程
5604540	　　　墙体工程
5604550	　　　土木施工电器工程
5604560	　　　装饰工程
5604599	　　　土木建筑工程施工其他学科
56050	　　土木工程机械与设备
5605010	　　　起重机械
5605020	　　　土木工程运输机械
5605030	　　　土方机械
5605040	　　　桩工机械
5605050	　　　石料开采加工机械
5605060	　　　钢筋混凝土机械
5605070	　　　装修机械
5605099	　　　土木工程机械与设备其他学科
	　　　园林学	见22050
56055	　　市政工程
5605510	　　　城市给水排水工程
5605520	　　　通风与空调工程
5605530	　　　供热与供燃气工程
5605540	　　　电讯管道工程
5605550	　　　城市系统工程
5605599	　　　市政工程其他学科
56060	　　建筑经济学
56099	　　土木建筑工程其他学科
570	水利工程
57010	　　水利工程基础学科
5701010	　　　水力学
5701020	　　　河流与海岸动力学
	　　　工程水文学	见41035
5701099	　　　水利工程基础学科其他学科
57015	　　水利工程测量
57020	　　水工材料
57025	　　水工结构	亦称水工建筑物
5702510	　　　一般水工建筑物
5702520	　　　专门水工建筑物
5702599	　　　水工结构其他学科
57030	　　水力机械
57035	　　水利工程施工
5703510	　　　水利建筑工程施工
5703520	　　　水工设备安装	包括水工金属结构安装等
5703599	　　　水利工程施工其他学科
57040	　　水处理	不包括废水处理
5704010	　　　给水处理
5704099	　　　水处理其他学科
57045	　　河流泥沙工程学
5704510	　　　水沙动力学
5704520	　　　河工学
5704599	　　　河流泥沙工程学其他学科
	　　农田水利	见4165025
	　　水土保持学	见4165030
57055	　　环境水利
5705510	　　　环境水利与评价	包括水资源评价；水环境评价
5705520	　　　区域环境水利
5705530	　　　水资源保护
5705599	　　　环境水利其他学科
57060	　　水利管理
5706010	　　　水利工程管理	包括水利调度、水利施工管理、养护等
5706020	　　　水利工程检查观测
5706030	　　　水利管理自动化系统
5706099	　　　水利管理其他学科
57065	　　防洪工程
5706510	　　　防洪
5706520	　　　防汛
5706530	　　　防凌
5706599	　　　防洪工程其他学科
57070	　　水利经济学
57099	　　水利工程其他学科
580	交通运输工程
58010	　　道路工程
5801010	　　　路基工程
5801020	　　　桥涵工程
5801030	　　　隧道工程
5801099	　　　道路工程其他学科
58020	　　公路运输
5802010	　　　车辆工程
5802020	　　　公路标志、信号、监控工程
5802030	　　　公路运输管理
5802099	　　　公路运输其他学科
58030	　　铁路运输
5803010	　　　铁路电气化工程
5803020	　　　铁路通信信号工程
5803030	　　　铁路机车车辆工程
5803040	　　　铁路运输管理
5803099	　　　铁路运输其他学科
58040	　　水路运输
5804010	　　　航海技术与装备工程	原名为“航海学”
5804020	　　　船舶通信与导航工程	原名为“导航建筑物与航标工程”
5804030	　　　航道工程
5804040	　　　港口工程
5804050	　　　疏浚工程
5804060	　　　水路运输管理
5804070	　　　救助、打捞与潜水作业工程
5804080	　　　海事技术与装备工程
5804099	　　　水路运输其他学科
58050	　　船舶、舰船工程
58060	　　航空运输
5806010	　　　机场工程
5806020	　　　航空运输管理
5806099	　　　航空运输其他学科
58070	　　交通运输系统工程
58080	　　交通运输安全工程
	　　交通运输经济学	见79061
58099	　　交通运输工程其他学科
590	航空、航天科学技术
59010	　　航空、航天科学技术基础学科
5901010	　　　大气层飞行力学
	　　　空气动力学	见1302521
5901020	　　　航天动力学
5901030	　　　飞行器结构力学
	　　　热力学	见1402510
	　　　传热学	见1402530
	　　　燃烧学	见4701030
5901035	　　　航天摩擦学	又称空间摩擦学
5901040	　　　飞行原理
5901099	　　　航空、航天科学技术基础学科其他学科
59015	　　航空器结构与设计
5901510	　　　气球、飞艇
5901520	　　　定翼机
5901530	　　　旋翼机
5901599	　　　航空器结构与设计其他学科
59020	　　航天器结构与设计
5902010	　　　火箭、导弹
5902020	　　　人造地球卫星
5902030	　　　空间探测器
5902040	　　　宇宙飞船
5902050	　　　航天站
5902060	　　　航天飞机
5902099	　　　航天器结构与设计其他学科
59025	　　航空、航天推进系统
59030	　　飞行器仪表、设备
59035	　　飞行器控制、导航技术
59040	　　航空、航天材料
5904010	　　　航空、航天金属材料
5904020	　　　航空、航天非金属材料
5904030	　　　航空、航天复合材料
5904040	　　　航空、航天燃料与润滑剂
5904050	　　　航空、航天材料失效与保护
5904099	　　　航空、航天材料其他学科
59045	　　飞行器制造技术
5904510	　　　航空器制造工艺
5904520	　　　航天器制造工艺
5904599	　　　飞行器制造技术其他学科
59050	　　飞行器试验技术
5905010	　　　航空器地面试验
5905020	　　　航空器飞行试验
5905030	　　　航天器地面试验
5905040	　　　航天器飞行试验
5905099	　　　飞行器试验技术其他学科
59055	　　飞行器发射与回收、飞行技术	原名为“飞行器发射、飞行技术”
5905510	　　　飞行技术
5905520	　　　飞行器发射与回收	原名为“飞行器发射、飞行事故”
5905530	　　　飞行事故	原在5905520内
5905599	　　　飞行器发射与回收、飞行技术其他学科
59060	　　航空航天地面设施、技术保障	原名为“航天地面设施、技术保障”
5906010	　　　发射场、试验场
5906020	　　　航天测控系统
5906030	　　　航空地面设施
5906040	　　　航空地面技术保障
5906099	　　　航空航天地面设施、技术保障其他学科
59065	　　航空、航天系统工程
5906510	　　　航空系统工程
5906520	　　　航天系统工程
5906530	　　　航空、航天可靠性工程
5906599	　　　航空、航天系统工程其他学科
59099	　　航空、航天科学技术其他学科
610	环境科学技术及资源科学技术	原名为“环境科学技术”
61010	　　环境科学技术基础学科
6101010	　　　环境物理学	包括环境声学等
6101015	　　　环境化学
6101020	　　　环境生物学
6101025	　　　环境气象学
6101030	　　　环境地学	包括环境地球化学、环境地质学等
6101035	　　　环境生态学
6101040	　　　环境毒理学
	　　　环境医学	见33031
6101045	　　　自然环境保护学
6101050	　　　环境管理学
	　　　环境经济学	见79051
	　　　环境法学	见8203075
6101099	　　　环境科学技术基础学科其他学科
61020	　　环境学
6102010	　　　大气环境学
6102020	　　　水体环境学	包括海洋环境学
6102030	　　　土壤环境学
6102040	　　　区域环境学
6102050	　　　城市环境学
6102099	　　　环境学其他学科
61030	　　环境工程学
6103010	　　　环境保护工程
6103015	　　　大气污染防治工程
6103020	　　　水污染防治工程
6103025	　　　固体污染防治工程
6103030	　　　三废处理与综合利用
6103035	　　　噪声与震动控制
6103040	　　　环境质量监测与评价
6103045	　　　环境规划
6103050	　　　环境系统工程
6103055	　　　环境修复工程	包括水环境修复工程
6103099	　　　环境工程学其他学科
61050	　　资源科学技术	包括资源管理
61099	　　环境科学技术及资源科学技术其他学科	原名为“环境科学技术其他学科”
620	安全科学技术
62010	　　安全科学技术基础学科
6201005	　　　安全哲学
6201007	　　　安全史
6201009	　　　安全科学学
6201030	　　　灾害学	包括灾害物理、灾害化学、灾害毒理等
6201035	　　　安全学	代码原为62020
6201099	　　　安全科学技术基础学科其他学科
62021	　　安全社会科学
6202110	　　　安全社会学
	　　　安全法学	见8203080，包括安全法规体系研究
6202120	　　　安全经济学	代码原为6202050
6202130	　　　安全管理学	代码原为6202060
6202140	　　　安全教育学	代码原为6202070
6202150	　　　安全伦理学
6202160	　　　安全文化学
6202199	　　　安全社会科学其他学科
62023	　　安全物质学
62025	　　安全人体学
6202510	　　　安全生理学
6202520	　　　安全心理学	代码原为6202020
6202530	　　　安全人机学	代码原为6202040
6202599	　　　安全人体学其他学科
62027	　　安全系统学	代码原为6202010
6202710	　　　安全运筹学
6202720	　　　安全信息论
6202730	　　　安全控制论
6202740	　　　安全模拟与安全仿真学	代码原为6202030
6202799	　　　安全系统学其他学科
62030	　　安全工程技术科学	原名为“安全工程”
6203005	　　　安全工程理论
6203010	　　　火灾科学与消防工程	原名为“消防工程”
6203020	　　　爆炸安全工程
6203030	　　　安全设备工程	含安全特种设备工程
6203035	　　　安全机械工程
6203040	　　　安全电气工程
6203060	　　　安全人机工程
6203070	　　　安全系统工程	含安全运筹工程、安全控制工程、安全信息工程
6203099	　　　安全工程技术科学其他学科
62040	　　安全卫生工程技术	原名为“职业卫生工程”
6204010	　　　防尘工程技术
6204020	　　　防毒工程技术
	　　　通风与空调工程	见5605520
6204030	　　　噪声与振动控制
	　　　辐射防护技术	见49075
6204040	　　　个体防护工程
6204099	　　　安全卫生工程技术其他学科	原名为“职业卫生工程其他学科”
62060	　　安全社会工程
6206010	　　　安全管理工程	代码原为62050
6206020	　　　安全经济工程
6206030	　　　安全教育工程
6206099	　　　安全社会工程其他学科
62070	　　部门安全工程理论	各部门安全工程入有关学科
62080	　　公共安全
6208010	　　　公共安全信息工程
6208015	　　　公共安全风险评估与规划	原名称及代码为“6205020风险评价与失效分析”
6208020	　　　公共安全检测检验
6208025	　　　公共安全监测监控
6208030	　　　公共安全预测预警
6208035	　　　应急决策指挥
6208040	　　　应急救援
6208099	　　　公共安全其他学科
62099	　　安全科学技术其他学科
630	管理学
63010	　　管理思想史
63015	　　　管理理论
6301510	　　　管理哲学
6301520	　　　组织理论
6301530	　　　行为科学
6301540	　　　决策理论
6301550	　　　系统管理理论
6301599	　　　管理理论其他学科
	　　管理心理学	见19060
63025	　　管理计量学
	　　管理经济学	见79033
63030	　　部门经济管理	各部门经济管理入有关学科
63032 	　　区域经济管理
63035	　　科学学与科技管理
6303510	　　　科学社会学
6303520	　　　科技政策学
6303525	　　　科学体系学
6303530	　　　科学心理学
6303540	　　　科学计量学
6303550	　　　科技管理学
6303599	　　　科学学与科技管理其他学科
63040	　　企业管理
6304010	　　　生产管理
6304015	　　　经营管理
6304020	　　　财务管理
6304025	　　　成本管理
6304030	　　　劳动人事管理
6304035	　　　技术管理
6304040	　　　营销管理
6304045	　　　物资管理
6304050	　　　设备管理
6304055	　　　质量管理
6304099	　　　企业管理其他学科
63044	　　公共管理
6304410	　　　行政管理	代码原为63045
6304420	　　　危机管理	也称“应急管理”
6304499	　　　公共管理其他学科
63050	　　管理工程
6305010	　　　生产系统管理
6305015	　　　研究与开发管理
6305020	　　　质量控制与可靠性管理
6305025	　　　物流系统管理
6305030	　　　战略管理
6305035	　　　决策分析
6305040	　　　决策支持系统
6305045	　　　管理信息系统
6305050	　　　管理系统仿真
6305055	　　　工效学
6305060	　　　部门管理工程	各部门管理工程入有关学科
6305099	　　　管理工程其他学科
63055	　　人力资源开发与管理
6305510	　　　人力资源开发战略
6305520	　　　人才学
6305599	　　　人力资源开发与管理其他学科
63060	　　未来学
6306010	　　　理论预测学
6306020	　　　预测评价学
6306030	　　　技术评估学
6306040	　　　全球未来学
6306099	　　　未来学其他学科
	　　可持续发展管理
63099	　　管理学其他学科
710	马克思主义
71010	　　马、恩、列、斯思想研究
71020	　　毛泽东思想研究
71030	　　马克思主义思想史
71040	　　科学社会主义
71050	　　社会主义运动史	包括国际共产主义运动
71060	　　国外马克思主义研究
71099	　　马克思主义其他学科
720	哲学
72010	　　马克思主义哲学
7201010	　　　辩证唯物主义
7201020	　　　历史唯物主义
7201030	　　　马克思主义哲学史
7201099	　　　马克思主义哲学其他学科
72015	　　自然辩证法	亦称科学技术哲学
7201510	　　　自然观
7201520	　　　科学哲学
7201530	　　　技术哲学
7201540	　　　专门自然科学哲学	包括人工智能哲学、数学哲学、物理哲学等
7201599	　　　自然辩证法其他学科
72020	　　中国哲学史
7202010	　　　先秦哲学
7202020	　　　秦汉哲学
7202030	　　　魏晋南北朝哲学
7202040	　　　隋唐五代哲学
7202050	　　　宋元明清哲学
7202060	　　　中国近代哲学
7202070	　　　中国现代哲学
7202080	　　　中国少数民族哲学思想
7202099	　　　中国哲学史其他学科
72025	　　东方哲学史
7202510	　　　印度哲学
7202520	　　　伊斯兰哲学
7202530	　　　日本哲学
7202599	　　　东方哲学史其他学科
72030	　　西方哲学史
7203010	　　　古希腊罗马哲学
7203020	　　　中世纪哲学
7203030	　　　文艺复兴时期哲学
7203040	　　　十七、十八世纪欧洲哲学
7203050	　　　德国古典哲学
7203060	　　　俄国哲学	包括俄国革命民主主义者的哲学
7203099	　　　西方哲学史其他学科
72035	　　现代外国哲学
7203510	　　　十九世纪末至二十世纪中叶西方哲学
7203520	　　　分析哲学
7203530	　　　欧洲大陆人文哲学
7203540	　　　解释学
7203550	　　　符号学
7203560	　　　实用主义哲学
7203599	　　　现代外国哲学其他学科
72040	　　逻辑学
7204010	　　　逻辑史	包括中国逻辑史、西方逻辑史、印度逻辑史等
7204020	　　　形式逻辑	亦称传统逻辑
	　　　数理逻辑	见11014
7204030	　　　哲理逻辑	包括模态、多值、构造、时态、模糊逻辑等
7204040	　　　语言逻辑
7204050	　　　归纳逻辑
7204060	　　　辩证逻辑
7204099	　　　逻辑学其他学科
72045	　　伦理学
7204510	　　　伦理学原理
7204515	　　　中国伦理思想史
7204520	　　　东方伦理思想史
7204525	　　　西方伦理思想史
7204530	　　　马克思主义伦理思想史
7204535	　　　职业伦理学
7204540	　　　医学伦理学
7204545	　　　教育伦理学
7204550	　　　政治伦理学
7204555	　　　家庭伦理学
7204560	　　　生命伦理学
7204565	　　　生态伦理学
7204570	　　　环境伦理学
7204599	　　　伦理学其他学科
72050	　　美学
7205010	　　　美学原理
7205020	　　　中国美学史
7205030	　　　东方美学史
7205040	　　　西方美学史
7205050	　　　西方现代美学
7205060	　　　马克思主义美学
7205070	　　　艺术美学	包括音乐、影视美学、建筑美学等
7205080	　　　技术美学
7205099	　　　美学其他学科
72099	　　哲学其他学科
730	宗教学
73011	　　宗教学理论
7301110	　　　马克思主义宗教学
7301115	　　　宗教史学
7301120	　　　宗教哲学
7301125	　　　宗教社会学
7301130	　　　宗教心理学
7301135	　　　比较宗教学
7301140	　　　宗教地理学
7301145	　　　宗教文学艺术
7301150	　　　宗教文献学
7301155	　　　神话学
7301199	　　　宗教学理论其他学科
73014	　　无神论
7301410	　　　无神论史
7301420	　　　中国无神论
7301430	　　　外国无神论
7301499	　　　无神论其他学科
73017	　　原始宗教
73021	　　古代宗教
7302110	　　　中国古代宗教
7302120	　　　外国古代宗教
7302199	　　　古代宗教其他学科
73024	　　佛教
7302410	　　　佛教哲学
7302420	　　　佛教因明
7302430	　　　佛教艺术
7302440	　　　佛教文献
7302450	　　　佛教史
7302460	　　　佛教宗派学
7302499	　　　佛教其他学科
73027	　　基督教
7302710	　　　圣经学
7302720	　　　基督教哲学
7302730	　　　基督教伦理学
7302740	　　　基督教史
7302750	　　　基督教艺术
7302799	　　　基督教其他学科
73031	　　伊斯兰教
7303110	　　　伊斯兰教义学
7303120	　　　伊斯兰教法学
7303130	　　　伊斯兰教哲学
7303140	　　　古兰学
7303150	　　　圣训学
7303160	　　　伊斯兰教史
7303170	　　　伊斯兰教艺术
7303199	　　　伊斯兰教其他学科
73034	　　道教
7303410	　　　道教哲学
7303420	　　　道教文献
7303430	　　　道教艺术
7303440	　　　道教史
7303499	　　　道教其他学科
73037	　　印度教
73041	　　犹太教
73044	　　袄教
73047	　　摩尼教
73051	　　锡克教
73054	　　耆那教
73057	　　神道教
73061	　　中国民间宗教与民间信仰
73064	　　中国少数民族宗教
73067	　　当代宗教
7306710	　　　中国当代宗教
7306720	　　　世界当代宗教
7306730	　　　新兴宗教
7306799	　　　当代宗教其他学科
73099	　　宗教学其他学科
740	语言学
74010	　　普通语言学
7401010	　　　语音学
7401015	　　　语法学
7401020	　　　语义学
7401025	　　　词汇学
7401030	　　　语用学
7401035	　　　方言学
7401040	　　　修辞学
7401045	　　　文字学
7401050	　　　语源学
7401099	　　　普通语言学其他学科
74015	　　比较语言学
7401510	　　　历史比较语言学
7401520	　　　类型比较语言学
7401530	　　　双语对比语言学
7401599	　　　比较语言学其他学科
74020	　　语言地理学
74025	　　社会语言学
74030	　　心理语言学
74035	　　应用语言学
7403510	　　　语言教学
7403520	　　　话语语言学
7403530	　　　实验语音学
7403540	　　　数理语言学
7403550	　　　计算语言学
7403560	　　　翻译学
7403570	　　　术语学
7403599	　　　应用语言学其他学科
74040	　　汉语研究
7404010	　　　普通话
7404015	　　　汉语方言
7404020	　　　汉语语音
7404025	　　　汉语音韵
7404030	　　　汉语语法
7404035	　　　汉语词汇
7404040	　　　汉语训诂
7404045	　　　汉语修辞
7404050	　　　汉字规范
7404055	　　　汉语史
7404099	　　　汉语研究其他学科
74045	　　中国少数民族语言文字
7404510	　　　蒙古语文
7404515	　　　藏语文
7404520	　　　维吾尔语文
7404525	　　　哈萨克语文
7404530	　　　满语文
7404535	　　　朝鲜语文
7404540	　　　傣族语文
7404545	　　　彝族语文
7404550	　　　壮语文
7404555	　　　苗语文
7404560	　　　瑶语文
7404565	　　　柯尔克孜语文
7404570	　　　锡伯语文
7404599	　　　中国少数民族语言文字其他学科
74050	　　外国语言
7405011	　　　英语
7405014	　　　德语
7405017	　　　瑞典语
7405018	　　　丹麦语、挪威语、冰岛语
7405020	　　　拉丁语
7405021	　　　意大利语
7405024	　　　法语
7405027	　　　西班牙语、葡萄牙语
7405031	　　　罗马尼亚语
7405034	　　　俄语
7405037	　　　波兰语、捷克语
7405041	　　　塞尔维亚语、保加利亚语
7405044	　　　希腊语
7405047	　　　阿尔巴尼亚语
7405051	　　　匈牙利语
7405052	　　　芬兰语
7405053	　　　爱沙尼亚语、拉脱维亚语、立陶宛语
7405054	　　　梵语、印地语、乌尔都语、僧伽罗语
7405057	　　　波斯语
7405061	　　　土耳其语
7405064	　　　阿拉伯语
7405067	　　　希伯莱语
7405071	　　　豪萨语
7405074	　　　斯瓦希里语
7405077	　　　越南语、柬埔寨语
7405081	　　　印度尼西亚语、菲律宾国语、马来语
7405084	　　　缅甸语
7405087	　　　泰语、老挝语
7405091	　　　日语
7405092	　　　朝鲜语和韩国语
7405094	　　　世界语
7405099	　　　外国语言其他学科
74099	　　语言学其他学科
750	文学
75011	　　文学理论
75014	　　文艺美学
75017	　　文学批评
75021	　　比较文学
75024	　　中国古代文学	原名为“中国古代文学史”
7502410	　　　周秦汉文学
7502415	　　　魏晋文学
7502420	　　　南北朝文学
7502425	　　　隋唐五代文学
7502430	　　　宋代文学
7502435	　　　辽金文学
7502440	　　　元代文学
7502445	　　　明代文学
7502450	　　　清代文学
7502499	　　　中国古代文学其他学科	原名为“中国古代文学史其他学科”
75027	　　中国近代文学	原名为“中国近代文学史”
75031	　　中国现代文学	包括当代文学。原名为“中国现代文学史”
75034	　　中国各体文学
7503410	　　　中国诗歌文学
7503420	　　　中国戏剧文学
7503430	　　　中国小说文学
7503440	　　　中国散文文学
7503499	　　　中国各体文学其他学科
75037	　　中国民间文学
75041	　　中国儿童文学
75044	　　中国少数民族文学
7504410	　　　蒙古族文学
7504420	　　　藏族文学
7504430	　　　维吾尔族文学
7504440	　　　哈萨克族文学
7504450	　　　朝鲜族文学
7504499	　　　中国少数民族文学其他学科
75047	　　世界文学史
7504710	　　　古代世界文学史
7504720	　　　中世纪世界文学史
7504730	　　　近代世界文学史
7504740	　　　现代世界文学史	包括当代世界文学史
7504799	　　　世界文学史其他学科
75051	　　东方文学
7505110	　　　印度文学
7505120	　　　日本文学
7505199	　　　东方文学其他学科
75054	　　俄国文学	包括原苏联文学
75057	　　英国文学
75061	　　法国文学
75064	　　德国文学
75067	　　意大利文学
75071	　　美国文学
75074	　　北欧文学
75077	　　东欧文学
75081	　　拉美文学
75084	　　非洲文学
75087	　　大洋洲文学
75099	　　文学其他学科
760	艺术学
	　　艺术美学	见7205070
76010	　　艺术心理学	包括绘画心理学、书法心理学、音乐心理学
76015	　　音乐
7601510	　　　音乐学	包括音乐史、音乐美学等
7601520	　　　作曲与作曲理论
7601530	　　　音乐表演艺术
7601599	　　　音乐其他学科
76020	　　戏剧
7602010	　　　戏剧史
7602020	　　　戏剧理论
7602099	　　　戏剧其他学科
76025	　　戏曲
7602510	　　　戏曲史
7602520	　　　戏曲理论
7602530	　　　戏曲表演
7602599	　　　戏曲其他学科
76030	　　舞蹈
7603010	　　　舞蹈史
7603020	　　　舞蹈理论
7603030	　　　舞蹈编导
7603040	　　　舞蹈表演
7603099	　　　舞蹈其他学科
76035	　　电影
7603510	　　　电影史
7603520	　　　电影理论
7603530	　　　电影艺术
7603599	　　　电影其他学科
76040	　　广播电视文艺
76045	　　美术
7604510	　　　美术史
7604520	　　　美术理论
7604530	　　　绘画艺术
7604540	　　　雕塑艺术
7604599	　　　美术其他学科
76050	　　工艺美术
7605010	　　　工艺美术史
7605020	　　　工艺美术理论
7605030	　　　环境艺术
7605099	　　　工艺美术其他学科
76055	　　书法
7605510	　　　书法史
7605520	　　　书法理论
7605599	　　　书法其他学科
76060	　　摄影
7606010	　　　摄影史
7606020	　　　摄影理论
7606099	　　　摄影其他学科
76099	　　艺术学其他学科
770	历史学
77010	　　史学史
7701010	　　　中国史学史
7701020	　　　外国史学史
77015	　　史学理论
7701510	　　　马克思主义史学理论
7701520	　　　中国传统史学理论
7701530	　　　外国史学理论
77020	　　历史文献学
77025	　　中国通史
77030	　　中国古代史
7703010	　　　先秦史
7703015	　　　秦汉史
7703020	　　　魏晋南北朝史
7703025	　　　隋唐五代十国史
7703030	　　　宋史
7703035	　　　辽金史
7703040	　　　元史
7703045	　　　明史
7703050	　　　清史
7703055	　　　中国古文字	包括甲骨文、金文等
7703060	　　　中国古代契约文书	包括敦煌学、明清契约文书研究、鱼鳞册研究等
7703099	　　　中国古代史其他学科
77035	　　中国近代史、现代史
7703510	　　　鸦片战争史
7703515	　　　太平天国史
7703520	　　　洋务运动史
7703525	　　　戊戌政变史
7703530	　　　义和团运动史
7703532	　　　晚清政治史
7703535	　　　辛亥革命史
7703540	　　　五四运动史
7703545	　　　新民主主义革命史
7703547	　　　抗日战争史
7703550	　　　中国共产党史
7703555	　　　中国国民党史
7703560	　　　中国民主党派史
7703565	　　　中华民国史
7703570	　　　中华人民共和国史
7703575	　　　近代经济史
7703580	　　　近代思想文化史
7703585	　　　近代社会史
7703599	　　　中国近代史、现代史其他学科
77040	　　世界通史
7704010	　　　原始社会史
7704020	　　　世界古代史
7704030	　　　世界中世纪史
7704040	　　　世界近代史
7704050	　　　世界现代史
	　　　国际关系史	见8104014
7704099	　　　世界通史其他学科
77045	　　亚洲史
7704510	　　　日本史
7704520	　　　印度史
7704525	　　　东北亚史
7704530	　　　东南亚史
7704540	　　　南亚史
7704550	　　　中亚史
7704560	　　　西亚史
7704599	　　　亚洲史其他学科
77050	　　非洲史
7705010	　　　北非史
7705020	　　　撒哈拉以南非洲史
7705030	　　　埃及史
7705040	　　　南非联邦史
7705099	　　　非洲史其他学科
77055	　　美洲史
7705510	　　　美洲古代文明史
7705520	　　　美国史
7705530	　　　加拿大史
7705540	　　　拉丁美洲史
7705599	　　　美洲史其他学科
77060	　　欧洲史
7706010	　　　俄国史	包括原苏联史
7706020	　　　英国史
7706030	　　　法国史
7706040	　　　德国史
7706050	　　　意大利史
7706060	　　　西班牙史
7706070	　　　中东欧国家史	原名为“东欧国家史”
7706080	　　　北欧国家史
7706099	　　　欧洲史其他学科
77065	　　澳洲、大洋洲史
77070	　　专门史
	　　　经济史	见79027
7707010	　　　政治史
7707015	　　　思想史
7707020	　　　文化史
7707025	　　　科技史
7707030	　　　社会史
7707035	　　　城市史
7707040	　　　中外文化交流史
7707042	　　　中外关系史
	　　　军事史	见83015
7707045	　　　历史地理学
7707050	　　　方志学
7707055	　　　人物研究
7707060	　　　谱牒学
7707099	　　　专门史其他学科
77099	　　历史学其他学科
7709910	　　　简帛学
780	考古学
78010	　　考古理论
78020	　　考古学史
78030	　　考古技术
7803010	　　　考古发掘
7803020	　　　考古修复
7803030	　　　考古年代测定
7803099	　　　考古技术其他学科
78040	　　中国考古
7804010	　　　旧石器时代考古
7804020	　　　新石器时代考古
7804030	　　　商周考古
7804040	　　　秦汉考古
7804050	　　　三国两晋、南北朝、隋唐考古
7804060	　　　宋元明考古
7804099	　　　中国考古其他学科
78050	　　外国考古
7805010	　　　亚洲考古
7805020	　　　欧洲考古
7805030	　　　非洲考古
7805040	　　　美洲考古
7805050	　　　大洋洲考古
7805099	　　　外国考古其他学科
78060	　　专门考古
7806010	　　　金石学
7806020	　　　铭刻学
7806030	　　　甲骨学
7806040	　　　古钱学
7806045	　　　古陶瓷学
7806050	　　　美术考古
7806060	　　　宗教考古
7806070	　　　水下考古
7806099	　　　专门考古其他学科
78099	　　考古学其他学科
790	经济学
79011	　　政治经济学
7901110	　　　资本主义政治经济学
7901120	　　　社会主义政治经济学
7901199	　　　政治经济学其他学科
79013	　　宏观经济学
7901310	　　　西方宏观经济学
7901320	　　　社会主义宏观经济学
79015	　　微观经济学
7901510	　　　西方微观经济学
7901520	　　　社会主义微观经济学
79017	　　比较经济学
79019	　　经济地理学	包括工业地理学、农业地理学等
79021	　　发展经济学
79023	　　生产力经济学
79025	　　经济思想史
7902510	　　　中国经济思想史
7902520	　　　外国经济思想史
7902530	　　　马克思主义经济思想史
7902599	　　　经济思想史其他学科
79027	　　经济史
7902710	　　　世界经济史
7902720	　　　中国经济史
7902799	　　　经济史其他学科
79029	　　世界经济学	亦称国际经济学
7902911	　　　国际经济关系
7902914	　　　国际贸易学	包括国际市场营销学、国际商品学
7902917	　　　国际货币经济学
7902921	　　　国际金融学
7902924	　　　国际投资学
7902927	　　　国际收支理论
7902931	　　　美国经济
7902934	　　　日本经济
7902937	　　　德国经济
7902941	　　　法国经济
7902944	　　　英国经济
7902947	　　　俄罗斯经济
7902951	　　　欧洲经济
7902952	　　　中东欧经济
7902954	　　　北美经济
7902957	　　　亚太经济
7902961	　　　拉美经济
7902964	　　　非洲经济
7902966	　　　中亚经济
7902968	　　　西亚经济
7902971	　　　世界经济统计
7902999	　　　世界经济学其他学科
79031	　　国民经济学
7903110	　　　国民经济计划学
7903120	　　　区域经济学
7903130	　　　消费经济学
7903140	　　　投资经济学
7903199	　　　国民经济学其他学科
79033	　　管理经济学
79035	　　数量经济学
7903510	　　　数理经济学
7903520	　　　经济计量学
7903599	　　　数量经济学其他学科
79037	　　会计学
7903710	　　　工业会计学
7903720	　　　农业会计学
7903730	　　　商业会计学
7903740	　　　银行会计学
7903750	　　　交通运输会计学
7903799	　　　会计学其他学科
79039	　　审计学
79041	　　技术经济学
7904105	　　　技术经济理论与方法
7904110	　　　工程经济学
7904115	　　　工业技术经济学
7904120	　　　农业技术经济学
7904125	　　　能源技术经济学
7904130	　　　交通运输技术经济学
7904135	　　　建筑技术经济学
7904140	　　　物流技术经济学	原名为“商业与物流技术经济学”
7904141	　　　贸易技术经济学
7904145	　　　技术进步经济学
7904150	　　　资源开发利用技术经济学
7904155	　　　环境保护技术经济学
7904160	　　　生产力布局技术经济学
7904165	　　　消费技术经济学
7904170	　　　服务业技术经济学
7904199	　　　技术经济学其他学科
79043	　　生态经济学
	　　　农业生态经济学	见7905910
7904310	　　　森林生态经济学
7904320	　　　草原生态经济学
7904330	　　　水域生态经济学
7904340	　　　城市生态经济学
7904350	　　　区域生态经济学
7904399	　　　生态经济学其他学科
79045	　　劳动经济学
7904510	　　　就业经济学	包括劳动市场经济学
	　　　教育经济学	见88031
7904525	　　　健康经济学
7904560	　　　劳动经济史
7904599	　　　劳动经济学其他学科
79047	　　城市经济学
7904710	　　　城市经济管理学	含城市经济理论
7904720	　　　城市土地经济学
7904730	　　　市政经济学
7904740	　　　房地产经济学	原名为“住宅经济学”
7904750	　　　城郊经济学
7904799	　　　城市经济学其他学科
79049	　　资源经济学
7904910	　　　海洋资源经济学
7904920	　　　生物资源经济学
7904930	　　　矿产资源经济学
7904940	　　　能源经济学
7904950	　　　资源开发与利用
7904999	　　　资源经济学其他学科
79051	　　环境经济学
79052	　　可持续发展经济学
79053	　　物流经济学
7905310	　　　物流经济理论
7905320	　　　物流管理学
7905399	　　　物流经济学其他学科
79055	　　工业经济学
7905510	　　　工业发展经济学
7905520	　　　工业企业经营管理学
7905530	　　　工业经济地理
7905540	　　　工业部门经济学
7905550	　　　工业经济史
7905599	　　　工业经济学其他学科
79057	　　农村经济学
7905710	　　　农村宏观经济学
7905720	　　　农村产业经济学
7905730	　　　农村区域经济学
7905799	　　　农村经济学其他学科
79059	　　农业经济学
7905910	　　　农业生态经济学
7905920	　　　农业生产经济学
7905930	　　　土地经济学	包括国土经济学、农业资源经济学等
7905940	　　　农业经济史
7905950	　　　农业企业经营管理
7905960	　　　合作经济
7905970	　　　世界农业经济
	　　　农业区划	见4165045
	　　　林业经济学	见22065
	　　　畜牧经济学	见2302080
	　　　水产经济学	见24055
7905980	　　　种植业经济学
7905999	　　　农业经济学其他学科
79061	　　交通运输经济学
7906110	　　　城市运输经济学
7906120	　　　铁路运输经济学
7906130	　　　航空运输经济学
7906140	　　　公路运输经济学
7906150	　　　水路运输经济学
7906160	　　　综合运输经济学
7906199	　　　交通运输经济学其他学科
	　　建筑经济学	见56060
79063	　　商业经济学
7906310	　　　商业经济学原理
7906315	　　　商业企业管理学
7906320	　　　商品流通经济学
7906325	　　　市场学
7906330	　　　商业心理学
7906335	　　　商业社会学
7906340	　　　商品学	包括商品包装与技术
7906345	　　　商业物流学
7906350	　　　商业经济史
7906355	　　　广告学
7906360	　　　服务经济学
7906399	　　　商业经济学其他学科
79065	　　价格学
7906510	　　　价格学原理
7906520	　　　部门价格学
7906530	　　　广义价格学
7906540	　　　成本管理学
7906550	　　　价格史
7906560	　　　比较价格学
7906599	　　　价格学其他学科
79067	　　旅游经济学
7906710	　　　旅游经济学理论
7906720	　　　旅游经济管理学
7906730	　　　旅游企业管理学
7906740	　　　旅游事业史
7906799	　　　旅游经济学其他学科
79069	　　信息经济学
79071	　　财政学
7907110	　　　理论财政学
7907140	　　　比较财政学
7907150	　　　财政思想史
7907160	　　　财政史
7907170	　　　财政管理学
7907180	　　　税务管理学
7907199	　　　财政学其他学科
79073	　　金融学	原名为“货币银行学”
7907310	　　　货币经济学	原名为“货币理论”
7907313	　　　货币史	含国际货币体系史
7907315	　　　货币思想史	原名为“货币学说史”
7907320	　　　银行学
7907322	　　　金融风险管理学
7907325	　　　金融资产管理学	原名为“银行经营管理学”
7907330	　　　信贷理论
7907335	　　　投资理论	含金融投资学
7907340	　　　金融市场	含货币市场学、资本市场学、国际金融市场学
7907343	　　　公司金融学
7907344	　　　房地产金融学
7907345	　　　农村金融学
7907346	　　　开发性金融学
	　　　国际金融学	见7902921
7907350	　　　金融史、银行史	含金融法制史
7907353	　　　金融发展学
7907356	　　　金融工程学	又可称为结构金融学
7907359	　　　金融制度学	含金融体制比较
7907399	　　　金融学其他学科	原名为“货币银行学其他学科”
79075	　　保险学
7907505	　　　保险史	含保险思想史
7907510	　　　保险管理
7907599	　　　保险学其他学科
79077	　　国防经济学
79099	　　经济学其他学科
810	政治学
81010	　　政治学理论
8101010	　　　比较政治学
8101020	　　　政治社会学
8101030	　　　政治心理学
8101040	　　　地缘政治学
8101050	　　　中外政治学说史
8101060	　　　政治学方法论
8101099	　　　政治学理论其他学科
81020	　　政治制度
8102010	　　　政治制度理论
8102015	　　　议会制度
8102020	　　　行政制度
8102025	　　　司法制度
8102030	　　　政党制度
8102035	　　　选举制度
8102040	　　　中国政治制度
8102045	　　　外国政治制度
8102050	　　　比较政治制度
8102055	　　　中国政治制度史
8102060	　　　外国政治制度史
8102099	　　　政治制度其他学科
81030	　　行政学
8103010	　　　行政理论
8103020	　　　行政组织
8103030	　　　人事行政
8103040	　　　财务行政
8103050	　　　行政决策
8103099	　　　行政学其他学科
81040	　　国际政治学
8104011	　　　国际关系理论
8104014	　　　国际关系史
8104017	　　　国际组织
8104021	　　　外交学
8104024	　　　外交史
8104027	　　　国际比较政治
8104031	　　　美国政治
8104034	　　　英国政治
8104037	　　　法国政治
8104041	　　　德国政治
8104044	　　　日本政治
8104047	　　　俄罗斯政治
8104051	　　　欧洲政治
8104052	　　　中东欧政治
8104054	　　　北美政治
8104057	　　　亚太政治
8104061	　　　拉美政治
8104064	　　　非洲政治
8104068	　　　中亚政治
8104069	　　　西亚政治
8104099	　　　国际政治学其他学科
81099	　　政治学其他学科
820	法学
82010	　　理论法学
8201010	　　　法理学
8201020	　　　法哲学
8201030	　　　比较法学
8201040	　　　法社会学
8201050	　　　立法学
8201060	　　　法律逻辑学
8201070	　　　法律教育学
8201080	　　　法律心理学	参见19075
8201099	　　　理论法学其他学科
82020	　　法律史学
8202010	　　　中国法律思想史
8202020	　　　外国法律思想史
8202030	　　　法律制度史
8202099	　　　法律史学其他学科
82030	　　部门法学
8203010	　　　宪法学
8203015	　　　行政法学
8203020	　　　民法学
8203025	　　　经济法学
8203030	　　　劳动法学
8203035	　　　婚姻法学
8203040	　　　民事诉讼法学
8203045	　　　行政诉讼法学
8203050	　　　刑事诉讼法学
8203055	　　　刑法学
8203060	　　　刑事侦查学
8203065	　　　司法鉴定学
8203070	　　　军事法学
8203072	　　　卫生法学
8203075	　　　环境法学
8203080	　　　安全法学
8203085	　　　知识产权法学
8203088	　　　宗教法学
8203099	　　　部门法学其他学科
82040	　　国际法学
8204010	　　　国际公法学
8204020	　　　国际私法学
8204030	　　　国际刑法学
8204040	　　　国际经济法学
8204050	　　　国际环境法学
8204060	　　　国际知识产权法学
8204099	　　　国际法学其他学科
82099	　　法学其他学科
830	军事学
83010	　　军事理论
8301010	　　　马、恩、列、斯军事理论
8301020	　　　毛泽东军事思想
8301099	　　　军事理论其他学科
83015	　　军事史
8301510	　　　中国古代战争史
8301520	　　　中国近代战争史
8301530	　　　中国现代战争史
8301540	　　　世界战争史
8301550	　　　军事思想史
8301560	　　　军事技术史
8301599	　　　军事史其他学科
83020	　　军事心理学
83025	　　战略学
8302510	　　　战略学理论
8302520	　　　核战略学
8302599	　　　战略学其他学科
83030	　　战役学
8303010	　　　合同战役学
8303020	　　　海军战役学
8303030	　　　空军战役学
8303040	　　　导弹部队战役学
8303050	　　　陆军战役学	包括炮兵战役学、装甲兵战役学
8303099	　　　战役学其他学科
83035	　　战术学
8303510	　　　合同战术学
8303520	　　　陆军战术学	包括炮兵战术学、装甲兵战术学、工程兵战术学、通信兵战术学、防化兵战术学等
8303530	　　　海军战术学
8303540	　　　空军战术学
8303550	　　　导弹部队战术学
8303599	　　　战术学其他学科
83040	　　军队指挥学
8304010	　　　作战指挥
8304020	　　　军事系统工程	亦称军事运筹学
8304030	　　　军事通信学
8304040	　　　军事情报学
	　　　密码学	见4132010
8304099	　　　军队指挥学其他学科
83045	　　军制学
8304510	　　　军事组织体制
8304520	　　　军事装备学
8304530	　　　军队管理学
8304599	　　　军制学其他学科
83050	　　军队政治工作学
8305010	　　　军队思想教育工作学
8305020	　　　军队组织工作学
8305099	　　　军队政治工作学其他学科
83055	　　军事后勤学
8305510	　　　后勤组织指挥
8305520	　　　后方专业勤务
8305599	　　　军事后勤学其他学科
83060	　　军事地学
8306010	　　　中国军事地理
8306020	　　　世界军事地理
8306030	　　　军事地形学
8306040	　　　军事测绘学
8306050	　　军事气象学
8306060	　　　军事水文学
8306099	　　　军事地学其他学科
83065	　　军事技术
83099	　　军事学其他学科
840	社会学
84011	　　社会学史
8401110	　　　中国社会学史
8401120	　　　外国社会学史
8401199	　　　社会学史其他学科
84014	　　社会学理论
8401410	　　　社会学原理
8401420	　　　社会思想史
8401499	　　　社会学理论其他学科
84017	　　社会学方法
8401710	　　　社会调查方法
	　　　社会统计学	见91040
8401799	　　　社会学方法其他学科
84021	　　实验社会学
84024	　　数理社会学
84027	　　应用社会学
8402711	　　　职业社会学
8402714	　　　工业社会学
	　　　劳动社会学	见8407430
8402717	　　　医学社会学
	　　　教育社会学	见88024
	　　　商业社会学	见7906335
8402727	　　　城市社会学
8402731	　　　农村社会学
8402734	　　　环境社会学
8402737	　　　家庭社会学
8402741	　　　青年社会学
8402744	　　　老年社会学
8402747	　　　犯罪社会学
8402751	　　　越轨社会学
8402754	　　　妇女问题研究
8402757	　　　种族问题研究
8402761	　　　社会问题研究
8402764	　　　社会群体及分层问题研究
8402767	　　　社区研究
8402771	　　　社会保障研究
8402774	　　　社会工作
8402799	　　　应用社会学其他学科
84031	　　比较社会学
84034	　　社会地理学
	　　政治社会学	见8101020
84037	　　文化社会学
8403710	　　　艺术社会学
8403720	　　　知识社会学
	　　　宗教社会学	见7301125
	　　　法社会学	见8201040
8403730	　　　道德社会学
8403799	　　　文化社会学其他学科
84041	　　历史社会学
	　　科学社会学	见6303510
84044	　　经济社会学
84047	　　军事社会学
	　　社会心理学	见19020
84054	　　公共关系学
84057	　　社会人类学
84061	　　组织社会学
84064	　　发展社会学
84067	　　福利社会学
84071	　　人口学
8407110	　　　人口理论	原名为“人口学原理”
8407115	　　　人口经济学
8407120	　　　人口社会学	包括老年人口学、妇女人口学、发展人口学等
8407125	　　　人口学说史
8407130	　　　历史人口	原名为“人口史”
	　　　人口统计学	见91045
8407135	　　　人口地理学
8407140	　　　人口生态学
8407145	　　　区域人口学
8407150	　　　人口系统工程
8407155	　　　人口预测学
8407160	　　　人口规划学
8407165	　　　人口政策	原名为“人口政策学”
8407170	　　　计划生育学
8407199	　　　人口学其他学科
84074	　　劳动科学
	　　　劳动经济学	见79045
8407420	　　　劳动管理学	代码原为7904520
8407425	　　　劳动统计学	代码原为7904530
8407430	　　　劳动社会学	代码原为7904540
8407435	　　　劳动心理学	代码原为7904550
8407440	　　　社会保险学
8407445	　　　职业安全卫生科学技术
8407499	　　　劳动科学其他学科
84099	　　社会学其他学科
850	民族学与文化学	原名为“民族学”
85010	　　民族问题理论
8501010	　　　民族问题与民族政策
8501020	　　　民族关系
8501030	　　　民族经济
8501040	　　　民族教育
8501050	　　　民族法制
8501060	　　　民族心理学
8501070	　　　少数民族政治制度
8501099	　　　民族问题理论其他学科
85020	　　民族史学
8502010	　　　民族史
8502020	　　　民族关系史
8502099	　　　民族史学其他学科
	　　中国少数民族语言文字	见74045
85030	　　蒙古学
85040	　　藏学
85042	　　新疆民族研究	含维吾尔学
85050	　　文化人类学与民俗学
85060	　　世界民族研究
85070	　　文化学
	　　　文化发展史	见7707020
8507010	　　　文化地理学
8507020	　　　文化心理学
8507030	　　　文化遗产学
8507099	　　　文化学其他学科
85099	　　民族和文化学其他学科	原名为“民族学其他学科”
860	新闻学与传播学
86010	　　新闻理论
8601010	　　　新闻学
8601015	　　　马克思主义新闻理论
8601020	　　　西方新闻理论
8601025	　　　新闻法
8601030	　　　舆论学
8601035	　　　新闻伦理学
8601040	　　　新闻社会学
8601045	　　　新闻心理学
8601050	　　　比较新闻学
8601099	　　　新闻理论其他学科
86020	　　新闻史
8602010	　　　中国新闻事业史
8602020	　　　世界新闻事业史
8602030	　　　新闻思想史
8602040	　　　传播技术史
8602099	　　　新闻史其他学科
86030	　　新闻业务
8603010	　　　新闻采访
8603020	　　　新闻写作
8603030	　　　新闻编辑
8603040	　　　新闻评论
8603050	　　　新闻摄影
8603099	　　　新闻业务其他学科
86040	　　新闻事业经营管理
8604010	　　　传媒经济
8604020	　　　传媒管理
8604099	　　　新闻事业经营管理其他学科
86050	　　广播与电视
8605010	　　　广播电视史
8605020	　　　广播电视理论
8605030	　　　广播电视业务	包括广播电视采访、写作、编辑等
8605040	　　　广播电视播音
8605099	　　　广播与电视其他学科
86060	　　传播学
8606010	　　　传播史
8606020	　　　传播理论
8606030	　　　传播技术
8606040	　　　组织传播学
8606050	　　　传播与社会发展
8606051	　　　人际传播
8606053	　　　国际传播
8606055	　　　跨文化传播
8606057	　　　网络传播
8606059	　　　新媒介传播
8606099	　　　传播学其他学科
86099	　　新闻学与传播学其他学科
870	图书馆、情报与文献学
87010	　　图书馆学
8701010	　　　图书馆学史	包括图书馆事业史
8701015	　　　比较图书馆学
8701020	　　　图书馆社会学
8701025	　　　图书馆管理学	包括图书馆统计学、图书馆经济学等
8701030	　　　图书馆建筑学
8701035	　　　图书采访学
8701040	　　　图书分类学
8701045	　　　图书编目学	包括目录组织法、文献著录方法、计算机编目等
8701050	　　　目录学	包括普通目录学、专科目录、目录学史等
8701055	　　　图书馆服务学	包括读者心理学、读者咨询学等
8701099	　　　图书馆学其他学科
87020	　　文献学
8702010	　　　文献类型学
8702020	　　　文献计量学
8702030	　　　文献检索学
8702040	　　　图书史
8702050	　　　版本学
8702060	　　　校勘学
8702099	　　　文献学其他学科
87030	　　情报学
8703010	　　　情报学史	包括情报事业史
8703015	　　　情报社会学
8703020	　　　比较情报学
8703025	　　　情报计量学
8703030	　　　情报心理学
8703035	　　　情报管理学
8703040	　　　情报服务学	包括情报用户研究等
8703045	　　　情报经济学
8703050	　　　情报检索学	包括情报检索语言等
8703055	　　　情报系统理论	包括情报系统分析与设计、情报网络建设理论等
8703060	　　　情报技术
8703065	　　　科学技术情报学
8703070	　　　社会科学情报学
8703099	　　　情报学其他学科
87040	　　档案学
8704010	　　　档案学史	包括档案事业史
8704020	　　　档案管理学
8704030	　　　档案保护技术学
8704040	　　　档案编纂学
8704099	　　　档案学其他学科
87050	　　博物馆学
87099	　　图书馆、情报与文献学其他学科
880	教育学
88011	　　教育史	包括中国教育史、外国教育史等
88014	　　教育学原理
88017	　　教学论
88021	　　德育原理
88024	　　教育社会学
	　　教育心理学	见19070
88031	　　教育经济学
	　　教育统计学	见9104010
88034	　　教育管理学
88037	　　比较教育学
88041	　　教育技术学
88044	　　军事教育学
88047	　　学前教育学
88051	　　普通教育学	包括初等教育学、中等教育学等
88054	　　高等教育学
88057	　　成人教育学
88061	　　职业技术教育学
88064	　　特殊教育学
88099	　　教育学其他学科
890	体育科学
89010	　　体育史
89015	　　体育理论
89020	　　运动生物力学	包括运动解剖学等
89025	　　运动生理学
89030	　　运动心理学
89035	　　运动生物化学
89040	　　体育保健学
89045	　　运动训练学
89050	　　体育教育学
89055	　　武术理论与方法
89060	　　体育管理学
89065	　　体育经济学
89099	　　体育科学其他学科
910	统计学
91010	　　统计学史
	　　数理统计学	见11067
	　　　抽样理论	见1106710
	　　　假设检验	见1106715
	　　　非参数统计	见1106720
	　　　方差分析	见1106725
	　　　相关回归分析	见1106730
	　　　统计推断	见1106735
	　　　贝叶斯统计	见1106740
	　　　试验设计	见1106745
	　　　多元分析	见1106750
	　　　统计判决理论	见1106755
	　　　时间序列分析	见1106760
	　　　空间统计	见1106765
	　　应用统计数学	见11071
	　　　统计质量控制	见1107110
	　　　可靠性数学	见1107120
	　　　保险数学	见1107130
	　　　统计计算	见1107135
	　　　统计模拟	见1107140
91030	　　经济统计学
9103015	　　　国民经济核算	原名称及代码为“9101520统计核算理论”
9103025	　　　经济统计分析
	　　　经济计量学	见7903520
9103099	　　　经济统计学其他学科
91035	　　科学技术统计学
91040	　　社会统计学
9104010	　　　教育统计学
9104020	　　　文化与体育统计学
9104040	　　　司法统计学
	　　　劳动统计学	见8407425
9104050	　　　社会保障统计学	原名为“社会福利与社会保障统计学”
9104060	　　　生活质量统计学
9104099	　　　社会统计学其他学科
91045	　　人口统计学
91050	　　环境与生态统计学
9105010	　　　资源统计学	原名为“自然资源统计学”
9105020	　　　环境统计学
9105030	　　　生态统计学	原名为“生态平衡统计学”
9105099	　　　环境与生态统计学其他学科
91060	　　生物与医学统计学
9106010	　　　生物统计学
	　　　医学统计学	见31057
	　　　卫生统计学	见33072
9106099	　　　生物与医学统计学其他学科
91099	　　统计学其他学科
