http://sjtu.yousi.com/Public/upload/teacherPhoto/2015-04-17/5530e0f71a89d.png?imageView2/0/h/96/w/96
http://www.yousi.com/Public/upload/photo/2015-08-05/55c191c6a1f99.png?imageView2/0/h/96/w/96
http://7xl17c.com2.z0.glb.qiniucdn.com/2015-09-10_55f168e585018.jpg?imageView2/0/h/96/w/96
http://7xl17c.com2.z0.glb.qiniucdn.com/2015-09-14_55f6c5a328973.jpg?imageView2/0/h/96/w/96
http://www.yousi.com/Public/upload/photo/2015-06-23/558902ddebedf.JPG?imageView2/0/h/96/w/96
http://7xl17c.com2.z0.glb.qiniucdn.com/2015-09-12_55f440d17251f.jpg?imageView2/0/h/96/w/96
http://sjtu.yousi.com/Public/upload/teacherPhoto/2015-03-25/5512483e4477c.jpg?imageView2/0/h/96/w/96
http://7xl17c.com2.z0.glb.qiniucdn.com/2015-10-05_5612333852f5a.jpg?imageView2/0/h/96/w/96
http://sjtu.yousi.com/Public/upload/teacherPhoto/2015-01-26/54c5e8af1c302.jpg?imageView2/0/h/96/w/96
http://7xl17c.com2.z0.glb.qiniucdn.com/2015-09-30_560bc331a6ed1.png?imageView2/0/h/96/w/96
http://www.yousi.com/Public/upload/photo/2015-08-24/55db37991528b.jpg?imageView2/0/h/96/w/96
http://7xl17c.com2.z0.glb.qiniucdn.com/2015-09-15_55f7e39273aca.jpg?imageView2/0/h/96/w/96
http://7xl17c.com2.z0.glb.qiniucdn.com/2015-08-31_55e41433ac3f3.jpg?imageView2/0/h/96/w/96
http://7xl17c.com2.z0.glb.qiniucdn.com/2015-09-10_55f195790da73.jpg?imageView2/0/h/96/w/96
http://7xl17c.com2.z0.glb.qiniucdn.com/2015-09-14_55f62d7c7179e.jpg?imageView2/0/h/96/w/96
http://7xl17c.com2.z0.glb.qiniucdn.com/2015-09-09_55eff08fe15bd.jpg?imageView2/0/h/96/w/96
http://7xl17c.com2.z0.glb.qiniucdn.com/2015-11-16_5649e7fdc45cd.jpg?imageView2/0/h/96/w/96
http://www.yousi.com/Public/upload/photo/2015-07-16/55a753c50b003.jpg?imageView2/0/h/96/w/96
http://7xl17c.com2.z0.glb.qiniucdn.com/2015-09-07_55ed4fe3c2466.jpg?imageView2/0/h/96/w/96
http://7xl17c.com2.z0.glb.qiniucdn.com/2015-11-17_564a95a6e3b4a.jpg?imageView2/0/h/96/w/96
http://sjtu.yousi.com/Public/upload/photo/2015-07-10/559f357789e93.jpg?imageView2/0/h/96/w/96
http://7xl17c.com2.z0.glb.qiniucdn.com/2015-09-02_55e705019d4da.jpg?imageView2/0/h/96/w/96
http://7xl17c.com2.z0.glb.qiniucdn.com/2015-09-26_5606bc2d3836e.jpg?imageView2/0/h/96/w/96
http://7xl17c.com2.z0.glb.qiniucdn.com/2015-09-25_5604ff783fdb0.jpg?imageView2/0/h/96/w/96
http://7xl17c.com2.z0.glb.qiniucdn.com/2015-09-28_5608bcd51ca4a.jpg?imageView2/0/h/96/w/96
http://7xl17c.com2.z0.glb.qiniucdn.com/2015-09-12_55f3ef661889e.png?imageView2/0/h/96/w/96
http://yousi.com/Public/upload/photo/2015-08-23/55d996c3bad3f.jpg?imageView2/0/h/96/w/96
http://7xl17c.com2.z0.glb.qiniucdn.com/2015-09-05_55eaebba0f1cf.jpg?imageView2/0/h/96/w/96
http://sjtu.yousi.com/Public/upload/teacherPhoto/2015-01-19/54bd1a80ad819.JPG?imageView2/0/h/96/w/96
http://7xl17c.com2.z0.glb.qiniucdn.com/2015-09-27_56075b9bcd5c8.jpg?imageView2/0/h/96/w/96
http://7xl17c.com2.z0.glb.qiniucdn.com/2015-09-03_55e7982016cb8.jpg?imageView2/0/h/96/w/96
http://7xl17c.com2.z0.glb.qiniucdn.com/2015-08-29_55e18fc0c8e2d.jpg?imageView2/0/h/96/w/96
http://www.yousi.com/Public/upload/photo/2015-08-05/55c22638b7784.jpg?imageView2/0/h/96/w/96
http://7xl17c.com2.z0.glb.qiniucdn.com/2015-10-16_5620427c2ec7e.jpg?imageView2/0/h/96/w/96
http://ecust.yousi.com/Public/upload/photo/2015-07-06/559a1c5883e97.jpg?imageView2/0/h/96/w/96
http://7xl17c.com2.z0.glb.qiniucdn.com/2015-10-01_560d38660e43a.jpg?imageView2/0/h/96/w/96
http://sjtu.yousi.com/Public/upload/teacherPhoto/2015-03-20/550bbd4f22a16.jpg?imageView2/0/h/96/w/96
http://7xl17c.com2.z0.glb.qiniucdn.com/2015-09-07_55ed69fd02ff8.JPG?imageView2/0/h/96/w/96
http://7xl17c.com2.z0.glb.qiniucdn.com/2015-10-17_5622132369bf4.JPG?imageView2/0/h/96/w/96
http://7xl17c.com2.z0.glb.qiniucdn.com/2015-09-27_5607bd2187a45.jpg?imageView2/0/h/96/w/96
http://7xl17c.com2.z0.glb.qiniucdn.com/2015-09-16_55f96d5abfbbf.jpg?imageView2/0/h/96/w/96
http://7xl17c.com2.z0.glb.qiniucdn.com/2015-09-30_560b3f53c6512.JPG?imageView2/0/h/96/w/96
http://7xl17c.com2.z0.glb.qiniucdn.com/2015-09-26_56065a31763cd.jpg?imageView2/0/h/96/w/96
http://ecust.yousi.com/Public/upload/photo/2015-06-23/5588f7f14407e.JPG?imageView2/0/h/96/w/96
http://7xl17c.com2.z0.glb.qiniucdn.com/2015-09-26_5605f7c4a9e51.jpg?imageView2/0/h/96/w/96
http://7xl17c.com2.z0.glb.qiniucdn.com/2015-09-03_55e820a04bc50.jpg?imageView2/0/h/96/w/96
http://7xl17c.com2.z0.glb.qiniucdn.com/2015-10-04_56110f1c63c25.jpg?imageView2/0/h/96/w/96
http://7xl17c.com2.z0.glb.qiniucdn.com/2015-11-14_56469f4fd0f69.jpg?imageView2/0/h/96/w/96
http://7xl17c.com2.z0.glb.qiniucdn.com/2015-09-01_55e5ac0f9d9a9.jpg?imageView2/0/h/96/w/96
http://sjtu.yousi.com/Public/upload/photo/2015-07-06/559a64914fb37.jpg?imageView2/0/h/96/w/96
http://www.yousi.com/Public/upload/photo/2015-07-22/55af8f8ade345.jpg?imageView2/0/h/96/w/96
http://7xl17c.com2.z0.glb.qiniucdn.com/2015-09-21_55ff91edbd754.jpg?imageView2/0/h/96/w/96
http://7xl17c.com2.z0.glb.qiniucdn.com/2015-10-26_562dc93681e0d.jpg?imageView2/0/h/96/w/96
http://sjtu.yousi.com/Public/upload/photo/2015-06-09/5576f270e6b08.jpg?imageView2/0/h/96/w/96
http://www.yousi.com/Public/upload/photo/2015-06-29/5591122aeccd9.jpg?imageView2/0/h/96/w/96
http://7xl17c.com2.z0.glb.qiniucdn.com/2015-11-04_5639e8fec94fe.jpg?imageView2/0/h/96/w/96
http://7xl17c.com2.z0.glb.qiniucdn.com/2015-09-02_55e6c7d012c59.jpg?imageView2/0/h/96/w/96
http://ecust.yousi.com/Public/upload/photo/2015-06-18/5582902cf0c09.jpg?imageView2/0/h/96/w/96
http://7xl17c.com2.z0.glb.qiniucdn.com/2015-09-10_55f0d198ae6af.png?imageView2/0/h/96/w/96
http://sjtu.yousi.com/Public/upload/teacherPhoto/2015-02-03/54d0d0f0c2270.jpg?imageView2/0/h/96/w/96
http://7xl17c.com2.z0.glb.qiniucdn.com/2015-09-19_55fcddfbc7588.jpg?imageView2/0/h/96/w/96
http://7xl17c.com2.z0.glb.qiniucdn.com/2015-09-09_55f00da4ec9ea.jpg?imageView2/0/h/96/w/96
http://ecust.yousi.com/Public/upload/photo/2015-06-24/558a1993a883f.jpg?imageView2/0/h/96/w/96
http://7xl17c.com2.z0.glb.qiniucdn.com/2015-09-01_55e54f6b2f91c.jpeg?imageView2/0/h/96/w/96
http://sjtu.yousi.com/Public/upload/photo/2015-05-31/556a85b61ca9a.jpg?imageView2/0/h/96/w/96
http://7xl17c.com2.z0.glb.qiniucdn.com/2015-09-15_55f78aef018cd.jpg?imageView2/0/h/96/w/96
http://7xl17c.com2.z0.glb.qiniucdn.com/2015-09-14_55f6ce81b60cc.jpg?imageView2/0/h/96/w/96
http://7xl17c.com2.z0.glb.qiniucdn.com/2015-10-19_5624ab3c724ef.jpg?imageView2/0/h/96/w/96
http://sjtu.yousi.com/Public/upload/teacherPhoto/2015-01-21/54bf3ba0a9dd7.JPG?imageView2/0/h/96/w/96
http://sjtu.yousi.com/Public/upload/teacherPhoto/2015-04-24/5539d00d71df2.JPG?imageView2/0/h/96/w/96
http://sjtu.yousi.com/Public/upload/teacherPhoto/2015-03-23/550ff50e0f491.jpg?imageView2/0/h/96/w/96
http://7xl17c.com2.z0.glb.qiniucdn.com/2015-09-08_55ee7b7bbdb25.jpg?imageView2/0/h/96/w/96
http://7xl17c.com2.z0.glb.qiniucdn.com/2015-09-23_5601e11700a2d.jpg?imageView2/0/h/96/w/96
http://7xl17c.com2.z0.glb.qiniucdn.com/2015-11-15_5648917d3f0d7.jpg?imageView2/0/h/96/w/96
http://sjtu.yousi.com/Public/upload/photo/2015-07-24/55b1ee7a732aa.jpg?imageView2/0/h/96/w/96
http://ecust.yousi.com/Public/upload/photo/2015-06-23/558946c4a84e3.jpg?imageView2/0/h/96/w/96
http://sjtu.yousi.com/Public/upload/teacherPhoto/2015-04-14/552d02b8bd46c.jpg?imageView2/0/h/96/w/96
http://7xl17c.com2.z0.glb.qiniucdn.com/2015-09-09_55efedde729a9.jpg?imageView2/0/h/96/w/96
http://www.yousi.com/Public/upload/photo/2015-08-04/55c0bf8c928aa.jpg?imageView2/0/h/96/w/96
http://7xl17c.com2.z0.glb.qiniucdn.com/2015-09-08_55ee918a84262.jpg?imageView2/0/h/96/w/96
http://7xl17c.com2.z0.glb.qiniucdn.com/2015-09-08_55ee64b51f6ac.jpg?imageView2/0/h/96/w/96
http://7xl17c.com2.z0.glb.qiniucdn.com/2015-09-08_55ee574a5c6e1.jpg?imageView2/0/h/96/w/96
http://www.yousi.com/Public/upload/photo/2015-06-23/55891d14ecc7d.png?imageView2/0/h/96/w/96
http://sjtu.yousi.com/Public/upload/photo/2015-07-24/55b2068ec25b4.jpg?imageView2/0/h/96/w/96
http://7xl17c.com2.z0.glb.qiniucdn.com/2015-10-09_5617448fd7e0b.jpg?imageView2/0/h/96/w/96
http://7xl17c.com2.z0.glb.qiniucdn.com/2015-11-23_56528c313fbbb.jpg?imageView2/0/h/96/w/96
http://7xl17c.com2.z0.glb.qiniucdn.com/2015-09-21_55ff9c1779a56.jpg?imageView2/0/h/96/w/96
http://7xl17c.com2.z0.glb.qiniucdn.com/2015-10-02_560e5c567b4dd.JPG?imageView2/0/h/96/w/96
http://7xl17c.com2.z0.glb.qiniucdn.com/2015-10-25_562c1e1b05a72.jpg?imageView2/0/h/96/w/96
http://www.yousi.com/Public/upload/photo/2015-07-28/55b76b158eb96.jpg?imageView2/0/h/96/w/96
http://7xl17c.com2.z0.glb.qiniucdn.com/2015-09-19_55fd725545457.jpg?imageView2/0/h/96/w/96
http://7xl17c.com2.z0.glb.qiniucdn.com/2015-09-14_55f6dab6a496a.jpg?imageView2/0/h/96/w/96
http://www.yousi.com/Public/upload/photo/2015-07-27/55b59e2498a43.JPG?imageView2/0/h/96/w/96
http://ecust.yousi.com/Public/upload/photo/2015-07-07/559bc553b182b.jpg?imageView2/0/h/96/w/96
http://yousi.com/Public/upload/photo/2015-06-08/55759c795751c.jpg?imageView2/0/h/96/w/96
http://7xl17c.com2.z0.glb.qiniucdn.com/2015-09-21_56002037309ba.jpg?imageView2/0/h/96/w/96
http://www.yousi.com/Public/upload/photo/2015-08-22/55d88e125d37d.jpg?imageView2/0/h/96/w/96
http://www.yousi.com/Public/upload/photo/2015-06-22/5587b33472ae8.jpg?imageView2/0/h/96/w/96
http://sjtu.yousi.com/Public/upload/photo/2015-07-27/55b6080c6e4d3.jpg?imageView2/0/h/96/w/96
http://7xl17c.com2.z0.glb.qiniucdn.com/2015-09-16_55f910af95dee.jpg?imageView2/0/h/96/w/96
http://sjtu.yousi.com/Public/upload/teacherPhoto/2015-02-28/54f11d8533141.jpg?imageView2/0/h/96/w/96
http://7xl17c.com2.z0.glb.qiniucdn.com/2015-10-19_5623cd7f3d9b6.jpg?imageView2/0/h/96/w/96
http://sjtu.yousi.com/Public/upload/teacherPhoto/2015-04-16/552f85a674b2b.jpg?imageView2/0/h/96/w/96
http://7xl17c.com2.z0.glb.qiniucdn.com/2015-10-16_562068333b554.jpg?imageView2/0/h/96/w/96
http://www.yousi.com/Public/upload/photo/2015-06-27/558e81045c123.jpg?imageView2/0/h/96/w/96
http://sjtu.yousi.com/Public/upload/teacherPhoto/2015-04-25/553b04b874e82.png?imageView2/0/h/96/w/96
http://7xl17c.com2.z0.glb.qiniucdn.com/2015-11-21_5650160415a50.jpg?imageView2/0/h/96/w/96
http://7xl17c.com2.z0.glb.qiniucdn.com/2015-09-11_55f22566e7170.jpg?imageView2/0/h/96/w/96
http://7xl17c.com2.z0.glb.qiniucdn.com/2015-09-24_56038a25afeb4.jpg?imageView2/0/h/96/w/96
http://sjtu.yousi.com/Public/upload/teacherPhoto/2015-03-29/5517bce8a1ef2.JPG?imageView2/0/h/96/w/96
http://sjtu.yousi.com/Public/upload/teacherPhoto/2015-05-09/554d8ee87c99d.png?imageView2/0/h/96/w/96
http://7xl17c.com2.z0.glb.qiniucdn.com/2015-09-09_55efc34f357ac.jpg?imageView2/0/h/96/w/96
http://www.yousi.com/Public/upload/photo/2015-06-29/5590c6df79b65.jpg?imageView2/0/h/96/w/96
http://7xl17c.com2.z0.glb.qiniucdn.com/2015-09-08_55eed49fbd9c4.JPG?imageView2/0/h/96/w/96
http://www.yousi.com/Public/upload/photo/2015-07-05/5599458612d21.jpg?imageView2/0/h/96/w/96
http://7xl17c.com2.z0.glb.qiniucdn.com/2015-09-15_55f7be7d437f7.jpg?imageView2/0/h/96/w/96
http://yousi.com/Public/upload/photo/2015-06-08/55757c88702c8.jpg?imageView2/0/h/96/w/96
http://www.yousi.com/Public/upload/photo/2015-07-15/55a600318eed3.JPG?imageView2/0/h/96/w/96
http://www.yousi.com/Public/upload/photo/2015-07-19/55ab5cf8d8a71.jpg?imageView2/0/h/96/w/96
http://yousi.com/Public/upload/photo/2015-06-09/5576a6eb52202.jpg?imageView2/0/h/96/w/96
http://ecust.yousi.com/Public/upload/photo/2015-06-22/5587c2ade5b56.jpg?imageView2/0/h/96/w/96
http://7xl17c.com2.z0.glb.qiniucdn.com/2015-09-14_55f6bd4c96bfe.jpg?imageView2/0/h/96/w/96
http://7xl17c.com2.z0.glb.qiniucdn.com/2015-09-30_560bfd4fd2914.jpg?imageView2/0/h/96/w/96
http://7xl17c.com2.z0.glb.qiniucdn.com/2015-09-06_55ebfcc11fa8c.jpg?imageView2/0/h/96/w/96
http://7xl17c.com2.z0.glb.qiniucdn.com/2015-10-13_561c8dd953d03.png?imageView2/0/h/96/w/96
http://7xl17c.com2.z0.glb.qiniucdn.com/2015-09-10_55f128f9ce5d5.jpg?imageView2/0/h/96/w/96
http://sjtu.yousi.com/Public/upload/photo/2015-06-22/5587e18359c9a.jpg?imageView2/0/h/96/w/96
http://7xl17c.com2.z0.glb.qiniucdn.com/2015-10-21_5627814792189.jpg?imageView2/0/h/96/w/96
http://7xl17c.com2.z0.glb.qiniucdn.com/2015-10-13_561c95d23fdd0.jpg?imageView2/0/h/96/w/96
http://7xl17c.com2.z0.glb.qiniucdn.com/2015-10-09_5617be2a71f7b.jpg?imageView2/0/h/96/w/96
http://7xl17c.com2.z0.glb.qiniucdn.com/2015-10-09_56173d1eb1fa6.jpg?imageView2/0/h/96/w/96
http://7xl17c.com2.z0.glb.qiniucdn.com/2015-09-09_55ef820be8450.png?imageView2/0/h/96/w/96
http://7xl17c.com2.z0.glb.qiniucdn.com/2015-10-09_561778b0833a4.jpg?imageView2/0/h/96/w/96
http://7xl17c.com2.z0.glb.qiniucdn.com/2015-09-26_5606952223a39.jpg?imageView2/0/h/96/w/96
http://www.yousi.com/Public/upload/photo/2015-07-12/55a254fe2a5bd.jpg?imageView2/0/h/96/w/96
http://7xl17c.com2.z0.glb.qiniucdn.com/2015-09-08_55eec7dd47a38.jpg?imageView2/0/h/96/w/96
http://7xl17c.com2.z0.glb.qiniucdn.com/2015-11-13_5645bc5ae7986.jpg?imageView2/0/h/96/w/96
http://sjtu.yousi.com/Public/upload/teacherPhoto/2015-04-06/5521fb746b3c3.jpg?imageView2/0/h/96/w/96
http://7xl17c.com2.z0.glb.qiniucdn.com/2015-09-24_5604061742a86.jpg?imageView2/0/h/96/w/96
http://7xl17c.com2.z0.glb.qiniucdn.com/2015-10-09_5617492a5e348.jpg?imageView2/0/h/96/w/96
http://7xl17c.com2.z0.glb.qiniucdn.com/2015-10-16_5620e2bcc210a.jpg?imageView2/0/h/96/w/96
http://7xl17c.com2.z0.glb.qiniucdn.com/2015-09-24_5603e15b5bffd.jpg?imageView2/0/h/96/w/96
http://7xl17c.com2.z0.glb.qiniucdn.com/2015-10-19_5624b87f853c8.jpeg?imageView2/0/h/96/w/96
http://7xl17c.com2.z0.glb.qiniucdn.com/2015-10-12_561bc3e5836a9.jpg?imageView2/0/h/96/w/96
http://www.yousi.com/Public/upload/photo/2015-06-30/55927c96866a4.JPG?imageView2/0/h/96/w/96
http://7xl17c.com2.z0.glb.qiniucdn.com/2015-09-16_55f96ca6d8328.JPG?imageView2/0/h/96/w/96
http://7xl17c.com2.z0.glb.qiniucdn.com/2015-09-23_5602a8d76a5ad.jpg?imageView2/0/h/96/w/96
http://7xl17c.com2.z0.glb.qiniucdn.com/2015-09-25_560504fc91152.jpg?imageView2/0/h/96/w/96
http://7xl17c.com2.z0.glb.qiniucdn.com/2015-10-04_5611100956820.jpg?imageView2/0/h/96/w/96
http://7xl17c.com2.z0.glb.qiniucdn.com/2015-10-15_561efc4aaad45.jpg?imageView2/0/h/96/w/96
http://7xl17c.com2.z0.glb.qiniucdn.com/2015-10-05_561274bc5d42a.jpg?imageView2/0/h/96/w/96
http://7xl17c.com2.z0.glb.qiniucdn.com/2015-10-26_562db06d2c9c0.jpg?imageView2/0/h/96/w/96
http://ecust.yousi.com/Public/upload/photo/2015-06-26/558d5cf5417be.JPG?imageView2/0/h/96/w/96
http://7xl17c.com2.z0.glb.qiniucdn.com/2015-10-09_56178e767246d.jpg?imageView2/0/h/96/w/96
http://7xl17c.com2.z0.glb.qiniucdn.com/2015-10-10_5618f7b3b4f54.png?imageView2/0/h/96/w/96
http://7xl17c.com2.z0.glb.qiniucdn.com/2015-09-20_55feab3c8dfea.jpg?imageView2/0/h/96/w/96
http://7xl17c.com2.z0.glb.qiniucdn.com/2015-10-08_56165dd7c9fc8.jpg?imageView2/0/h/96/w/96
http://7xl17c.com2.z0.glb.qiniucdn.com/2015-09-24_5603b49ccbc2d.jpg?imageView2/0/h/96/w/96
http://7xl17c.com2.z0.glb.qiniucdn.com/2015-09-28_560944871d0ab.png?imageView2/0/h/96/w/96
http://7xl17c.com2.z0.glb.qiniucdn.com/2015-11-18_564bc2628e2e5.jpg?imageView2/0/h/96/w/96
http://7xl17c.com2.z0.glb.qiniucdn.com/2015-10-08_5615bdefc49e3.jpg?imageView2/0/h/96/w/96
http://7xl17c.com2.z0.glb.qiniucdn.com/2015-10-15_561fbb13dd497.jpg?imageView2/0/h/96/w/96
http://7xl17c.com2.z0.glb.qiniucdn.com/2015-09-21_55ffdc0cc2b07.jpg?imageView2/0/h/96/w/96
http://7xl17c.com2.z0.glb.qiniucdn.com/2015-10-20_562584e073434.jpg?imageView2/0/h/96/w/96
http://7xl17c.com2.z0.glb.qiniucdn.com/2015-10-31_5634b916c7785.jpg?imageView2/0/h/96/w/96
http://7xl17c.com2.z0.glb.qiniucdn.com/2015-10-09_5617846aedf14.jpg?imageView2/0/h/96/w/96
http://sjtu.yousi.com/Public/upload/teacherPhoto/2015-04-30/554240fb8bfd4.jpg?imageView2/0/h/96/w/96
http://7xl17c.com2.z0.glb.qiniucdn.com/2015-10-04_56111f07cb86b.jpg?imageView2/0/h/96/w/96
http://7xl17c.com2.z0.glb.qiniucdn.com/2015-09-22_5601381d2ffd1.jpg?imageView2/0/h/96/w/96
http://7xl17c.com2.z0.glb.qiniucdn.com/2015-10-11_561a63b111634.jpg?imageView2/0/h/96/w/96
http://7xl17c.com2.z0.glb.qiniucdn.com/2015-11-13_564542844ee4a.png?imageView2/0/h/96/w/96
http://7xl17c.com2.z0.glb.qiniucdn.com/2015-10-11_561a40726ad3b.png?imageView2/0/h/96/w/96
http://sjtu.yousi.com/Public/upload/photo/2015-07-05/559895f301e1f.png?imageView2/0/h/96/w/96
http://7xl17c.com2.z0.glb.qiniucdn.com/2015-10-06_5613b35178b4f.JPG?imageView2/0/h/96/w/96
http://7xl17c.com2.z0.glb.qiniucdn.com/2015-10-19_5624669f46c74.jpg?imageView2/0/h/96/w/96
http://7xl17c.com2.z0.glb.qiniucdn.com/2015-10-22_56284ef6957ef.png?imageView2/0/h/96/w/96
http://7xl17c.com2.z0.glb.qiniucdn.com/2015-11-21_564fb745b9248.jpg?imageView2/0/h/96/w/96
http://7xl17c.com2.z0.glb.qiniucdn.com/2015-09-17_55fa1bafe4c73.jpg?imageView2/0/h/96/w/96
http://sjtu.yousi.com/Public/upload/photo/2015-07-06/559a0b6b087fb.jpg?imageView2/0/h/96/w/96
http://7xl17c.com2.z0.glb.qiniucdn.com/2015-11-16_56497553b7e62.jpg?imageView2/0/h/96/w/96
http://7xl17c.com2.z0.glb.qiniucdn.com/2015-10-21_562719482581c.jpg?imageView2/0/h/96/w/96
http://7xl17c.com2.z0.glb.qiniucdn.com/2015-10-13_561cf0d7724ec.jpg?imageView2/0/h/96/w/96
http://7xl17c.com2.z0.glb.qiniucdn.com/2015-10-18_562317b24e680.png?imageView2/0/h/96/w/96
http://7xl17c.com2.z0.glb.qiniucdn.com/2015-10-21_56279a9dc8f9a.jpg?imageView2/0/h/96/w/96
http://7xl17c.com2.z0.glb.qiniucdn.com/2015-11-11_5642b3ca22e8b.jpg?imageView2/0/h/96/w/96
http://7xl17c.com2.z0.glb.qiniucdn.com/2015-10-18_562399959633f.png?imageView2/0/h/96/w/96
http://www.yousi.com/Public/upload/photo/2015-08-01/55bca92bd6146.jpg?imageView2/0/h/96/w/96
http://7xl17c.com2.z0.glb.qiniucdn.com/2015-10-23_5629d11cc0886.jpg?imageView2/0/h/96/w/96
http://7xl17c.com2.z0.glb.qiniucdn.com/2015-10-13_561cee5cd88e0.jpg?imageView2/0/h/96/w/96
http://7xl17c.com2.z0.glb.qiniucdn.com/2015-10-01_560cd584b4e99.png?imageView2/0/h/96/w/96
http://7xl17c.com2.z0.glb.qiniucdn.com/2015-11-15_5648ab4856f47.jpg?imageView2/0/h/96/w/96
http://sjtu.yousi.com/Public/upload/teacherPhoto/2015-05-03/55461ac1c91c4.jpg?imageView2/0/h/96/w/96
http://7xl17c.com2.z0.glb.qiniucdn.com/2015-09-21_55ff5577d09d4.jpg?imageView2/0/h/96/w/96
http://7xl17c.com2.z0.glb.qiniucdn.com/2015-10-18_56234f63c2567.jpg?imageView2/0/h/96/w/96
http://7xl17c.com2.z0.glb.qiniucdn.com/2015-10-13_561d0faa32a64.jpg?imageView2/0/h/96/w/96
http://7xl17c.com2.z0.glb.qiniucdn.com/2015-09-25_5604fdad9c41d.jpg?imageView2/0/h/96/w/96
http://7xl17c.com2.z0.glb.qiniucdn.com/2015-10-16_5620eb793938d.jpg?imageView2/0/h/96/w/96
http://7xl17c.com2.z0.glb.qiniucdn.com/2015-11-15_56480808120f4.jpg?imageView2/0/h/96/w/96
http://ecust.yousi.com/Public/upload/photo/2015-06-18/5582659fe7e90.png?imageView2/0/h/96/w/96
http://7xl17c.com2.z0.glb.qiniucdn.com/2015-09-04_55e9391de73c6.jpg?imageView2/0/h/96/w/96
http://7xl17c.com2.z0.glb.qiniucdn.com/2015-09-06_55eb70d1488c2.jpg?imageView2/0/h/96/w/96
http://7xl17c.com2.z0.glb.qiniucdn.com/2015-08-31_55e40aae6ef1d.jpg?imageView2/0/h/96/w/96
http://7xl17c.com2.z0.glb.qiniucdn.com/2015-11-21_5650384f8d011.jpg?imageView2/0/h/96/w/96
http://7xl17c.com2.z0.glb.qiniucdn.com/2015-10-12_561bc889539da.jpg?imageView2/0/h/96/w/96
http://7xl17c.com2.z0.glb.qiniucdn.com/2015-10-18_5623b117309ec.jpg?imageView2/0/h/96/w/96
http://7xl17c.com2.z0.glb.qiniucdn.com/2015-10-12_561bb62074c7a.jpg?imageView2/0/h/96/w/96
http://7xl17c.com2.z0.glb.qiniucdn.com/2015-10-01_560c8fec24469.JPG?imageView2/0/h/96/w/96
http://7xl17c.com2.z0.glb.qiniucdn.com/2015-11-07_563d9508e2a50.jpg?imageView2/0/h/96/w/96
http://7xl17c.com2.z0.glb.qiniucdn.com/2015-10-11_5619be328a4c0.jpg?imageView2/0/h/96/w/96
http://7xl17c.com2.z0.glb.qiniucdn.com/2015-09-14_55f6cd01a2496.jpg?imageView2/0/h/96/w/96
http://www.yousi.com/Public/upload/photo/2015-06-24/558a8a36c4af0.jpg?imageView2/0/h/96/w/96
http://7xl17c.com2.z0.glb.qiniucdn.com/2015-10-19_5624dffa200b0.jpg?imageView2/0/h/96/w/96
http://7xl17c.com2.z0.glb.qiniucdn.com/2015-10-14_561e547be3c8c.jpg?imageView2/0/h/96/w/96
http://7xl17c.com2.z0.glb.qiniucdn.com/2015-09-09_55f035c4d4da2.jpg?imageView2/0/h/96/w/96
http://sjtu.yousi.com/Public/upload/teacherPhoto/2015-04-08/5524ba197cf2b.jpg?imageView2/0/h/96/w/96
http://7xl17c.com2.z0.glb.qiniucdn.com/2015-09-28_56090388c3cc2.jpg?imageView2/0/h/96/w/96
http://7xl17c.com2.z0.glb.qiniucdn.com/2015-10-19_56250386a882e.jpg?imageView2/0/h/96/w/96
http://7xl17c.com2.z0.glb.qiniucdn.com/2015-09-28_5608fdb01ad52.jpg?imageView2/0/h/96/w/96
http://7xl17c.com2.z0.glb.qiniucdn.com/2015-10-30_563370080834e.jpg?imageView2/0/h/96/w/96
http://7xl17c.com2.z0.glb.qiniucdn.com/2015-09-10_55f18f8ac09b5.jpg?imageView2/0/h/96/w/96
http://7xl17c.com2.z0.glb.qiniucdn.com/2015-10-09_5617a9629eedd.jpg?imageView2/0/h/96/w/96
http://7xl17c.com2.z0.glb.qiniucdn.com/2015-11-20_564f266173d0f.jpg?imageView2/0/h/96/w/96
http://7xl17c.com2.z0.glb.qiniucdn.com/2015-10-18_56230181818cc.png?imageView2/0/h/96/w/96
http://7xl17c.com2.z0.glb.qiniucdn.com/2015-10-17_562261b92cf25.JPG?imageView2/0/h/96/w/96
http://7xl17c.com2.z0.glb.qiniucdn.com/2015-10-09_56178276cfa12.jpg?imageView2/0/h/96/w/96
http://7xl17c.com2.z0.glb.qiniucdn.com/2015-09-10_55f18beb148b1.png?imageView2/0/h/96/w/96
http://www.yousi.com/Public/upload/photo/2015-08-13/55cbfc8e4e84e.jpg?imageView2/0/h/96/w/96
http://7xl17c.com2.z0.glb.qiniucdn.com/2015-10-16_5620c342081e4.JPG?imageView2/0/h/96/w/96
http://7xl17c.com2.z0.glb.qiniucdn.com/2015-09-25_56055b81bb5bc.jpg?imageView2/0/h/96/w/96
http://ecust.yousi.com/Public/upload/photo/2015-06-20/55857af8ad22b.jpg?imageView2/0/h/96/w/96
http://7xl17c.com2.z0.glb.qiniucdn.com/2015-09-22_56012fbcdd0a2.jpg?imageView2/0/h/96/w/96
http://7xl17c.com2.z0.glb.qiniucdn.com/2015-10-09_5616a95718c3d.jpg?imageView2/0/h/96/w/96
http://7xl17c.com2.z0.glb.qiniucdn.com/2015-10-10_5618df14704da.png?imageView2/0/h/96/w/96
http://7xl17c.com2.z0.glb.qiniucdn.com/2015-09-06_55eb8c0a64629.jpg?imageView2/0/h/96/w/96
http://7xl17c.com2.z0.glb.qiniucdn.com/2015-09-17_55fa7c4b28fee.jpg?imageView2/0/h/96/w/96
http://www.yousi.com/Public/upload/teacherPhoto/2015-07-30/55b9a02fcbc1e.jpg?imageView2/0/h/96/w/96
http://ecust.yousi.com/Public/upload/photo/2015-07-08/559ce47ad399c.jpg?imageView2/0/h/96/w/96
http://sjtu.yousi.com/Public/upload/teacherPhoto/2015-03-18/550956b4b9b95.png?imageView2/0/h/96/w/96
http://7xl17c.com2.z0.glb.qiniucdn.com/2015-10-17_5621b240a263d.jpg?imageView2/0/h/96/w/96
http://www.yousi.com/Public/upload/photo/2015-07-06/559a4a6994917.JPG?imageView2/0/h/96/w/96
http://7xl17c.com2.z0.glb.qiniucdn.com/2015-09-09_55f0139a13a0b.png?imageView2/0/h/96/w/96
http://7xl17c.com2.z0.glb.qiniucdn.com/2015-09-22_56011a214d86a.jpg?imageView2/0/h/96/w/96
http://sjtu.yousi.com/Public/upload/photo/2015-07-02/5594f506c28b0.JPG?imageView2/0/h/96/w/96
http://sjtu.yousi.com/Public/upload/photo/2015-07-04/55972fda86c63.JPG?imageView2/0/h/96/w/96
http://7xl17c.com2.z0.glb.qiniucdn.com/2015-09-21_560014408e503.jpg?imageView2/0/h/96/w/96
http://7xl17c.com2.z0.glb.qiniucdn.com/2015-09-14_55f6a3b02ed0e.jpg?imageView2/0/h/96/w/96
http://sjtu.yousi.com/Public/upload/teacherPhoto/2015-03-14/55041fa0f08bc.jpg?imageView2/0/h/96/w/96
http://7xl17c.com2.z0.glb.qiniucdn.com/2015-09-20_55fd965c70651.jpg?imageView2/0/h/96/w/96
http://ecust.yousi.com/Public/upload/photo/2015-06-26/558d3ad1d327a.png?imageView2/0/h/96/w/96
http://www.yousi.com/Public/upload/photo/2015-07-02/559515d9438e8.jpg?imageView2/0/h/96/w/96
http://7xl17c.com2.z0.glb.qiniucdn.com/2015-10-20_5626237ad910f.jpg?imageView2/0/h/96/w/96
http://7xl17c.com2.z0.glb.qiniucdn.com/2015-10-17_5621bfe469fe8.jpg?imageView2/0/h/96/w/96
http://7xl17c.com2.z0.glb.qiniucdn.com/2015-09-08_55eeb9f35a1f9.JPG?imageView2/0/h/96/w/96
http://7xl17c.com2.z0.glb.qiniucdn.com/2015-11-01_56360381d38e8.jpg?imageView2/0/h/96/w/96
http://7xl17c.com2.z0.glb.qiniucdn.com/2015-10-17_56223516cbba0.jpg?imageView2/0/h/96/w/96
http://7xl17c.com2.z0.glb.qiniucdn.com/2015-09-13_55f582bcb3dae.jpg?imageView2/0/h/96/w/96
http://7xl17c.com2.z0.glb.qiniucdn.com/2015-09-21_55ff5f1197e0b.jpg?imageView2/0/h/96/w/96
http://7xl17c.com2.z0.glb.qiniucdn.com/2015-09-13_55f4f57ecc2d6.JPG?imageView2/0/h/96/w/96
http://7xl17c.com2.z0.glb.qiniucdn.com/2015-09-29_5609ef813e6ad.jpg?imageView2/0/h/96/w/96
http://7xl17c.com2.z0.glb.qiniucdn.com/2015-10-24_562b283805c53.jpg?imageView2/0/h/96/w/96
http://7xl17c.com2.z0.glb.qiniucdn.com/2015-10-15_561f9a0d9b375.jpg?imageView2/0/h/96/w/96
http://7xl17c.com2.z0.glb.qiniucdn.com/2015-09-30_560bd8861ff0d.jpg?imageView2/0/h/96/w/96
http://7xl17c.com2.z0.glb.qiniucdn.com/2015-09-07_55ed28c9963b6.jpg?imageView2/0/h/96/w/96
http://yousi.com/Public/upload/photo/2015-08-24/55db1f5c00d4c.jpg?imageView2/0/h/96/w/96
http://7xl17c.com2.z0.glb.qiniucdn.com/2015-09-09_55efd7ef426c6.jpg?imageView2/0/h/96/w/96
http://7xl17c.com2.z0.glb.qiniucdn.com/2015-10-13_561d22fd8b803.png?imageView2/0/h/96/w/96
http://7xl17c.com2.z0.glb.qiniucdn.com/2015-09-23_5602ba85ca987.JPG?imageView2/0/h/96/w/96
http://7xl17c.com2.z0.glb.qiniucdn.com/2015-10-17_56225183ea35c.jpg?imageView2/0/h/96/w/96
http://7xl17c.com2.z0.glb.qiniucdn.com/2015-10-19_5624daa1c14db.jpg?imageView2/0/h/96/w/96
http://7xl17c.com2.z0.glb.qiniucdn.com/2015-10-07_5614d45ca7b22.jpg?imageView2/0/h/96/w/96
http://www.yousi.com/Public/upload/photo/2015-07-06/559a653d989cb.jpg?imageView2/0/h/96/w/96
http://www.yousi.com/Public/upload/photo/2015-08-07/55c4bc9e23785.JPG?imageView2/0/h/96/w/96
http://7xl17c.com2.z0.glb.qiniucdn.com/2015-10-06_5613a7b47e59d.jpg?imageView2/0/h/96/w/96
http://7xl17c.com2.z0.glb.qiniucdn.com/2015-10-08_5616109fc47ea.jpg?imageView2/0/h/96/w/96
http://7xl17c.com2.z0.glb.qiniucdn.com/2015-11-01_5636229be1d2c.jpg?imageView2/0/h/96/w/96
http://7xl17c.com2.z0.glb.qiniucdn.com/2015-09-23_56024809c0bb3.jpg?imageView2/0/h/96/w/96
http://7xl17c.com2.z0.glb.qiniucdn.com/2015-10-23_5629f297d6d97.jpg?imageView2/0/h/96/w/96
http://ecust.yousi.com/Public/upload/photo/2015-07-19/55abbf7e55e16.jpg?imageView2/0/h/96/w/96
http://7xl17c.com2.z0.glb.qiniucdn.com/2015-10-03_560f8b96338ae.jpg?imageView2/0/h/96/w/96
http://7xl17c.com2.z0.glb.qiniucdn.com/2015-10-18_56231852017ed.jpg?imageView2/0/h/96/w/96
http://7xl17c.com2.z0.glb.qiniucdn.com/2015-10-09_5617b8643f17a.JPG?imageView2/0/h/96/w/96
http://7xl17c.com2.z0.glb.qiniucdn.com/2015-09-01_55e553a682dbf.png?imageView2/0/h/96/w/96
http://7xl17c.com2.z0.glb.qiniucdn.com/2015-11-02_5637399d16bd4.jpg?imageView2/0/h/96/w/96
http://7xl17c.com2.z0.glb.qiniucdn.com/2015-09-17_55fa2f1289b40.jpg?imageView2/0/h/96/w/96
http://7xl17c.com2.z0.glb.qiniucdn.com/2015-09-13_55f50e59244d2.jpg?imageView2/0/h/96/w/96
http://www.yousi.com/Public/upload/photo/2015-07-05/55992f7943066.PNG?imageView2/0/h/96/w/96
http://7xl17c.com2.z0.glb.qiniucdn.com/2015-11-03_56383b4d28ed6.jpg?imageView2/0/h/96/w/96
http://7xl17c.com2.z0.glb.qiniucdn.com/2015-11-02_5637082c7402b.png?imageView2/0/h/96/w/96
http://7xl17c.com2.z0.glb.qiniucdn.com/2015-10-19_562500892cc87.JPG?imageView2/0/h/96/w/96
http://www.yousi.com/Public/upload/photo/2015-08-21/55d6d4bb4706c.jpg?imageView2/0/h/96/w/96
http://7xl17c.com2.z0.glb.qiniucdn.com/2015-10-27_562f8596acf55.jpg?imageView2/0/h/96/w/96
http://www.yousi.com/Public/upload/photo/2015-07-08/559cad354b720.jpg?imageView2/0/h/96/w/96
http://ecust.yousi.com/Public/upload/photo/2015-07-23/55b0bde0db790.jpg?imageView2/0/h/96/w/96
http://7xl17c.com2.z0.glb.qiniucdn.com/2015-11-23_56528104381f9.jpg?imageView2/0/h/96/w/96
http://7xl17c.com2.z0.glb.qiniucdn.com/2015-11-04_5639ac3615d0e.jpg?imageView2/0/h/96/w/96
http://7xl17c.com2.z0.glb.qiniucdn.com/2015-10-31_563437b5db484.jpg?imageView2/0/h/96/w/96
http://7xl17c.com2.z0.glb.qiniucdn.com/2015-11-05_563b633b9c87f.jpg?imageView2/0/h/96/w/96
http://7xl17c.com2.z0.glb.qiniucdn.com/2015-11-02_56363de69285c.jpg?imageView2/0/h/96/w/96
http://7xl17c.com2.z0.glb.qiniucdn.com/2015-09-23_5601f9186ecee.jpg?imageView2/0/h/96/w/96
http://ecust.yousi.com/Public/upload/photo/2015-06-23/5589802380d66.jpg?imageView2/0/h/96/w/96
http://www.yousi.com/Public/upload/photo/2015-08-01/55bccd8b73078.jpg?imageView2/0/h/96/w/96
http://7xl17c.com2.z0.glb.qiniucdn.com/2015-10-27_562f18444b687.jpg?imageView2/0/h/96/w/96
http://ecust.yousi.com/Public/upload/photo/2015-06-24/558a68c582fb2.jpg?imageView2/0/h/96/w/96
http://7xl17c.com2.z0.glb.qiniucdn.com/2015-10-31_56339fab08a1d.jpg?imageView2/0/h/96/w/96
http://7xl17c.com2.z0.glb.qiniucdn.com/2015-10-17_5621c636ed1bd.png?imageView2/0/h/96/w/96
http://7xl17c.com2.z0.glb.qiniucdn.com/2015-10-16_5620daa58e98f.jpg?imageView2/0/h/96/w/96
http://7xl17c.com2.z0.glb.qiniucdn.com/2015-10-17_562262b3d09cc.JPG?imageView2/0/h/96/w/96
http://7xl17c.com2.z0.glb.qiniucdn.com/2015-10-20_5626268dccc56.jpg?imageView2/0/h/96/w/96
http://7xl17c.com2.z0.glb.qiniucdn.com/2015-10-14_561dfe18114ec.jpg?imageView2/0/h/96/w/96
http://7xl17c.com2.z0.glb.qiniucdn.com/2015-11-01_563623b08cf1e.jpg?imageView2/0/h/96/w/96
http://7xl17c.com2.z0.glb.qiniucdn.com/2015-10-02_560e2f56c75c0.jpg?imageView2/0/h/96/w/96
http://7xl17c.com2.z0.glb.qiniucdn.com/2015-10-21_562739de14bea.jpg?imageView2/0/h/96/w/96
http://7xl17c.com2.z0.glb.qiniucdn.com/2015-10-27_562f01ab4d45d.jpg?imageView2/0/h/96/w/96
http://7xl17c.com2.z0.glb.qiniucdn.com/2015-09-22_56015823b6bac.jpg?imageView2/0/h/96/w/96
http://7xl17c.com2.z0.glb.qiniucdn.com/2015-10-31_5634d425f1325.jpg?imageView2/0/h/96/w/96
http://www.yousi.com/Public/upload/photo/2015-07-11/55a0e1a3c1193.png?imageView2/0/h/96/w/96
http://7xl17c.com2.z0.glb.qiniucdn.com/2015-10-25_562c64dc5e135.jpg?imageView2/0/h/96/w/96
http://sjtu.yousi.com/Public/upload/teacherPhoto/2015-02-02/54cf166ecf68e.JPG?imageView2/0/h/96/w/96
http://7xl17c.com2.z0.glb.qiniucdn.com/2015-10-10_5618f41b8c040.jpg?imageView2/0/h/96/w/96
http://www.yousi.com/Public/upload/photo/2015-06-25/558bd3daf1a79.jpg?imageView2/0/h/96/w/96
http://ecust.yousi.com/Public/upload/photo/2015-06-18/558290d2a19da.jpg?imageView2/0/h/96/w/96
http://7xl17c.com2.z0.glb.qiniucdn.com/2015-11-02_5637750c19dd7.jpg?imageView2/0/h/96/w/96
http://7xl17c.com2.z0.glb.qiniucdn.com/2015-10-08_561609d7df01b.jpg?imageView2/0/h/96/w/96
http://7xl17c.com2.z0.glb.qiniucdn.com/2015-10-25_562c4ba1dcdb9.jpg?imageView2/0/h/96/w/96
http://7xl17c.com2.z0.glb.qiniucdn.com/2015-09-12_55f38d7192f4d.jpg?imageView2/0/h/96/w/96
http://7xl17c.com2.z0.glb.qiniucdn.com/2015-10-04_56107cab171b3.jpg?imageView2/0/h/96/w/96
http://7xl17c.com2.z0.glb.qiniucdn.com/2015-09-24_5603d7a24d29c.jpg?imageView2/0/h/96/w/96
http://ecust.yousi.com/Public/upload/photo/2015-06-22/55879219574a0.jpg?imageView2/0/h/96/w/96
http://www.yousi.com/Public/upload/photo/2015-07-10/559fb72569b80.jpg?imageView2/0/h/96/w/96
http://7xl17c.com2.z0.glb.qiniucdn.com/2015-10-30_5632dac01c595.jpg?imageView2/0/h/96/w/96
http://7xl17c.com2.z0.glb.qiniucdn.com/2015-11-09_56402e1278eba.jpg?imageView2/0/h/96/w/96
http://7xl17c.com2.z0.glb.qiniucdn.com/2015-11-07_563d821468e96.jpg?imageView2/0/h/96/w/96
http://7xl17c.com2.z0.glb.qiniucdn.com/2015-09-24_5603f4c3cdee6.jpg?imageView2/0/h/96/w/96
http://7xl17c.com2.z0.glb.qiniucdn.com/2015-09-28_560930b111823.jpg?imageView2/0/h/96/w/96
http://7xl17c.com2.z0.glb.qiniucdn.com/2015-09-07_55ed7ea2364a2.jpg?imageView2/0/h/96/w/96
http://ecust.yousi.com/Public/upload/photo/2015-06-19/5584172c58779.JPG?imageView2/0/h/96/w/96
http://7xl17c.com2.z0.glb.qiniucdn.com/2015-10-13_561cc80812666.jpg?imageView2/0/h/96/w/96
http://7xl17c.com2.z0.glb.qiniucdn.com/2015-09-21_55ffa5d5e332f.jpg?imageView2/0/h/96/w/96
http://7xl17c.com2.z0.glb.qiniucdn.com/2015-10-09_561771a6a15ae.jpg?imageView2/0/h/96/w/96
http://7xl17c.com2.z0.glb.qiniucdn.com/2015-10-21_5627625daaa53.jpg?imageView2/0/h/96/w/96
http://ecust.yousi.com/Public/upload/photo/2015-06-22/5587902260169.jpg?imageView2/0/h/96/w/96
http://7xl17c.com2.z0.glb.qiniucdn.com/2015-11-08_563f4d464f6fe.png?imageView2/0/h/96/w/96
http://7xl17c.com2.z0.glb.qiniucdn.com/2015-11-01_5635c4e0e3ff6.jpg?imageView2/0/h/96/w/96
http://7xl17c.com2.z0.glb.qiniucdn.com/2015-11-09_564049f674cfc.jpg?imageView2/0/h/96/w/96
http://7xl17c.com2.z0.glb.qiniucdn.com/2015-11-10_5641533da7bcc.jpg?imageView2/0/h/96/w/96
http://7xl17c.com2.z0.glb.qiniucdn.com/2015-10-11_561a79885fe50.jpg?imageView2/0/h/96/w/96
http://7xl17c.com2.z0.glb.qiniucdn.com/2015-11-06_563c4fc6b4815.jpg?imageView2/0/h/96/w/96
http://7xl17c.com2.z0.glb.qiniucdn.com/2015-11-10_5641930b66415.jpg?imageView2/0/h/96/w/96
http://7xl17c.com2.z0.glb.qiniucdn.com/2015-09-19_55fd53bdcf02d.jpg?imageView2/0/h/96/w/96
http://sjtu.yousi.com/Public/upload/photo/2015-07-11/55a0a7dd26e5c.jpg?imageView2/0/h/96/w/96
http://www.yousi.com/Public/upload/photo/2015-07-15/55a61c7f9ae45.jpg?imageView2/0/h/96/w/96
http://7xl17c.com2.z0.glb.qiniucdn.com/2015-11-11_564301e939aaa.jpg?imageView2/0/h/96/w/96
http://7xl17c.com2.z0.glb.qiniucdn.com/2015-09-08_55eebde5bf7f0.JPG?imageView2/0/h/96/w/96
http://7xl17c.com2.z0.glb.qiniucdn.com/2015-09-08_55eec111ae837.jpg?imageView2/0/h/96/w/96
http://7xl17c.com2.z0.glb.qiniucdn.com/2015-10-09_5617b182d1b7a.jpg?imageView2/0/h/96/w/96
http://7xl17c.com2.z0.glb.qiniucdn.com/2015-11-10_5641e50a407c0.jpg?imageView2/0/h/96/w/96
http://7xl17c.com2.z0.glb.qiniucdn.com/2015-10-31_5634143b44f5a.jpg?imageView2/0/h/96/w/96
http://7xl17c.com2.z0.glb.qiniucdn.com/2015-10-30_56333d5f00937.jpg?imageView2/0/h/96/w/96
http://7xl17c.com2.z0.glb.qiniucdn.com/2015-09-15_55f80bbe7165f.jpg?imageView2/0/h/96/w/96
http://7xl17c.com2.z0.glb.qiniucdn.com/2015-10-02_560dfa320fbe8.jpg?imageView2/0/h/96/w/96
http://7xl17c.com2.z0.glb.qiniucdn.com/2015-11-10_5641e66152499.jpg?imageView2/0/h/96/w/96
http://7xl17c.com2.z0.glb.qiniucdn.com/2015-10-17_562204b3bb74d.png?imageView2/0/h/96/w/96
http://7xl17c.com2.z0.glb.qiniucdn.com/2015-11-02_56373ed92c3d5.jpg?imageView2/0/h/96/w/96
http://7xl17c.com2.z0.glb.qiniucdn.com/2015-10-23_5629f882f127d.jpg?imageView2/0/h/96/w/96
http://www.yousi.com/Public/upload/photo/2015-07-24/55b242208bb04.JPG?imageView2/0/h/96/w/96
http://ecust.yousi.com/Public/upload/photo/2015-06-19/5583ca1d3cb7d.jpg?imageView2/0/h/96/w/96
http://7xl17c.com2.z0.glb.qiniucdn.com/2015-11-12_5644a7aa8ec85.jpg?imageView2/0/h/96/w/96
http://7xl17c.com2.z0.glb.qiniucdn.com/2015-11-09_564024ffa013e.jpg?imageView2/0/h/96/w/96
http://7xl17c.com2.z0.glb.qiniucdn.com/2015-11-10_564176cb390bd.jpg?imageView2/0/h/96/w/96
http://7xl17c.com2.z0.glb.qiniucdn.com/2015-09-22_56014f91f0082.jpg?imageView2/0/h/96/w/96
http://7xl17c.com2.z0.glb.qiniucdn.com/2015-11-08_563f5bd10cf1e.jpg?imageView2/0/h/96/w/96
http://7xl17c.com2.z0.glb.qiniucdn.com/2015-11-10_5641f3edddba4.jpg?imageView2/0/h/96/w/96
http://7xl17c.com2.z0.glb.qiniucdn.com/2015-11-06_563c710a6e047.png?imageView2/0/h/96/w/96
http://7xl17c.com2.z0.glb.qiniucdn.com/2015-11-10_5641bf4de50d5.jpg?imageView2/0/h/96/w/96
http://7xl17c.com2.z0.glb.qiniucdn.com/2015-10-27_562ec0ac43b6b.jpg?imageView2/0/h/96/w/96
http://7xl17c.com2.z0.glb.qiniucdn.com/2015-10-01_560c95bf23a27.jpg?imageView2/0/h/96/w/96
http://7xl17c.com2.z0.glb.qiniucdn.com/2015-11-12_56448d8919596.jpg?imageView2/0/h/96/w/96
http://7xl17c.com2.z0.glb.qiniucdn.com/2015-10-16_56205a48b2ba4.jpg?imageView2/0/h/96/w/96
http://ecust.yousi.com/Public/upload/photo/2015-07-03/5596a09891b2a.jpg?imageView2/0/h/96/w/96
http://7xl17c.com2.z0.glb.qiniucdn.com/2015-09-08_55ee3f37a2e08.jpg?imageView2/0/h/96/w/96
http://7xl17c.com2.z0.glb.qiniucdn.com/2015-10-23_5629a42101f65.jpg?imageView2/0/h/96/w/96
http://7xl17c.com2.z0.glb.qiniucdn.com/2015-11-12_5644781311b6b.jpg?imageView2/0/h/96/w/96
http://7xl17c.com2.z0.glb.qiniucdn.com/2015-10-28_56306a773a965.jpg?imageView2/0/h/96/w/96
http://ecust.yousi.com/Public/upload/photo/2015-07-24/55b1d96f9cc68.JPG?imageView2/0/h/96/w/96
http://7xl17c.com2.z0.glb.qiniucdn.com/2015-09-28_560905e2b270c.jpg?imageView2/0/h/96/w/96
http://7xl17c.com2.z0.glb.qiniucdn.com/2015-11-03_563898a6e06a7.jpg?imageView2/0/h/96/w/96
http://7xl17c.com2.z0.glb.qiniucdn.com/2015-11-09_5640400a8ec20.jpg?imageView2/0/h/96/w/96
http://7xl17c.com2.z0.glb.qiniucdn.com/2015-09-23_56023518df015.jpg?imageView2/0/h/96/w/96
http://7xl17c.com2.z0.glb.qiniucdn.com/2015-09-18_55fc2cbe37bf5.jpg?imageView2/0/h/96/w/96
http://ecust.yousi.com/Public/upload/photo/2015-06-17/5580c3624f65d.jpg?imageView2/0/h/96/w/96
http://7xl17c.com2.z0.glb.qiniucdn.com/2015-09-14_55f617e08c3e0.jpg?imageView2/0/h/96/w/96
http://www.yousi.com/Public/upload/teacherPhoto/2015-07-19/55abc5714064f.jpg?imageView2/0/h/96/w/96
http://ecust.yousi.com/Public/upload/photo/2015-06-18/558292192381e.png?imageView2/0/h/96/w/96
http://7xl17c.com2.z0.glb.qiniucdn.com/2015-11-03_5638cabe404c0.jpg?imageView2/0/h/96/w/96
http://7xl17c.com2.z0.glb.qiniucdn.com/2015-10-13_561cfa748d099.jpg?imageView2/0/h/96/w/96
http://7xl17c.com2.z0.glb.qiniucdn.com/2015-11-13_5645d9bb9ca0b.jpg?imageView2/0/h/96/w/96
http://7xl17c.com2.z0.glb.qiniucdn.com/2015-11-09_5640235c2729a.jpg?imageView2/0/h/96/w/96
http://7xl17c.com2.z0.glb.qiniucdn.com/2015-11-13_5645dccd08af8.jpg?imageView2/0/h/96/w/96
http://7xl17c.com2.z0.glb.qiniucdn.com/2015-11-12_5644915e39f6c.jpg?imageView2/0/h/96/w/96
http://7xl17c.com2.z0.glb.qiniucdn.com/2015-11-10_5641deffa8c95.jpg?imageView2/0/h/96/w/96
http://7xl17c.com2.z0.glb.qiniucdn.com/2015-10-26_562d93866525a.jpg?imageView2/0/h/96/w/96
http://7xl17c.com2.z0.glb.qiniucdn.com/2015-11-09_5640b9f34951d.jpg?imageView2/0/h/96/w/96
http://7xl17c.com2.z0.glb.qiniucdn.com/2015-11-04_563956f8c3722.jpg?imageView2/0/h/96/w/96
http://7xl17c.com2.z0.glb.qiniucdn.com/2015-10-08_56168ec4f0d53.jpg?imageView2/0/h/96/w/96
http://ecust.yousi.com/Public/upload/photo/2015-06-18/558268522c574.jpg?imageView2/0/h/96/w/96
http://7xl17c.com2.z0.glb.qiniucdn.com/2015-10-22_562852ba6d70f.JPG?imageView2/0/h/96/w/96
http://sjtu.yousi.com/Public/upload/teacherPhoto/2015-01-26/54c5e1cc85ba1.jpg?imageView2/0/h/96/w/96
http://7xl17c.com2.z0.glb.qiniucdn.com/2015-10-06_5613cae644368.png?imageView2/0/h/96/w/96
http://7xl17c.com2.z0.glb.qiniucdn.com/2015-09-05_55ea5220b3ce8.jpg?imageView2/0/h/96/w/96
http://www.yousi.com/Public/upload/photo/2015-07-13/55a37fdfe7d5f.jpg?imageView2/0/h/96/w/96
http://7xl17c.com2.z0.glb.qiniucdn.com/2015-11-14_5646d3fd782e1.jpg?imageView2/0/h/96/w/96
http://7xl17c.com2.z0.glb.qiniucdn.com/2015-11-10_56413371e959b.jpg?imageView2/0/h/96/w/96
http://7xl17c.com2.z0.glb.qiniucdn.com/2015-11-02_5637768a1e847.jpg?imageView2/0/h/96/w/96
http://7xl17c.com2.z0.glb.qiniucdn.com/2015-10-11_561a5987a6b93.jpg?imageView2/0/h/96/w/96
http://7xl17c.com2.z0.glb.qiniucdn.com/2015-11-11_5642ceb261f7f.jpg?imageView2/0/h/96/w/96
http://www.yousi.com/Public/upload/photo/2015-06-30/55927867e325d.jpg?imageView2/0/h/96/w/96
http://7xl17c.com2.z0.glb.qiniucdn.com/2015-10-16_562088970ccc1.JPG?imageView2/0/h/96/w/96
http://7xl17c.com2.z0.glb.qiniucdn.com/2015-11-11_5642f673258f7.jpg?imageView2/0/h/96/w/96
http://7xl17c.com2.z0.glb.qiniucdn.com/2015-09-09_55ef9ec3494d3.jpg?imageView2/0/h/96/w/96
http://7xl17c.com2.z0.glb.qiniucdn.com/2015-11-10_5641d300a5e0d.JPG?imageView2/0/h/96/w/96
http://7xl17c.com2.z0.glb.qiniucdn.com/2015-11-12_56445cf54b3e8.jpg?imageView2/0/h/96/w/96
http://7xl17c.com2.z0.glb.qiniucdn.com/2015-11-11_56434f944501e.JPG?imageView2/0/h/96/w/96
http://7xl17c.com2.z0.glb.qiniucdn.com/2015-11-14_56473d68ec88e.jpg?imageView2/0/h/96/w/96
http://7xl17c.com2.z0.glb.qiniucdn.com/2015-11-13_5645298cc51bd.jpg?imageView2/0/h/96/w/96
http://7xl17c.com2.z0.glb.qiniucdn.com/2015-11-11_56430edd7c26d.jpg?imageView2/0/h/96/w/96
http://7xl17c.com2.z0.glb.qiniucdn.com/2015-10-11_561a2bb23de67.jpeg?imageView2/0/h/96/w/96
http://www.yousi.com/Public/upload/teacherPhoto/2015-07-11/55a0f3a61ef25.jpg?imageView2/0/h/96/w/96
http://www.yousi.com/Public/upload/photo/2015-07-24/55b1fa449be05.png?imageView2/0/h/96/w/96
http://7xl17c.com2.z0.glb.qiniucdn.com/2015-09-08_55eeeb2f3f01a.jpg?imageView2/0/h/96/w/96
http://sjtu.yousi.com/Public/upload/teacherPhoto/2015-04-02/551c9aa110e4a.jpg?imageView2/0/h/96/w/96
http://sjtu.yousi.com/Public/upload/teacherPhoto/2015-03-24/5510e7a7bc324.jpg?imageView2/0/h/96/w/96
http://yousi.com/Public/upload/photo/2015-07-18/55a9c209ba8b7.jpg?imageView2/0/h/96/w/96
http://7xl17c.com2.z0.glb.qiniucdn.com/2015-11-05_563b1f19770e8.jpg?imageView2/0/h/96/w/96
http://7xl17c.com2.z0.glb.qiniucdn.com/2015-11-20_564ed7c25ce0d.jpg?imageView2/0/h/96/w/96
http://7xl17c.com2.z0.glb.qiniucdn.com/2015-09-11_55f2a08517666.png?imageView2/0/h/96/w/96
http://7xl17c.com2.z0.glb.qiniucdn.com/2015-11-02_5636ed5ab8f62.jpg?imageView2/0/h/96/w/96
http://ecust.yousi.com/Public/upload/photo/2015-06-22/5587f71305276.png?imageView2/0/h/96/w/96
http://7xl17c.com2.z0.glb.qiniucdn.com/2015-11-11_5642fe2e15a44.jpg?imageView2/0/h/96/w/96
http://7xl17c.com2.z0.glb.qiniucdn.com/2015-11-15_5648744b97968.jpg?imageView2/0/h/96/w/96
http://7xl17c.com2.z0.glb.qiniucdn.com/2015-10-26_562dda77478ab.jpg?imageView2/0/h/96/w/96
http://7xl17c.com2.z0.glb.qiniucdn.com/2015-09-25_560523ad331d4.jpg?imageView2/0/h/96/w/96
http://7xl17c.com2.z0.glb.qiniucdn.com/2015-09-25_5604c5f3a98ef.jpg?imageView2/0/h/96/w/96
http://sjtu.yousi.com/Public/upload/teacherPhoto/2015-02-02/54cf0df97a270.jpg?imageView2/0/h/96/w/96
http://sjtu.yousi.com/Public/upload/photo/2015-08-08/55c5c242e1ea6.jpg?imageView2/0/h/96/w/96
http://7xl17c.com2.z0.glb.qiniucdn.com/2015-09-27_5607fb797867e.jpg?imageView2/0/h/96/w/96
http://www.yousi.com/Public/upload/teacherPhoto/2015-08-13/55cc751974e33.jpeg?imageView2/0/h/96/w/96
http://7xl17c.com2.z0.glb.qiniucdn.com/2015-11-06_563c426e8950f.png?imageView2/0/h/96/w/96
http://7xl17c.com2.z0.glb.qiniucdn.com/2015-11-13_56454b48cb07e.jpg?imageView2/0/h/96/w/96
http://7xl17c.com2.z0.glb.qiniucdn.com/2015-10-15_561f580e72ca6.jpg?imageView2/0/h/96/w/96
http://7xl17c.com2.z0.glb.qiniucdn.com/2015-10-14_561ddbbc26e27.jpg?imageView2/0/h/96/w/96
http://7xl17c.com2.z0.glb.qiniucdn.com/2015-11-14_5646ff2f816f6.jpg?imageView2/0/h/96/w/96
http://7xl17c.com2.z0.glb.qiniucdn.com/2015-11-11_56435e388dad3.jpg?imageView2/0/h/96/w/96
http://7xl17c.com2.z0.glb.qiniucdn.com/2015-11-10_5641e8370e88e.jpg?imageView2/0/h/96/w/96
http://7xl17c.com2.z0.glb.qiniucdn.com/2015-09-24_56037fdf04dfd.JPG?imageView2/0/h/96/w/96
http://7xl17c.com2.z0.glb.qiniucdn.com/2015-10-23_5629c6bb256b0.jpg?imageView2/0/h/96/w/96
http://7xl17c.com2.z0.glb.qiniucdn.com/2015-10-11_561a2ea590280.jpg?imageView2/0/h/96/w/96
http://7xl17c.com2.z0.glb.qiniucdn.com/2015-09-24_5603d48879434.JPG?imageView2/0/h/96/w/96
http://7xl17c.com2.z0.glb.qiniucdn.com/2015-09-07_55ecf015ca0dc.jpg?imageView2/0/h/96/w/96
http://7xl17c.com2.z0.glb.qiniucdn.com/2015-11-10_5641c849b8ac4.jpg?imageView2/0/h/96/w/96
http://7xl17c.com2.z0.glb.qiniucdn.com/2015-10-19_5624c9047ce34.png?imageView2/0/h/96/w/96
http://7xl17c.com2.z0.glb.qiniucdn.com/2015-11-05_563b65dc8e89a.jpg?imageView2/0/h/96/w/96
http://7xl17c.com2.z0.glb.qiniucdn.com/2015-11-03_5638cdc386442.JPG?imageView2/0/h/96/w/96
http://7xl17c.com2.z0.glb.qiniucdn.com/2015-10-05_5612399a96d7d.jpg?imageView2/0/h/96/w/96
http://ecust.yousi.com/Public/upload/photo/2015-06-29/55910292606d6.jpg?imageView2/0/h/96/w/96
http://www.yousi.com/Public/upload/photo/2015-06-26/558d531d132a5.jpg?imageView2/0/h/96/w/96
http://7xl17c.com2.z0.glb.qiniucdn.com/2015-11-17_564b0b131dc12.jpg?imageView2/0/h/96/w/96
http://7xl17c.com2.z0.glb.qiniucdn.com/2015-11-17_564a8d72c1881.jpg?imageView2/0/h/96/w/96
http://7xl17c.com2.z0.glb.qiniucdn.com/2015-11-17_564b31f34020c.jpg?imageView2/0/h/96/w/96
http://7xl17c.com2.z0.glb.qiniucdn.com/2015-11-08_563e2917f3162.JPG?imageView2/0/h/96/w/96
http://7xl17c.com2.z0.glb.qiniucdn.com/2015-09-29_5609f7ff16127.jpg?imageView2/0/h/96/w/96
http://7xl17c.com2.z0.glb.qiniucdn.com/2015-10-02_560dd0016ce16.gif?imageView2/0/h/96/w/96
http://7xl17c.com2.z0.glb.qiniucdn.com/2015-10-11_561a202866eda.jpg?imageView2/0/h/96/w/96
http://7xl17c.com2.z0.glb.qiniucdn.com/2015-11-10_5641346971bd4.jpg?imageView2/0/h/96/w/96
http://7xl17c.com2.z0.glb.qiniucdn.com/2015-11-10_5641dc4ca9bc6.jpg?imageView2/0/h/96/w/96
http://7xl17c.com2.z0.glb.qiniucdn.com/2015-11-10_5641b52691659.jpg?imageView2/0/h/96/w/96
http://7xl17c.com2.z0.glb.qiniucdn.com/2015-09-21_55ffe46f8e58e.jpg?imageView2/0/h/96/w/96
http://7xl17c.com2.z0.glb.qiniucdn.com/2015-11-09_56402cd6cf754.jpg?imageView2/0/h/96/w/96
http://7xl17c.com2.z0.glb.qiniucdn.com/2015-10-25_562c51d7ce7c2.jpg?imageView2/0/h/96/w/96
http://7xl17c.com2.z0.glb.qiniucdn.com/2015-10-31_5634bf586fdeb.jpg?imageView2/0/h/96/w/96
http://sjtu.yousi.com/Public/upload/teacherPhoto/2015-04-12/552a1c68997b4.png?imageView2/0/h/96/w/96
http://7xl17c.com2.z0.glb.qiniucdn.com/2015-09-28_56091a78a8900.jpg?imageView2/0/h/96/w/96
http://7xl17c.com2.z0.glb.qiniucdn.com/2015-10-24_562b2eeb383dd.jpg?imageView2/0/h/96/w/96
http://7xl17c.com2.z0.glb.qiniucdn.com/2015-09-25_56053202da3ef.jpg?imageView2/0/h/96/w/96
http://www.yousi.com/Public/upload/photo/2015-06-27/558ea78a4ff69.png?imageView2/0/h/96/w/96
http://www.yousi.com/Public/upload/photo/2015-07-23/55b08cc32128c.jpg?imageView2/0/h/96/w/96
http://sjtu.yousi.com/Public/upload/teacherPhoto/2015-03-03/54f57ba67e4da.jpg?imageView2/0/h/96/w/96
http://7xl17c.com2.z0.glb.qiniucdn.com/2015-11-09_564027cb30fd2.jpg?imageView2/0/h/96/w/96
http://7xl17c.com2.z0.glb.qiniucdn.com/2015-11-09_56406391ca6ee.jpg?imageView2/0/h/96/w/96
http://sjtu.yousi.com/Public/upload/photo/2015-07-03/5596968ef0793.png?imageView2/0/h/96/w/96
http://7xl17c.com2.z0.glb.qiniucdn.com/2015-09-16_55f975cf106e7.jpg?imageView2/0/h/96/w/96
http://www.yousi.com/Public/upload/photo/2015-06-23/558908ca1cc2b.jpg?imageView2/0/h/96/w/96
http://7xl17c.com2.z0.glb.qiniucdn.com/2015-10-21_56272c874edfd.jpg?imageView2/0/h/96/w/96
http://www.yousi.com/Public/upload/photo/2015-07-09/559e2b1e5a894.jpg?imageView2/0/h/96/w/96
http://7xl17c.com2.z0.glb.qiniucdn.com/2015-11-13_5645fbae3d2b3.jpg?imageView2/0/h/96/w/96
http://7xl17c.com2.z0.glb.qiniucdn.com/2015-11-09_5640b251e0f76.jpg?imageView2/0/h/96/w/96
http://7xl17c.com2.z0.glb.qiniucdn.com/2015-11-16_5649d95b9176b.jpg?imageView2/0/h/96/w/96
http://7xl17c.com2.z0.glb.qiniucdn.com/2015-11-11_564303a14ef3f.jpg?imageView2/0/h/96/w/96
http://7xl17c.com2.z0.glb.qiniucdn.com/2015-10-28_5630aee3c164c.jpg?imageView2/0/h/96/w/96
http://7xl17c.com2.z0.glb.qiniucdn.com/2015-11-11_5642c66f8b1b7.jpg?imageView2/0/h/96/w/96
http://7xl17c.com2.z0.glb.qiniucdn.com/2015-11-05_563b460da59c8.jpg?imageView2/0/h/96/w/96
http://7xl17c.com2.z0.glb.qiniucdn.com/2015-09-17_55fab332bdf37.jpg?imageView2/0/h/96/w/96
http://7xl17c.com2.z0.glb.qiniucdn.com/2015-11-08_563f6157cdce5.jpg?imageView2/0/h/96/w/96
http://7xl17c.com2.z0.glb.qiniucdn.com/2015-11-14_5646cc202b4e8.jpg?imageView2/0/h/96/w/96
http://7xl17c.com2.z0.glb.qiniucdn.com/2015-11-12_5643edc1e78a7.jpg?imageView2/0/h/96/w/96
http://7xl17c.com2.z0.glb.qiniucdn.com/2015-10-31_56347bdf3e00a.jpg?imageView2/0/h/96/w/96
http://7xl17c.com2.z0.glb.qiniucdn.com/2015-11-06_563c2d41a1740.jpg?imageView2/0/h/96/w/96
http://7xl17c.com2.z0.glb.qiniucdn.com/2015-11-14_5646afdac2edf.jpg?imageView2/0/h/96/w/96
http://7xl17c.com2.z0.glb.qiniucdn.com/2015-11-09_56402fb68243f.png?imageView2/0/h/96/w/96
http://7xl17c.com2.z0.glb.qiniucdn.com/2015-11-11_5642d663b4831.jpg?imageView2/0/h/96/w/96
http://7xl17c.com2.z0.glb.qiniucdn.com/2015-10-17_562229964488e.jpg?imageView2/0/h/96/w/96
http://sjtu.yousi.com/Public/upload/photo/2015-06-22/5587c72189871.png?imageView2/0/h/96/w/96
http://7xl17c.com2.z0.glb.qiniucdn.com/2015-09-17_55fa5b8c7a99f.jpg?imageView2/0/h/96/w/96
http://7xl17c.com2.z0.glb.qiniucdn.com/2015-10-20_56262f7107f6b.jpg?imageView2/0/h/96/w/96
http://7xl17c.com2.z0.glb.qiniucdn.com/2015-09-20_55feb87690f20.jpg?imageView2/0/h/96/w/96
http://sjtu.yousi.com/Public/upload/photo/2015-05-28/5566e9816f480.jpg?imageView2/0/h/96/w/96
http://yousi.com/Public/upload/photo/2015-06-23/55897f26e8437.jpg?imageView2/0/h/96/w/96
http://7xl17c.com2.z0.glb.qiniucdn.com/2015-09-19_55fd1baae1a47.jpg?imageView2/0/h/96/w/96
http://www.yousi.com/Public/upload/photo/2015-07-03/55960b3e7576d.jpg?imageView2/0/h/96/w/96
http://7xl17c.com2.z0.glb.qiniucdn.com/2015-11-16_5649d15cb3e9b.jpg?imageView2/0/h/96/w/96
http://7xl17c.com2.z0.glb.qiniucdn.com/2015-11-04_563a097ceba3f.jpg?imageView2/0/h/96/w/96
http://7xl17c.com2.z0.glb.qiniucdn.com/2015-09-28_56082ab6cd65c.jpg?imageView2/0/h/96/w/96
http://7xl17c.com2.z0.glb.qiniucdn.com/2015-10-24_562b0eab97fc6.jpg?imageView2/0/h/96/w/96
http://7xl17c.com2.z0.glb.qiniucdn.com/2015-11-09_5640bf9a12c57.jpg?imageView2/0/h/96/w/96
http://7xl17c.com2.z0.glb.qiniucdn.com/2015-11-18_564c65d5766f0.jpg?imageView2/0/h/96/w/96
http://7xl17c.com2.z0.glb.qiniucdn.com/2015-09-27_5607f7b1b70e9.jpg?imageView2/0/h/96/w/96
http://7xl17c.com2.z0.glb.qiniucdn.com/2015-11-12_5643f74b6d39a.jpg?imageView2/0/h/96/w/96
http://7xl17c.com2.z0.glb.qiniucdn.com/2015-11-18_564bcae547ca5.jpg?imageView2/0/h/96/w/96
http://7xl17c.com2.z0.glb.qiniucdn.com/2015-11-18_564befa6c9aed.jpg?imageView2/0/h/96/w/96
http://7xl17c.com2.z0.glb.qiniucdn.com/2015-11-13_564542fe78ae0.jpg?imageView2/0/h/96/w/96
http://7xl17c.com2.z0.glb.qiniucdn.com/2015-11-01_56361cc83a6c2.jpg?imageView2/0/h/96/w/96
http://7xl17c.com2.z0.glb.qiniucdn.com/2015-11-01_56362693152c3.jpg?imageView2/0/h/96/w/96
http://7xl17c.com2.z0.glb.qiniucdn.com/2015-11-11_5642ca4b37a68.jpg?imageView2/0/h/96/w/96
http://7xl17c.com2.z0.glb.qiniucdn.com/2015-09-21_56000465878dc.png?imageView2/0/h/96/w/96
http://7xl17c.com2.z0.glb.qiniucdn.com/2015-11-11_564321af06856.jpg?imageView2/0/h/96/w/96
http://7xl17c.com2.z0.glb.qiniucdn.com/2015-11-07_563de4e12b839.jpg?imageView2/0/h/96/w/96
http://www.yousi.com/Public/upload/photo/2015-08-08/55c590114b7c9.png?imageView2/0/h/96/w/96
http://7xl17c.com2.z0.glb.qiniucdn.com/2015-11-09_564044a8bdd1d.jpg?imageView2/0/h/96/w/96
http://7xl17c.com2.z0.glb.qiniucdn.com/2015-10-29_56319a4e3eff2.jpg?imageView2/0/h/96/w/96
http://7xl17c.com2.z0.glb.qiniucdn.com/2015-10-25_562cd95a0cdab.JPG?imageView2/0/h/96/w/96
http://7xl17c.com2.z0.glb.qiniucdn.com/2015-10-10_56191be26c43f.jpg?imageView2/0/h/96/w/96
http://7xl17c.com2.z0.glb.qiniucdn.com/2015-10-15_561e7f9e1c967.jpg?imageView2/0/h/96/w/96
http://7xl17c.com2.z0.glb.qiniucdn.com/2015-09-13_55f550c3a31a8.jpg?imageView2/0/h/96/w/96
http://7xl17c.com2.z0.glb.qiniucdn.com/2015-10-10_56185892a7a5f.jpg?imageView2/0/h/96/w/96
http://www.yousi.com/Public/upload/photo/2015-07-31/55bb8983099a1.jpg?imageView2/0/h/96/w/96
http://7xl17c.com2.z0.glb.qiniucdn.com/2015-11-19_564d30f93aba8.jpg?imageView2/0/h/96/w/96
http://7xl17c.com2.z0.glb.qiniucdn.com/2015-09-15_55f7aba599e56.jpg?imageView2/0/h/96/w/96
http://7xl17c.com2.z0.glb.qiniucdn.com/2015-09-17_55fa7b278004c.PNG?imageView2/0/h/96/w/96
http://7xl17c.com2.z0.glb.qiniucdn.com/2015-11-22_56516302c3fa1.jpg?imageView2/0/h/96/w/96
http://7xl17c.com2.z0.glb.qiniucdn.com/2015-11-11_5642a6708926f.jpg?imageView2/0/h/96/w/96
http://7xl17c.com2.z0.glb.qiniucdn.com/2015-10-16_56206c04eba68.jpg?imageView2/0/h/96/w/96
http://www.yousi.com/Public/upload/photo/2015-07-18/55aa015e765b0.jpg?imageView2/0/h/96/w/96
http://7xl17c.com2.z0.glb.qiniucdn.com/2015-11-18_564c0304036f2.jpg?imageView2/0/h/96/w/96
http://7xl17c.com2.z0.glb.qiniucdn.com/2015-11-14_564746bf8e27b.jpg?imageView2/0/h/96/w/96
http://7xl17c.com2.z0.glb.qiniucdn.com/2015-10-29_563227e9c289e.JPG?imageView2/0/h/96/w/96
http://7xl17c.com2.z0.glb.qiniucdn.com/2015-11-19_564dac4a6d9d9.jpg?imageView2/0/h/96/w/96
http://7xl17c.com2.z0.glb.qiniucdn.com/2015-11-02_5636b329dbe40.jpg?imageView2/0/h/96/w/96
http://7xl17c.com2.z0.glb.qiniucdn.com/2015-11-14_5646a1d508db4.jpg?imageView2/0/h/96/w/96
http://7xl17c.com2.z0.glb.qiniucdn.com/2015-09-15_55f83c9d8d664.jpg?imageView2/0/h/96/w/96
http://7xl17c.com2.z0.glb.qiniucdn.com/2015-11-14_5646e71fa0198.jpg?imageView2/0/h/96/w/96
http://7xl17c.com2.z0.glb.qiniucdn.com/2015-11-12_56449a31e1423.jpg?imageView2/0/h/96/w/96
http://7xl17c.com2.z0.glb.qiniucdn.com/2015-09-20_55fe166e5d840.jpg?imageView2/0/h/96/w/96
http://7xl17c.com2.z0.glb.qiniucdn.com/2015-09-19_55fd0cdea42e4.png?imageView2/0/h/96/w/96
http://7xl17c.com2.z0.glb.qiniucdn.com/2015-11-10_5641ae0091c12.jpg?imageView2/0/h/96/w/96
http://7xl17c.com2.z0.glb.qiniucdn.com/2015-11-09_564057860286b.png?imageView2/0/h/96/w/96
http://7xl17c.com2.z0.glb.qiniucdn.com/2015-11-12_5643f5010f7ae.jpeg?imageView2/0/h/96/w/96
http://7xl17c.com2.z0.glb.qiniucdn.com/2015-11-12_56442210b3923.jpg?imageView2/0/h/96/w/96
http://7xl17c.com2.z0.glb.qiniucdn.com/2015-11-09_56401cf58b075.jpg?imageView2/0/h/96/w/96
http://7xl17c.com2.z0.glb.qiniucdn.com/2015-09-18_55fb53a2715b3.jpg?imageView2/0/h/96/w/96
http://7xl17c.com2.z0.glb.qiniucdn.com/2015-11-05_563b147240319.jpg?imageView2/0/h/96/w/96
http://sjtu.yousi.com/Public/upload/teacherPhoto/2015-04-10/55273cb353efc.jpg?imageView2/0/h/96/w/96
http://ecust.yousi.com/Public/upload/photo/2015-06-16/557fca563eaa1.jpg?imageView2/0/h/96/w/96
http://www.yousi.com/Public/upload/photo/2015-06-24/558a1eac456db.png?imageView2/0/h/96/w/96
http://7xl17c.com2.z0.glb.qiniucdn.com/2015-09-03_55e84b0281458.jpg?imageView2/0/h/96/w/96
http://7xl17c.com2.z0.glb.qiniucdn.com/2015-10-11_5619efb737730.jpg?imageView2/0/h/96/w/96
http://sjtu.yousi.com/Public/upload/teacherPhoto/2015-04-14/552cf3af578b8.jpg?imageView2/0/h/96/w/96
http://7xl17c.com2.z0.glb.qiniucdn.com/2015-09-20_55febd93666f9.jpg?imageView2/0/h/96/w/96
http://7xl17c.com2.z0.glb.qiniucdn.com/2015-09-10_55f1584e19680.jpg?imageView2/0/h/96/w/96
http://ecust.yousi.com/Public/upload/photo/2015-06-20/558563831f2f4.jpg?imageView2/0/h/96/w/96
http://7xl17c.com2.z0.glb.qiniucdn.com/2015-09-11_55f25f0aa7cce.jpg?imageView2/0/h/96/w/96
http://7xl17c.com2.z0.glb.qiniucdn.com/2015-08-31_55e3e642eb5e0.jpg?imageView2/0/h/96/w/96
http://7xl17c.com2.z0.glb.qiniucdn.com/2015-09-01_55e51cb1a24f2.jpg?imageView2/0/h/96/w/96
http://ecust.yousi.com/Public/upload/photo/2015-07-01/5593e8db57dc9.jpg?imageView2/0/h/96/w/96
http://www.yousi.com/Public/upload/photo/2015-07-07/559b436c0fcf4.JPG?imageView2/0/h/96/w/96
http://7xl17c.com2.z0.glb.qiniucdn.com/2015-11-22_56516bfb6a7a4.jpg?imageView2/0/h/96/w/96
http://7xl17c.com2.z0.glb.qiniucdn.com/2015-11-19_564d5adcc08a2.jpg?imageView2/0/h/96/w/96
http://7xl17c.com2.z0.glb.qiniucdn.com/2015-09-23_5602543e6992b.jpg?imageView2/0/h/96/w/96
http://7xl17c.com2.z0.glb.qiniucdn.com/2015-11-06_563c535c2c79c.jpg?imageView2/0/h/96/w/96
http://7xl17c.com2.z0.glb.qiniucdn.com/2015-11-22_5651b5b07f0db.jpg?imageView2/0/h/96/w/96
http://www.yousi.com/Public/upload/photo/2015-06-20/5584c80b2f2a5.jpg?imageView2/0/h/96/w/96
http://7xl17c.com2.z0.glb.qiniucdn.com/2015-09-26_5606843b08e7a.jpg?imageView2/0/h/96/w/96
http://7xl17c.com2.z0.glb.qiniucdn.com/2015-09-01_55e5503aab9f1.JPG?imageView2/0/h/96/w/96
http://7xl17c.com2.z0.glb.qiniucdn.com/2015-11-20_564e879f79f87.jpg?imageView2/0/h/96/w/96
http://7xl17c.com2.z0.glb.qiniucdn.com/2015-08-29_55e1b9630ba75.jpg?imageView2/0/h/96/w/96
http://7xl17c.com2.z0.glb.qiniucdn.com/2015-11-09_5640a2e2bb861.JPG?imageView2/0/h/96/w/96
http://sjtu.yousi.com/Public/upload/teacherPhoto/2015-03-23/55102434a4e13.jpg?imageView2/0/h/96/w/96
http://7xl17c.com2.z0.glb.qiniucdn.com/2015-11-02_5636e8428b660.jpg?imageView2/0/h/96/w/96
http://7xl17c.com2.z0.glb.qiniucdn.com/2015-09-21_55ff71d89008a.jpg?imageView2/0/h/96/w/96
http://7xl17c.com2.z0.glb.qiniucdn.com/2015-11-09_56408d76a97ff.jpg?imageView2/0/h/96/w/96
http://7xl17c.com2.z0.glb.qiniucdn.com/2015-09-18_55fbf5db448b8.jpg?imageView2/0/h/96/w/96
http://7xl17c.com2.z0.glb.qiniucdn.com/2015-10-04_5611454955314.jpg?imageView2/0/h/96/w/96
http://7xl17c.com2.z0.glb.qiniucdn.com/2015-10-08_56163776beb36.jpg?imageView2/0/h/96/w/96
http://7xl17c.com2.z0.glb.qiniucdn.com/2015-09-21_55ff579fdb54f.jpg?imageView2/0/h/96/w/96
http://7xl17c.com2.z0.glb.qiniucdn.com/2015-09-18_55fbc4b40dd63.jpg?imageView2/0/h/96/w/96
http://sjtu.yousi.com/Public/upload/teacherPhoto/2015-03-15/55052d30df275.jpg?imageView2/0/h/96/w/96
http://7xl17c.com2.z0.glb.qiniucdn.com/2015-09-11_55f287f4f384e.jpg?imageView2/0/h/96/w/96
http://www.yousi.com/Public/upload/photo/2015-07-31/55baf0cadeda4.jpg?imageView2/0/h/96/w/96
http://www.yousi.com/Public/upload/photo/2015-07-17/55a8e710f2d5c.jpg?imageView2/0/h/96/w/96
http://www.yousi.com/Public/upload/photo/2015-07-16/55a7588ad32f3.JPG?imageView2/0/h/96/w/96
http://yousi.com/Public/upload/photo/2015-07-06/559a0e61a141b.jpg?imageView2/0/h/96/w/96
http://www.yousi.com/Public/upload/photo/2015-06-26/558d0af57d94c.jpg?imageView2/0/h/96/w/96
http://sjtu.yousi.com/Public/upload/teacherPhoto/2015-03-24/55114eda8379e.jpg?imageView2/0/h/96/w/96
http://yousi.com/Public/upload/photo/2015-06-08/55757d8516cdc.png?imageView2/0/h/96/w/96
http://7xl17c.com2.z0.glb.qiniucdn.com/2015-11-11_5642c94a5e533.jpg?imageView2/0/h/96/w/96
http://7xl17c.com2.z0.glb.qiniucdn.com/2015-10-11_56193658db513.JPG?imageView2/0/h/96/w/96
http://7xl17c.com2.z0.glb.qiniucdn.com/2015-09-20_55fe9f6592662.jpg?imageView2/0/h/96/w/96
http://7xl17c.com2.z0.glb.qiniucdn.com/2015-09-08_55ee496b49e3c.jpg?imageView2/0/h/96/w/96
http://7xl17c.com2.z0.glb.qiniucdn.com/2015-11-21_56500898f1d6e.jpg?imageView2/0/h/96/w/96
http://7xl17c.com2.z0.glb.qiniucdn.com/2015-09-20_55fea596df238.jpg?imageView2/0/h/96/w/96
http://7xl17c.com2.z0.glb.qiniucdn.com/2015-11-22_5651863093b76.jpg?imageView2/0/h/96/w/96
http://7xl17c.com2.z0.glb.qiniucdn.com/2015-11-20_564ecb1585707.jpg?imageView2/0/h/96/w/96
http://7xl17c.com2.z0.glb.qiniucdn.com/2015-11-16_5649b27680a2a.jpg?imageView2/0/h/96/w/96
http://7xl17c.com2.z0.glb.qiniucdn.com/2015-11-20_564f345092ebc.jpg?imageView2/0/h/96/w/96
http://7xl17c.com2.z0.glb.qiniucdn.com/2015-11-19_564d7bb416724.jpg?imageView2/0/h/96/w/96
http://7xl17c.com2.z0.glb.qiniucdn.com/2015-11-20_564ea7b610072.jpg?imageView2/0/h/96/w/96
http://7xl17c.com2.z0.glb.qiniucdn.com/2015-11-21_56506b62c4c9c.jpg?imageView2/0/h/96/w/96
http://7xl17c.com2.z0.glb.qiniucdn.com/2015-11-22_56515e6d030a7.jpg?imageView2/0/h/96/w/96
http://7xl17c.com2.z0.glb.qiniucdn.com/2015-11-06_563c22574b7eb.jpg?imageView2/0/h/96/w/96
http://7xl17c.com2.z0.glb.qiniucdn.com/2015-10-29_56322b7ae60a1.jpg?imageView2/0/h/96/w/96
http://7xl17c.com2.z0.glb.qiniucdn.com/2015-10-05_5612697931062.jpg?imageView2/0/h/96/w/96
http://7xl17c.com2.z0.glb.qiniucdn.com/2015-09-24_56037d25c3a99.jpg?imageView2/0/h/96/w/96
http://7xl17c.com2.z0.glb.qiniucdn.com/2015-11-19_564da146610f6.jpg?imageView2/0/h/96/w/96
http://www.yousi.com/Public/upload/photo/2015-06-24/558a1c3d47ae5.jpg?imageView2/0/h/96/w/96
http://7xl17c.com2.z0.glb.qiniucdn.com/2015-11-18_564c4a016876d.jpg?imageView2/0/h/96/w/96
http://7xl17c.com2.z0.glb.qiniucdn.com/2015-11-14_56469b115ae9a.jpg?imageView2/0/h/96/w/96
http://7xl17c.com2.z0.glb.qiniucdn.com/2015-11-16_56497c23a8345.jpg?imageView2/0/h/96/w/96
http://7xl17c.com2.z0.glb.qiniucdn.com/2015-11-08_563eff214c78c.jpg?imageView2/0/h/96/w/96
http://7xl17c.com2.z0.glb.qiniucdn.com/2015-11-19_564d7f04660fb.jpg?imageView2/0/h/96/w/96
http://7xl17c.com2.z0.glb.qiniucdn.com/2015-11-19_564d2ee54cb28.jpg?imageView2/0/h/96/w/96
http://7xl17c.com2.z0.glb.qiniucdn.com/2015-11-17_564ad2cb050ef.jpg?imageView2/0/h/96/w/96
http://7xl17c.com2.z0.glb.qiniucdn.com/2015-11-13_5645ecdaa6c60.jpg?imageView2/0/h/96/w/96
http://7xl17c.com2.z0.glb.qiniucdn.com/2015-11-11_56430ddb33ac7.jpg?imageView2/0/h/96/w/96
http://7xl17c.com2.z0.glb.qiniucdn.com/2015-11-12_56449e370f13b.jpg?imageView2/0/h/96/w/96
http://7xl17c.com2.z0.glb.qiniucdn.com/2015-10-31_56344bc95fa2b.jpg?imageView2/0/h/96/w/96
http://7xl17c.com2.z0.glb.qiniucdn.com/2015-11-12_56442d4794e70.jpg?imageView2/0/h/96/w/96
http://7xl17c.com2.z0.glb.qiniucdn.com/2015-11-12_5644231bd7433.jpg?imageView2/0/h/96/w/96
http://7xl17c.com2.z0.glb.qiniucdn.com/2015-11-12_564483e16b7fb.jpg?imageView2/0/h/96/w/96
http://7xl17c.com2.z0.glb.qiniucdn.com/2015-09-30_560bfc49e80f7.jpg?imageView2/0/h/96/w/96
http://7xl17c.com2.z0.glb.qiniucdn.com/2015-11-10_5641eae575f6f.jpg?imageView2/0/h/96/w/96
http://7xl17c.com2.z0.glb.qiniucdn.com/2015-10-30_5633447a4b47f.jpg?imageView2/0/h/96/w/96
http://7xl17c.com2.z0.glb.qiniucdn.com/2015-10-27_562f53aa2248a.png?imageView2/0/h/96/w/96
http://ecust.yousi.com/Public/upload/photo/2015-06-20/5584e9d440053.jpg?imageView2/0/h/96/w/96
http://7xl17c.com2.z0.glb.qiniucdn.com/2015-11-02_563712ab0238a.jpg?imageView2/0/h/96/w/96
http://7xl17c.com2.z0.glb.qiniucdn.com/2015-10-11_5619e5f2e6079.jpg?imageView2/0/h/96/w/96
http://sjtu.yousi.com/Public/upload/teacherPhoto/2015-05-09/554df38b74fbc.jpg?imageView2/0/h/96/w/96
http://7xl17c.com2.z0.glb.qiniucdn.com/2015-09-03_55e80a721eae9.jpg?imageView2/0/h/96/w/96
http://www.yousi.com/Public/upload/teacherPhoto/2015-07-17/55a917faa32c5.jpg?imageView2/0/h/96/w/96
http://7xl17c.com2.z0.glb.qiniucdn.com/2015-10-25_562c78bca7502.jpg?imageView2/0/h/96/w/96
http://www.yousi.com/Public/upload/photo/2015-06-20/55854d6c0c39d.png?imageView2/0/h/96/w/96
http://sjtu.yousi.com/Public/upload/teacherPhoto/2015-03-22/550e914c824a7.PNG?imageView2/0/h/96/w/96
http://7xl17c.com2.z0.glb.qiniucdn.com/2015-10-05_5611f440a3211.jpg?imageView2/0/h/96/w/96
http://7xl17c.com2.z0.glb.qiniucdn.com/2015-09-28_5608fb2f0e654.jpg?imageView2/0/h/96/w/96
http://7xl17c.com2.z0.glb.qiniucdn.com/2015-09-20_55febec34004c.jpg?imageView2/0/h/96/w/96
http://7xl17c.com2.z0.glb.qiniucdn.com/2015-09-22_5600fc91344da.jpg?imageView2/0/h/96/w/96
http://7xl17c.com2.z0.glb.qiniucdn.com/2015-09-19_55fcafc6a3eb5.jpg?imageView2/0/h/96/w/96
http://7xl17c.com2.z0.glb.qiniucdn.com/2015-09-10_55f18e2601bde.jpg?imageView2/0/h/96/w/96
http://7xl17c.com2.z0.glb.qiniucdn.com/2015-09-09_55f051f2a0e71.jpg?imageView2/0/h/96/w/96
http://sjtu.yousi.com/Public/upload/teacherPhoto/2015-03-15/550589b60945c.jpg?imageView2/0/h/96/w/96
http://www.yousi.com/Public/upload/photo/2015-07-06/5599fc67a1695.jpg?imageView2/0/h/96/w/96
http://www.yousi.com/Public/upload/photo/2015-07-31/55bb2ee11a70a.jpg?imageView2/0/h/96/w/96
http://www.yousi.com/Public/upload/photo/2015-07-03/559661d1a3009.gif?imageView2/0/h/96/w/96
http://sjtu.yousi.com/Public/upload/teacherPhoto/2015-02-02/54cf06787eb77.jpg?imageView2/0/h/96/w/96
http://ecust.yousi.com/Public/upload/photo/2015-07-07/559bd9dc89975.jpg?imageView2/0/h/96/w/96
http://www.yousi.com/Public/upload/photo/2015-06-29/5591370c7125e.jpg?imageView2/0/h/96/w/96
http://ecust.yousi.com/Public/upload/photo/2015-07-03/55967a504b1eb.jpg?imageView2/0/h/96/w/96
http://sjtu.yousi.com/Public/upload/teacherPhoto/2015-03-23/550ffde3b1afd.JPG?imageView2/0/h/96/w/96
http://7xl17c.com2.z0.glb.qiniucdn.com/2015-10-09_56177b683012c.jpg?imageView2/0/h/96/w/96
http://sjtu.yousi.com/Public/upload/teacherPhoto/2015-04-06/55227fbfa9018.jpg?imageView2/0/h/96/w/96
http://7xl17c.com2.z0.glb.qiniucdn.com/2015-10-11_561a3cc526e84.jpg?imageView2/0/h/96/w/96
http://sjtu.yousi.com/Public/upload/teacherPhoto/2015-03-18/55098a2dc8062.JPG?imageView2/0/h/96/w/96
http://sjtu.yousi.com/Public/upload/photo/2015-07-03/55963a47205ef.png?imageView2/0/h/96/w/96
http://7xl17c.com2.z0.glb.qiniucdn.com/2015-11-23_5651e7d0228db.jpg?imageView2/0/h/96/w/96
http://7xl17c.com2.z0.glb.qiniucdn.com/2015-11-23_5652c5ad0b0f8.jpg?imageView2/0/h/96/w/96
http://7xl17c.com2.z0.glb.qiniucdn.com/2015-11-20_564f21bb609e9.jpg?imageView2/0/h/96/w/96
http://7xl17c.com2.z0.glb.qiniucdn.com/2015-11-21_564fd2d4d58a1.jpg?imageView2/0/h/96/w/96
http://7xl17c.com2.z0.glb.qiniucdn.com/2015-11-16_564997260dd4c.jpg?imageView2/0/h/96/w/96
http://7xl17c.com2.z0.glb.qiniucdn.com/2015-11-01_5634e9af982fd.png?imageView2/0/h/96/w/96
http://7xl17c.com2.z0.glb.qiniucdn.com/2015-11-22_56509f9b2de0d.jpg?imageView2/0/h/96/w/96
http://7xl17c.com2.z0.glb.qiniucdn.com/2015-11-19_564d16963348a.jpg?imageView2/0/h/96/w/96
http://7xl17c.com2.z0.glb.qiniucdn.com/2015-11-11_5642d0e3cbd7b.jpg?imageView2/0/h/96/w/96
http://7xl17c.com2.z0.glb.qiniucdn.com/2015-10-08_5616024d85541.jpg?imageView2/0/h/96/w/96
http://www.yousi.com/Public/upload/photo/2015-06-23/558914ceaee71.jpg?imageView2/0/h/96/w/96
http://7xl17c.com2.z0.glb.qiniucdn.com/2015-11-12_564417c090603.jpg?imageView2/0/h/96/w/96
http://7xl17c.com2.z0.glb.qiniucdn.com/2015-11-08_563edb96a666a.jpg?imageView2/0/h/96/w/96
http://7xl17c.com2.z0.glb.qiniucdn.com/2015-11-18_564c7e51a6cf8.jpg?imageView2/0/h/96/w/96
http://7xl17c.com2.z0.glb.qiniucdn.com/2015-09-16_55f94f4f4afcc.jpg?imageView2/0/h/96/w/96
http://7xl17c.com2.z0.glb.qiniucdn.com/2015-11-08_563f14362260d.JPG?imageView2/0/h/96/w/96
http://7xl17c.com2.z0.glb.qiniucdn.com/2015-11-18_564c5940702a9.jpg?imageView2/0/h/96/w/96
http://7xl17c.com2.z0.glb.qiniucdn.com/2015-09-07_55edaa5703794.jpg?imageView2/0/h/96/w/96
http://7xl17c.com2.z0.glb.qiniucdn.com/2015-10-20_562628a4085ee.jpg?imageView2/0/h/96/w/96
http://ecust.yousi.com/Public/upload/photo/2015-06-25/558b58dd4de97.JPG?imageView2/0/h/96/w/96
http://yousi.com/Public/upload/photo/2015-06-09/5575be3d8950a.jpg?imageView2/0/h/96/w/96
http://7xl17c.com2.z0.glb.qiniucdn.com/2015-11-14_56469cb242af5.jpg?imageView2/0/h/96/w/96
http://7xl17c.com2.z0.glb.qiniucdn.com/2015-11-11_56433ed442d38.jpg?imageView2/0/h/96/w/96
http://7xl17c.com2.z0.glb.qiniucdn.com/2015-11-09_5640488fcac7e.jpg?imageView2/0/h/96/w/96
http://7xl17c.com2.z0.glb.qiniucdn.com/2015-11-12_56442594af244.jpg?imageView2/0/h/96/w/96
http://7xl17c.com2.z0.glb.qiniucdn.com/2015-11-11_564309d1b80eb.jpg?imageView2/0/h/96/w/96
http://7xl17c.com2.z0.glb.qiniucdn.com/2015-11-01_56361b6c13678.JPG?imageView2/0/h/96/w/96
http://sjtu.yousi.com/Public/upload/photo/2015-08-18/55d338c430232.jpg?imageView2/0/h/96/w/96
http://ecust.yousi.com/Public/upload/photo/2015-08-20/55d56dd03da13.jpg?imageView2/0/h/96/w/96
http://www.yousi.com/Public/upload/photo/2015-06-19/5583e2136582c.jpg?imageView2/0/h/96/w/96
http://7xl17c.com2.z0.glb.qiniucdn.com/2015-10-30_56330b7dad51f.JPG?imageView2/0/h/96/w/96
http://www.yousi.com/Public/upload/teacherPhoto/2015-07-16/55a7addb597c3.png?imageView2/0/h/96/w/96
http://sjtu.yousi.com/Public/upload/teacherPhoto/2015-03-26/551420754d52b.jpg?imageView2/0/h/96/w/96
http://ecust.yousi.com/Public/upload/photo/2015-07-09/559e615c91a51.jpg?imageView2/0/h/96/w/96
http://www.yousi.com/Public/upload/photo/2015-07-07/559bb6b862a51.png?imageView2/0/h/96/w/96
http://7xl17c.com2.z0.glb.qiniucdn.com/2015-09-15_55f7a41b009dd.jpg?imageView2/0/h/96/w/96
http://ecust.yousi.com/Public/upload/photo/2015-07-17/55a8624b6ae81.jpg?imageView2/0/h/96/w/96
http://www.yousi.com/Public/upload/photo/2015-08-26/55ddd18e30702.jpg?imageView2/0/h/96/w/96
http://sjtu.yousi.com/Public/upload/photo/2015-06-27/558e9049b0528.jpg?imageView2/0/h/96/w/96
http://7xl17c.com2.z0.glb.qiniucdn.com/2015-09-20_55feb037298f1.jpg?imageView2/0/h/96/w/96
http://7xl17c.com2.z0.glb.qiniucdn.com/2015-09-26_5606ac456ac9f.jpg?imageView2/0/h/96/w/96
http://7xl17c.com2.z0.glb.qiniucdn.com/2015-09-06_55ebc07c7697b.jpg?imageView2/0/h/96/w/96
http://7xl17c.com2.z0.glb.qiniucdn.com/2015-09-28_56090a1a683c3.jpg?imageView2/0/h/96/w/96
http://www.yousi.com/Public/upload/photo/2015-06-23/55891ebd97818.jpg?imageView2/0/h/96/w/96
http://7xl17c.com2.z0.glb.qiniucdn.com/2015-09-24_5603d25ad7fff.png?imageView2/0/h/96/w/96
http://7xl17c.com2.z0.glb.qiniucdn.com/2015-09-02_55e6a85491f9f.JPG?imageView2/0/h/96/w/96
http://ecust.yousi.com/Public/upload/photo/2015-06-20/55852cec602c0.JPG?imageView2/0/h/96/w/96
http://www.yousi.com/Public/upload/photo/2015-07-06/559a622898027.JPG?imageView2/0/h/96/w/96
http://7xl17c.com2.z0.glb.qiniucdn.com/2015-09-08_55ee6bc6567ea.jpg?imageView2/0/h/96/w/96
http://7xl17c.com2.z0.glb.qiniucdn.com/2015-09-07_55ecfb63aa3e5.png?imageView2/0/h/96/w/96
http://ecust.yousi.com/Public/upload/photo/2015-08-28/55dfceff75247.jpg?imageView2/0/h/96/w/96
http://7xl17c.com2.z0.glb.qiniucdn.com/2015-09-11_55f2a193ad139.JPG?imageView2/0/h/96/w/96
http://ecust.yousi.com/Public/upload/photo/2015-06-18/55821d234227b.png?imageView2/0/h/96/w/96
http://sjtu.yousi.com/Public/upload/photo/2015-06-26/558cd69bb205a.JPG?imageView2/0/h/96/w/96
http://sjtu.yousi.com/Public/upload/photo/2015-05-28/55669de8e3035.jpg?imageView2/0/h/96/w/96
http://sjtu.yousi.com/Public/upload/teacherPhoto/2015-04-22/553756be47e17.png?imageView2/0/h/96/w/96
http://ecust.yousi.com/Public/upload/photo/2015-06-21/5586657f6354d.jpg?imageView2/0/h/96/w/96
http://ecust.yousi.com/Public/upload/photo/2015-07-22/55af1a455524a.jpg?imageView2/0/h/96/w/96
http://sjtu.yousi.com/Public/upload/teacherPhoto/2015-04-10/552781e64b02f.JPG?imageView2/0/h/96/w/96
http://www.yousi.com/Public/upload/photo/2015-07-13/55a36d8def9e5.jpg?imageView2/0/h/96/w/96
http://ecust.yousi.com/Public/upload/photo/2015-06-24/558a6e0c1bccb.jpg?imageView2/0/h/96/w/96
http://ecust.yousi.com/Public/upload/photo/2015-06-12/557a3a0fe4757.jpg?imageView2/0/h/96/w/96
http://yousi.com/Public/upload/photo/2015-06-09/5576fa80011df.jpg?imageView2/0/h/96/w/96
http://yousi.com/Public/upload/photo/2015-06-08/5575951802179.jpg?imageView2/0/h/96/w/96
http://sjtu.yousi.com/Public/upload/photo/2015-06-07/5573aa5fd4979.jpg?imageView2/0/h/96/w/96
http://www.yousi.com/Public/upload/photo/2015-06-10/5577d68f6d084.JPG?imageView2/0/h/96/w/96
http://7xl17c.com2.z0.glb.qiniucdn.com/2015-10-21_5627adcad2c05.JPG?imageView2/0/h/96/w/96
http://7xl17c.com2.z0.glb.qiniucdn.com/2015-10-10_561896a1f0c82.jpg?imageView2/0/h/96/w/96
http://7xl17c.com2.z0.glb.qiniucdn.com/2015-09-05_55e9cba9b684e.jpg?imageView2/0/h/96/w/96
http://7xl17c.com2.z0.glb.qiniucdn.com/2015-11-24_5653eb66642b0.jpg?imageView2/0/h/96/w/96
http://7xl17c.com2.z0.glb.qiniucdn.com/2015-09-28_5609006a268b3.jpg?imageView2/0/h/96/w/96
http://7xl17c.com2.z0.glb.qiniucdn.com/2015-11-23_56525afc87695.jpg?imageView2/0/h/96/w/96
http://7xl17c.com2.z0.glb.qiniucdn.com/2015-09-22_5600dab77a6e6.jpg?imageView2/0/h/96/w/96
http://7xl17c.com2.z0.glb.qiniucdn.com/2015-11-24_5653d6100406f.jpg?imageView2/0/h/96/w/96
http://7xl17c.com2.z0.glb.qiniucdn.com/2015-11-24_56542e410b20a.JPG?imageView2/0/h/96/w/96
http://7xl17c.com2.z0.glb.qiniucdn.com/2015-11-21_564fd393a98da.jpg?imageView2/0/h/96/w/96
http://7xl17c.com2.z0.glb.qiniucdn.com/2015-11-24_5653b2a98b8bb.jpg?imageView2/0/h/96/w/96
http://7xl17c.com2.z0.glb.qiniucdn.com/2015-11-22_5651ad72247d6.jpg?imageView2/0/h/96/w/96
http://7xl17c.com2.z0.glb.qiniucdn.com/2015-11-10_564182225f0d5.png?imageView2/0/h/96/w/96
http://sjtu.yousi.com/Public/upload/teacherPhoto/2015-03-17/55081f45cd08b.JPG?imageView2/0/h/96/w/96
http://ecust.yousi.com/Public/upload/photo/2015-06-19/55841d643037d.JPG?imageView2/0/h/96/w/96
http://7xl17c.com2.z0.glb.qiniucdn.com/2015-11-23_5652c585b5b7a.jpg?imageView2/0/h/96/w/96
http://sjtu.yousi.com/Public/upload/teacherPhoto/2015-02-01/54ce1272eda07.jpg?imageView2/0/h/96/w/96
http://7xl17c.com2.z0.glb.qiniucdn.com/2015-11-24_5653dfa9635f8.jpg?imageView2/0/h/96/w/96
http://7xl17c.com2.z0.glb.qiniucdn.com/2015-11-21_564f45f10ce18.jpg?imageView2/0/h/96/w/96
http://sjtu.yousi.com/Public/upload/teacherPhoto/2015-03-23/55102728528ab.JPG?imageView2/0/h/96/w/96
http://7xl17c.com2.z0.glb.qiniucdn.com/2015-10-14_561dd81c6d5c6.jpg?imageView2/0/h/96/w/96
http://7xl17c.com2.z0.glb.qiniucdn.com/2015-09-13_55f4d4ef1214b.jpg?imageView2/0/h/96/w/96
http://7xl17c.com2.z0.glb.qiniucdn.com/2015-09-12_55f3d855ed2eb.jpg?imageView2/0/h/96/w/96
http://www.yousi.com/Public/upload/photo/2015-07-31/55bb54e4aad23.jpg?imageView2/0/h/96/w/96
http://7xl17c.com2.z0.glb.qiniucdn.com/2015-11-05_563b464fe64f0.JPG?imageView2/0/h/96/w/96
http://7xl17c.com2.z0.glb.qiniucdn.com/2015-11-03_563855314d8e5.jpg?imageView2/0/h/96/w/96
http://7xl17c.com2.z0.glb.qiniucdn.com/2015-10-22_56286c05ef35e.jpg?imageView2/0/h/96/w/96
http://ecust.yousi.com/Public/upload/photo/2015-07-02/55952608b6223.jpg?imageView2/0/h/96/w/96
http://7xl17c.com2.z0.glb.qiniucdn.com/2015-11-11_56430a4699fa6.jpg?imageView2/0/h/96/w/96
http://www.yousi.com/Public/upload/photo/2015-07-13/55a386287fb3d.jpg?imageView2/0/h/96/w/96
http://7xl17c.com2.z0.glb.qiniucdn.com/2015-09-01_55e595e2cc096.jpg?imageView2/0/h/96/w/96
http://7xl17c.com2.z0.glb.qiniucdn.com/2015-09-22_56012e7473074.jpg?imageView2/0/h/96/w/96
http://7xl17c.com2.z0.glb.qiniucdn.com/2015-11-02_56376f2f69ba0.jpg?imageView2/0/h/96/w/96
http://7xl17c.com2.z0.glb.qiniucdn.com/2015-09-20_55fe9e3a33530.jpg?imageView2/0/h/96/w/96
http://7xl17c.com2.z0.glb.qiniucdn.com/2015-11-09_5640a2a4c6a66.jpg?imageView2/0/h/96/w/96
http://7xl17c.com2.z0.glb.qiniucdn.com/2015-09-05_55eaed0023464.jpg?imageView2/0/h/96/w/96
http://ecust.yousi.com/Public/upload/photo/2015-06-26/558d6a872f205.jpg?imageView2/0/h/96/w/96
http://7xl17c.com2.z0.glb.qiniucdn.com/2015-09-15_55f82e049c5f7.jpg?imageView2/0/h/96/w/96
http://7xl17c.com2.z0.glb.qiniucdn.com/2015-09-10_55f0ee40ef6b8.png?imageView2/0/h/96/w/96
http://7xl17c.com2.z0.glb.qiniucdn.com/2015-09-15_55f81758c4635.jpg?imageView2/0/h/96/w/96
http://sjtu.yousi.com/Public/upload/teacherPhoto/2015-03-30/551919522c74d.png?imageView2/0/h/96/w/96
http://7xl17c.com2.z0.glb.qiniucdn.com/2015-11-13_5645de8eb01a2.jpg?imageView2/0/h/96/w/96
http://sjtu.yousi.com/Public/upload/teacherPhoto/2015-03-13/5502f4b9dda0d.jpg?imageView2/0/h/96/w/96
http://7xl17c.com2.z0.glb.qiniucdn.com/2015-10-11_561a7706334fe.jpg?imageView2/0/h/96/w/96
http://ecust.yousi.com/Public/upload/photo/2015-06-18/5582d988cd5c4.jpg?imageView2/0/h/96/w/96
http://7xl17c.com2.z0.glb.qiniucdn.com/2015-09-21_55ff869b9e3b3.jpg?imageView2/0/h/96/w/96
http://7xl17c.com2.z0.glb.qiniucdn.com/2015-10-07_5614a7c62f69c.jpg?imageView2/0/h/96/w/96
http://sjtu.yousi.com/Public/upload/photo/2015-07-30/55b9865864b29.jpg?imageView2/0/h/96/w/96
http://7xl17c.com2.z0.glb.qiniucdn.com/2015-11-11_5642ce4562045.jpg?imageView2/0/h/96/w/96
http://7xl17c.com2.z0.glb.qiniucdn.com/2015-09-06_55ebf6497e40c.jpg?imageView2/0/h/96/w/96
http://7xl17c.com2.z0.glb.qiniucdn.com/2015-11-14_564737c005f31.jpg?imageView2/0/h/96/w/96
http://7xl17c.com2.z0.glb.qiniucdn.com/2015-09-25_5605395f72903.jpg?imageView2/0/h/96/w/96
http://7xl17c.com2.z0.glb.qiniucdn.com/2015-10-31_5634b69d084b7.jpg?imageView2/0/h/96/w/96
http://7xl17c.com2.z0.glb.qiniucdn.com/2015-11-14_5646b7916b8fd.jpg?imageView2/0/h/96/w/96
http://7xl17c.com2.z0.glb.qiniucdn.com/2015-11-10_56417ae14b3b6.jpg?imageView2/0/h/96/w/96
http://7xl17c.com2.z0.glb.qiniucdn.com/2015-11-09_564096756915a.jpg?imageView2/0/h/96/w/96
http://7xl17c.com2.z0.glb.qiniucdn.com/2015-11-10_56420c918a7f5.jpg?imageView2/0/h/96/w/96
http://7xl17c.com2.z0.glb.qiniucdn.com/2015-11-07_563d528a52012.png?imageView2/0/h/96/w/96
http://7xl17c.com2.z0.glb.qiniucdn.com/2015-11-11_5642f9b16e151.jpg?imageView2/0/h/96/w/96
http://www.yousi.com/Public/upload/teacherPhoto/2015-08-28/55dfcb36c3b48.jpg?imageView2/0/h/96/w/96
http://7xl17c.com2.z0.glb.qiniucdn.com/2015-11-12_56449587adcd3.jpg?imageView2/0/h/96/w/96
http://7xl17c.com2.z0.glb.qiniucdn.com/2015-10-28_563096a825a16.jpg?imageView2/0/h/96/w/96
http://7xl17c.com2.z0.glb.qiniucdn.com/2015-09-04_55e954253580b.jpg?imageView2/0/h/96/w/96
http://ecust.yousi.com/Public/upload/photo/2015-06-18/5582a56c46da8.jpg?imageView2/0/h/96/w/96
http://7xl17c.com2.z0.glb.qiniucdn.com/2015-10-13_561cf2cb61386.jpg?imageView2/0/h/96/w/96
http://sjtu.yousi.com/Public/upload/photo/2015-06-14/557d91381f22e.jpg?imageView2/0/h/96/w/96
http://7xl17c.com2.z0.glb.qiniucdn.com/2015-10-26_562e0cfa4c12f.jpg?imageView2/0/h/96/w/96
http://sjtu.yousi.com/Public/upload/teacherPhoto/2015-04-06/55228ee2dcdad.jpg?imageView2/0/h/96/w/96
http://7xl17c.com2.z0.glb.qiniucdn.com/2015-09-24_5603fe8cb517b.jpg?imageView2/0/h/96/w/96
http://7xl17c.com2.z0.glb.qiniucdn.com/2015-11-07_563da1b99769c.jpg?imageView2/0/h/96/w/96
http://7xl17c.com2.z0.glb.qiniucdn.com/2015-10-02_560e32ed5b52c.jpg?imageView2/0/h/96/w/96
http://sjtu.yousi.com/Public/upload/teacherPhoto/2015-02-01/54ce1758b10cb.jpg?imageView2/0/h/96/w/96
http://www.yousi.com/Public/upload/photo/2015-08-12/55ca9f62d2cb8.jpg?imageView2/0/h/96/w/96
http://7xl17c.com2.z0.glb.qiniucdn.com/2015-09-23_560243e9ae207.jpg?imageView2/0/h/96/w/96
http://7xl17c.com2.z0.glb.qiniucdn.com/2015-10-30_5632fc90ae14c.jpg?imageView2/0/h/96/w/96
http://7xl17c.com2.z0.glb.qiniucdn.com/2015-09-19_55fd6fd8e1a90.jpg?imageView2/0/h/96/w/96
http://7xl17c.com2.z0.glb.qiniucdn.com/2015-09-02_55e6bab80172b.jpg?imageView2/0/h/96/w/96
http://ecust.yousi.com/Public/upload/photo/2015-06-26/558d19eb79558.jpg?imageView2/0/h/96/w/96
http://7xl17c.com2.z0.glb.qiniucdn.com/2015-09-24_5603916eda946.jpg?imageView2/0/h/96/w/96
http://7xl17c.com2.z0.glb.qiniucdn.com/2015-09-27_5607fbf1edb0b.jpg?imageView2/0/h/96/w/96
http://www.yousi.com/Public/upload/photo/2015-07-04/55973d836fb11.jpg?imageView2/0/h/96/w/96
http://sjtu.yousi.com/Public/upload/photo/2015-05-31/556a5b4278e9a.png?imageView2/0/h/96/w/96
http://7xl17c.com2.z0.glb.qiniucdn.com/2015-09-18_55fbeb6f23c74.jpg?imageView2/0/h/96/w/96
http://ecust.yousi.com/Public/upload/photo/2015-06-16/557fba3d64cfb.jpg?imageView2/0/h/96/w/96
http://7xl17c.com2.z0.glb.qiniucdn.com/2015-09-30_560b5c898b369.jpg?imageView2/0/h/96/w/96
http://sjtu.yousi.com/Public/upload/teacherPhoto/2015-03-23/550f9a6c2ed59.jpg?imageView2/0/h/96/w/96
http://7xl17c.com2.z0.glb.qiniucdn.com/2015-10-07_5615226df15bb.JPG?imageView2/0/h/96/w/96
http://sjtu.yousi.com/Public/upload/teacherPhoto/2015-03-13/55028f7546640.jpg?imageView2/0/h/96/w/96
http://ecust.yousi.com/Public/upload/photo/2015-06-24/558a3169d449a.jpg?imageView2/0/h/96/w/96
http://7xl17c.com2.z0.glb.qiniucdn.com/2015-10-17_5622585149fee.jpg?imageView2/0/h/96/w/96
http://7xl17c.com2.z0.glb.qiniucdn.com/2015-09-13_55f4ed30ecbfc.jpg?imageView2/0/h/96/w/96
http://sjtu.yousi.com/Public/upload/teacherPhoto/2015-03-15/5505274221ead.png?imageView2/0/h/96/w/96
http://7xl17c.com2.z0.glb.qiniucdn.com/2015-08-31_55e46a07ea821.jpg?imageView2/0/h/96/w/96
http://sjtu.yousi.com/Public/upload/photo/2015-07-24/55b2544d2b4fd.png?imageView2/0/h/96/w/96
http://7xl17c.com2.z0.glb.qiniucdn.com/2015-10-13_561d0c9e965ee.jpg?imageView2/0/h/96/w/96
http://ecust.yousi.com/Public/upload/photo/2015-08-17/55d13f06b4a6f.jpg?imageView2/0/h/96/w/96
http://7xl17c.com2.z0.glb.qiniucdn.com/2015-10-07_561522263a7c6.jpg?imageView2/0/h/96/w/96
http://7xl17c.com2.z0.glb.qiniucdn.com/2015-09-13_55f56c36a9ba2.jpg?imageView2/0/h/96/w/96
http://7xl17c.com2.z0.glb.qiniucdn.com/2015-09-20_55fea22153a02.jpg?imageView2/0/h/96/w/96
http://www.yousi.com/Public/upload/photo/2015-07-07/559b643f9cf8e.jpg?imageView2/0/h/96/w/96
http://www.yousi.com/Public/upload/photo/2015-07-05/5598a62f8cfb2.jpg?imageView2/0/h/96/w/96
http://sjtu.yousi.com/Public/upload/teacherPhoto/2015-03-24/5510f94649848.jpg?imageView2/0/h/96/w/96
http://7xl17c.com2.z0.glb.qiniucdn.com/2015-09-25_56053dfb6fb3f.jpg?imageView2/0/h/96/w/96
http://7xl17c.com2.z0.glb.qiniucdn.com/2015-09-24_5603c4920f3ad.JPG?imageView2/0/h/96/w/96
http://7xl17c.com2.z0.glb.qiniucdn.com/2015-09-25_5604dea8ae217.jpg?imageView2/0/h/96/w/96
http://www.yousi.com/Public/upload/photo/2015-07-10/559fb67de6629.jpg?imageView2/0/h/96/w/96
http://7xl17c.com2.z0.glb.qiniucdn.com/2015-09-08_55eea7cb2dff0.png?imageView2/0/h/96/w/96
http://7xl17c.com2.z0.glb.qiniucdn.com/2015-09-21_560014acd7c00.jpg?imageView2/0/h/96/w/96
http://sjtu.yousi.com/Public/upload/photo/2015-06-09/5576ed3c2efee.JPG?imageView2/0/h/96/w/96
http://sjtu.yousi.com/Public/upload/teacherPhoto/2015-03-26/5513e84970582.jpg?imageView2/0/h/96/w/96
http://sjtu.yousi.com/Public/upload/teacherPhoto/2015-02-02/54cf23529be66.JPG?imageView2/0/h/96/w/96
http://7xl17c.com2.z0.glb.qiniucdn.com/2015-09-12_55f3becaddfce.jpg?imageView2/0/h/96/w/96
http://7xl17c.com2.z0.glb.qiniucdn.com/2015-09-09_55efc0ad6b1c4.jpg?imageView2/0/h/96/w/96
http://7xl17c.com2.z0.glb.qiniucdn.com/2015-08-30_55e30c68c5494.jpg?imageView2/0/h/96/w/96
http://sjtu.yousi.com/Public/upload/teacherPhoto/2015-03-25/55122d8592c3d.jpg?imageView2/0/h/96/w/96
http://sjtu.yousi.com/Public/upload/photo/2015-06-26/558cdb54bf646.jpg?imageView2/0/h/96/w/96
http://ecust.yousi.com/Public/upload/photo/2015-07-18/55a9f02329140.jpg?imageView2/0/h/96/w/96
http://7xl17c.com2.z0.glb.qiniucdn.com/2015-09-06_55ec5c045f6c0.jpg?imageView2/0/h/96/w/96
http://7xl17c.com2.z0.glb.qiniucdn.com/2015-09-18_55fbf2297833a.jpg?imageView2/0/h/96/w/96
http://ecust.yousi.com/Public/upload/photo/2015-06-18/55824eddbdbaa.jpg?imageView2/0/h/96/w/96
http://sjtu.yousi.com/Public/upload/teacherPhoto/2015-02-02/54cf0356a3959.jpg?imageView2/0/h/96/w/96
http://ecust.yousi.com/Public/upload/photo/2015-06-22/5587a296f3ae3.jpg?imageView2/0/h/96/w/96
http://7xl17c.com2.z0.glb.qiniucdn.com/2015-09-05_55eafe46eeca4.jpg?imageView2/0/h/96/w/96
http://sjtu.yousi.com/Public/upload/photo/2015-06-26/558ce9cad379b.JPG?imageView2/0/h/96/w/96
http://7xl17c.com2.z0.glb.qiniucdn.com/2015-09-14_55f61db07a744.png?imageView2/0/h/96/w/96
http://7xl17c.com2.z0.glb.qiniucdn.com/2015-09-10_55f16a5345f76.jpg?imageView2/0/h/96/w/96
http://sjtu.yousi.com/Public/upload/photo/2015-05-31/556a9ffcbf829.png?imageView2/0/h/96/w/96
http://yousi.com/Public/upload/photo/2015-06-16/557fb99974498.jpg?imageView2/0/h/96/w/96
http://7xl17c.com2.z0.glb.qiniucdn.com/2015-09-11_55f25a867090f.jpg?imageView2/0/h/96/w/96
http://www.yousi.com/Public/upload/photo/2015-07-06/559a61436cd10.jpg?imageView2/0/h/96/w/96
http://7xl17c.com2.z0.glb.qiniucdn.com/2015-09-09_55efe1aeecec6.jpg?imageView2/0/h/96/w/96
http://www.yousi.com/Public/upload/photo/2015-07-11/55a0bf17c041d.jpg?imageView2/0/h/96/w/96
http://ecust.yousi.com/Public/upload/photo/2015-07-01/5593573a6e468.jpg?imageView2/0/h/96/w/96
http://ecust.yousi.com/Public/upload/photo/2015-06-20/5584c1bf49b6d.jpg?imageView2/0/h/96/w/96
http://sjtu.yousi.com/Public/upload/teacherPhoto/2015-03-24/55116b52bc600.jpg?imageView2/0/h/96/w/96
http://ecust.yousi.com/Public/upload/photo/2015-06-17/55815e7745633.jpg?imageView2/0/h/96/w/96
http://ecust.yousi.com/Public/upload/photo/2015-06-23/558931f6aa11d.png?imageView2/0/h/96/w/96
http://www.yousi.com/Public/upload/photo/2015-06-30/5592567a7098c.jpg?imageView2/0/h/96/w/96
http://ecust.yousi.com/Public/upload/photo/2015-06-20/55857e5fe4307.PNG?imageView2/0/h/96/w/96
http://ecust.yousi.com/Public/upload/photo/2015-06-29/5590d18342737.png?imageView2/0/h/96/w/96
http://www.yousi.com/Public/upload/photo/2015-07-20/55acbe7b2fabe.jpg?imageView2/0/h/96/w/96
http://sjtu.yousi.com/Public/upload/photo/2015-06-12/557a95e0b29f1.jpg?imageView2/0/h/96/w/96
http://sjtu.yousi.com/Public/upload/photo/2015-08-10/55c8c08ebb524.jpg?imageView2/0/h/96/w/96
http://www.yousi.com/Public/upload/photo/2015-06-27/558e2503e8513.jpg?imageView2/0/h/96/w/96
http://yousi.com/Public/upload/photo/2015-07-21/55ae3053a5565.jpg?imageView2/0/h/96/w/96
http://ecust.yousi.com/Public/upload/photo/2015-06-19/5584204c4f966.JPG?imageView2/0/h/96/w/96
http://www.yousi.com/Public/upload/photo/2015-06-30/559286172f78c.png?imageView2/0/h/96/w/96
http://ecust.yousi.com/Public/upload/photo/2015-06-23/5588f36b1a428.jpg?imageView2/0/h/96/w/96
http://www.yousi.com/Public/upload/teacherPhoto/2015-07-23/55b06097e3ea6.jpg?imageView2/0/h/96/w/96
http://sjtu.yousi.com/Public/upload/teacherPhoto/2015-04-23/55387525c85eb.jpg?imageView2/0/h/96/w/96
http://www.yousi.com/Public/upload/photo/2015-06-25/558bc1cbb1efa.jpg?imageView2/0/h/96/w/96
http://www.yousi.com/Public/upload/photo/2015-07-12/55a274b7e5fab.jpg?imageView2/0/h/96/w/96
http://www.yousi.com/Public/upload/photo/2015-07-08/559cded5d641f.JPG?imageView2/0/h/96/w/96
http://www.yousi.com/Public/upload/photo/2015-07-14/55a44bf2d58ea.jpg?imageView2/0/h/96/w/96
http://ecust.yousi.com/Public/upload/photo/2015-07-02/5594e6af22ab6.JPG?imageView2/0/h/96/w/96
http://www.yousi.com/Public/upload/photo/2015-07-08/559cf13a57f26.jpg?imageView2/0/h/96/w/96
http://ecust.yousi.com/Public/upload/photo/2015-06-29/559105868a54a.jpg?imageView2/0/h/96/w/96
http://www.yousi.com/Public/upload/photo/2015-07-03/55969f3c316a3.jpg?imageView2/0/h/96/w/96
http://www.yousi.com/Public/upload/photo/2015-07-01/55938a2286d99.jpg?imageView2/0/h/96/w/96
http://www.yousi.com/Public/upload/photo/2015-07-01/5593865834635.jpg?imageView2/0/h/96/w/96
http://www.yousi.com/Public/upload/photo/2015-06-29/5590faa5c6bf6.jpg?imageView2/0/h/96/w/96
http://ecust.yousi.com/Public/upload/photo/2015-06-18/558280b98740b.jpg?imageView2/0/h/96/w/96
http://sjtu.yousi.com/Public/upload/photo/2015-05-31/556abc749b52b.jpg?imageView2/0/h/96/w/96
http://www.yousi.com/Public/upload/photo/2015-06-28/558ffaeec87b6.jpg?imageView2/0/h/96/w/96
http://www.yousi.com/Public/upload/photo/2015-06-16/557fdaa0dda7f.jpg?imageView2/0/h/96/w/96
http://www.yousi.com/Public/upload/photo/2015-06-16/557fd5735892e.jpg?imageView2/0/h/96/w/96
http://www.yousi.com/Public/upload/photo/2015-06-16/557fd33e91e77.jpg?imageView2/0/h/96/w/96
http://sjtu.yousi.com/Public/upload/teacherPhoto/2015-03-23/550fe75e3e9ea.jpg?imageView2/0/h/96/w/96
http://sjtu.yousi.com/Public/upload/teacherPhoto/2015-04-20/55350db913bf8.JPG?imageView2/0/h/96/w/96
http://sjtu.yousi.com/Public/upload/teacherPhoto/2015-03-18/55095a0d531da.jpg?imageView2/0/h/96/w/96
http://7xl17c.com2.z0.glb.qiniucdn.com/2015-09-20_55fe1131048f3.jpg?imageView2/0/h/96/w/96
http://www.yousi.com/Public/upload/photo/2015-07-08/559c8254d3270.jpg?imageView2/0/h/96/w/96
http://7xl17c.com2.z0.glb.qiniucdn.com/2015-11-07_563d6e1172fbb.JPG?imageView2/0/h/96/w/96
http://7xl17c.com2.z0.glb.qiniucdn.com/2015-11-05_563b618688468.jpg?imageView2/0/h/96/w/96
http://7xl17c.com2.z0.glb.qiniucdn.com/2015-10-08_5615e2c7d5e5e.png?imageView2/0/h/96/w/96
http://7xl17c.com2.z0.glb.qiniucdn.com/2015-10-21_5627b168d7f11.JPG?imageView2/0/h/96/w/96
http://7xl17c.com2.z0.glb.qiniucdn.com/2015-10-16_562104b66a6f7.jpg?imageView2/0/h/96/w/96
http://7xl17c.com2.z0.glb.qiniucdn.com/2015-09-16_55f92e272a781.png?imageView2/0/h/96/w/96
http://7xl17c.com2.z0.glb.qiniucdn.com/2015-09-12_55f3f6f8eac04.jpg?imageView2/0/h/96/w/96
http://7xl17c.com2.z0.glb.qiniucdn.com/2015-09-23_56022f19b1666.jpg?imageView2/0/h/96/w/96
http://7xl17c.com2.z0.glb.qiniucdn.com/2015-09-16_55f94ff28c4f1.jpg?imageView2/0/h/96/w/96
http://sjtu.yousi.com/Public/upload/photo/2015-08-24/55db141e36ec6.jpg?imageView2/0/h/96/w/96
http://7xl17c.com2.z0.glb.qiniucdn.com/2015-09-13_55f52e460a24d.jpg?imageView2/0/h/96/w/96
http://sjtu.yousi.com/Public/upload/teacherPhoto/2015-03-10/54febffb517c6.png?imageView2/0/h/96/w/96
http://ecust.yousi.com/Public/upload/photo/2015-07-08/559d1795dd0a2.png?imageView2/0/h/96/w/96
http://sjtu.yousi.com/Public/upload/photo/2015-07-05/5598d8373f0f3.jpg?imageView2/0/h/96/w/96
http://ecust.yousi.com/Public/upload/photo/2015-06-21/558605bb7a1a4.jpg?imageView2/0/h/96/w/96
http://www.yousi.com/Public/upload/photo/2015-06-24/558a2150e73cd.jpg?imageView2/0/h/96/w/96
http://ecust.yousi.com/Public/upload/photo/2015-06-19/5583e4a25d4d9.jpg?imageView2/0/h/96/w/96
http://ecust.yousi.com/Public/upload/photo/2015-06-17/558108bd4d6cc.jpg?imageView2/0/h/96/w/96
http://ecust.yousi.com/Public/upload/photo/2015-06-24/558ab4eaccc4e.JPG?imageView2/0/h/96/w/96
http://ecust.yousi.com/Public/upload/photo/2015-06-18/5582a5741405c.JPG?imageView2/0/h/96/w/96
http://sjtu.yousi.com/Public/upload/teacherPhoto/2015-04-30/5541df3c0cf1b.JPG?imageView2/0/h/96/w/96
http://sjtu.yousi.com/Public/upload/teacherPhoto/2015-04-10/55273b9a036c6.JPG?imageView2/0/h/96/w/96
http://sjtu.yousi.com/Public/upload/teacherPhoto/2015-04-06/5522892cec646.png?imageView2/0/h/96/w/96
http://sjtu.yousi.com/Public/upload/teacherPhoto/2015-02-02/54cf0df9a3473.jpg?imageView2/0/h/96/w/96
http://sjtu.yousi.com/Public/upload/teacherPhoto/2015-03-09/54fd7ac381072.jpg?imageView2/0/h/96/w/96
http://sjtu.yousi.com/Public/upload/teacherPhoto/2015-02-05/54d32d5153595.png?imageView2/0/h/96/w/96
http://sjtu.yousi.com/Public/upload/teacherPhoto/2015-02-02/54ced4bea36e9.jpg?imageView2/0/h/96/w/96
http://sjtu.yousi.com/Public/upload/teacherPhoto/2015-03-28/5516b54329702.jpg?imageView2/0/h/96/w/96
http://sjtu.yousi.com/Public/upload/teacherPhoto/2015-01-27/54c77a42551fb.jpg?imageView2/0/h/96/w/96
http://sjtu.yousi.com/Public/upload/teacherPhoto/2015-01-23/54c2349364dcd.png?imageView2/0/h/96/w/96
http://sjtu.yousi.com/Public/upload/teacherPhoto/2015-03-23/55100e992f80e.jpg?imageView2/0/h/96/w/96
http://sjtu.yousi.com/Public/upload/teacherPhoto/2015-03-29/5517bd607f5d3.png?imageView2/0/h/96/w/96
http://sjtu.yousi.com/Public/upload/teacherPhoto/2015-03-23/550fc038f0336.png?imageView2/0/h/96/w/96
http://sjtu.yousi.com/Public/upload/teacherPhoto/2015-03-19/550a9c5d10863.jpg?imageView2/0/h/96/w/96
http://sjtu.yousi.com/Public/upload/teacherPhoto/2015-03-22/550ee2960f0c1.jpg?imageView2/0/h/96/w/96
http://sjtu.yousi.com/Public/upload/teacherPhoto/2015-02-15/54e00a122ec84.jpg?imageView2/0/h/96/w/96
http://sjtu.yousi.com/Public/upload/teacherPhoto/2015-01-20/54be68feb0be3.jpg?imageView2/0/h/96/w/96
http://sjtu.yousi.com/Public/upload/teacherPhoto/2015-02-03/54d0ab3375273.JPG?imageView2/0/h/96/w/96
http://sjtu.yousi.com/Public/upload/teacherPhoto/2015-01-21/54be84a271bf2.jpg?imageView2/0/h/96/w/96
http://sjtu.yousi.com/Public/upload/teacherPhoto/2015-03-19/550ad6b98ce2e.png?imageView2/0/h/96/w/96
http://sjtu.yousi.com/Public/upload/teacherPhoto/2015-03-28/5516487acb44b.JPG?imageView2/0/h/96/w/96
http://sjtu.yousi.com/Public/upload/teacherPhoto/2015-01-19/54bcf9a4ce7dc.jpeg?imageView2/0/h/96/w/96
http://sjtu.yousi.com/Public/upload/teacherPhoto/2015-01-21/54bf49c407883.jpg?imageView2/0/h/96/w/96
http://www.yousi.com/Public/upload/photo/2015-08-24/55db0c67c1290.JPG?imageView2/0/h/96/w/96
