王
李
张
刘
陈
杨
黄
周
赵
吴
孙
徐
林
胡
朱
郭
梁
马
高
何
郑
罗
宋
谢
叶
韩
任
潘
唐
于
冯
董
吕
邓
许
曹
曾
袁
程
田
彭
钟
蔡
魏
沈
卢
余
杜
蒋
汪
丁
方
苏
贾
姜
姚
陆
戴
傅
夏
廖
萧
石
范
金
谭
邹
崔
薛
邱
史
江
侯
邵
肖
熊
康
秦
雷
孟
白
毛
阎
郝
钱
段
俞
洪
顾
贺
龚
庞
尹
万
龙
赖
孔
武
邢
颜
汤
章
梅
常
阮
黎
倪
施
乔
樊
严
齐
陶
温
易
兰
文
闫
芦
牛
安
向
管
殷
霍
翟
佘
葛
伍
辛
练
申
付
曲
焦
代
鲁
季
覃
毕
麦
耿
舒
尚
聂
庄
项
盛
童
祝
柴
柳
单
岳
阳
骆
纪
欧
左
尤
凌
韦
景
詹
莫
路
宁
关
丛
翁
容
柯
鲍
蒲
苗
牟
谷
裴
初
屈
成
包
游
司
祁
靳
甘
席
瞿
欧阳
卜
褚
解
时
费
班
华
全
房
涂