梦琪
忆柳
之桃
慕青
问兰
尔岚
元香
初夏
沛菡
傲珊
曼文
乐菱
痴珊
恨玉
惜文
香寒
新柔
语蓉
海安
夜蓉
涵柏
水桃
醉蓝
春儿
语琴
从彤
傲晴
语兰
又菱
碧彤
元霜
怜梦
紫寒
妙彤
曼易
南莲
紫翠
雨寒
易烟
如萱
若南
寻真
晓亦
向珊
慕灵
以蕊
寻雁
映易
雪柳
孤岚
笑霜
海云
凝天
沛珊
寒云
冰旋
宛儿
绿真
盼儿
晓霜
碧凡
夏菡
曼香
若烟
半梦
雅绿
冰蓝
灵槐
平安
书翠
翠风
香巧
代云
梦曼
幼翠
友巧
听寒
梦柏
醉易
访旋
亦玉
凌萱
访卉
怀亦
笑蓝
春翠
靖柏
夜蕾
冰夏
梦松
书雪
乐枫
念薇
靖雁
寻春
恨山
从寒
忆香
觅波
静曼
凡旋
以亦
念露
芷蕾
千兰
新波
代真
新蕾
雁玉
冷卉
紫山
千琴
恨天
傲芙
盼山
怀蝶
冰兰
山柏
翠萱
乐丹
翠柔
谷山
之瑶
冰露
尔珍
谷雪
乐萱
涵菡
海莲
傲蕾
青槐
冬儿
易梦
惜雪
宛海
之柔
夏青
亦瑶
妙菡
春竹
紫蓝
晓巧
幻柏
访蕊
南春
芷蕊
凡蕾
凡柔
安蕾
天荷
含玉
书兰
雅琴
书瑶
春雁
从安
夏槐
念芹
怀萍
代曼
幻珊
谷丝
秋翠
白晴
海露
代荷
含玉
书蕾
听白
访琴
灵雁
秋春
雪青
乐瑶
含烟
涵双
平蝶
雅蕊
傲之
灵薇
绿春
含蕾
从梦
从蓉
初丹
听兰
听蓉
语芙
夏彤
凌瑶
忆翠
幻灵
怜菡
紫南
依珊
妙竹
访烟
怜蕾
映寒
友绿
冰萍
惜霜
凌香
芷蕾
雁卉
迎梦
元柏
代萱
紫真
千青
凌寒
紫安
寒安
怀蕊
秋荷
涵雁
以山
凡梅
盼曼
翠彤
谷冬
新巧
冷安
千萍
冰烟
雅阳
友绿
南松
诗云
书芹
曼荷
笑珊
寒珊
谷南
慕儿
夏岚
友儿
小萱
紫青
妙菱
冬寒
曼柔
语蝶
青筠
夜安
觅海
问安
晓槐
雅山
访云
翠容
寒凡
晓绿
以菱
冬云
含玉
访枫
含卉
夜白
灵竹
醉薇
元珊
幻波
盼夏
元瑶
迎曼
水云
访琴
谷波
乐之
笑白
之山
妙海
紫霜
平夏
凌旋
孤丝
怜寒
向萍
凡松
白薇
梦菡
飞绿
如波
又晴
友易
香菱
冬亦
问雁
妙春
海冬
半安
平春
幼柏
秋灵
凝芙
念烟
白山
从灵
尔芙
筠
柔
竹
霭
凝
晓
欢
霄
枫
芸
菲
寒
伊
亚
宜
可
姬
舒
影
荔
枝
思
丽
秀
娟
英
华
慧
巧
美
娜
静
淑
惠
珠
翠
雅
芝
玉
萍
红
娥
玲
芬
芳
燕
彩
春
菊
勤
珍
贞
莉
兰
凤
洁
梅
琳
素
云
莲
真
环
雪
荣
爱
妹
霞
香
月
莺
媛
艳
瑞
凡
佳
嘉
琼
桂
娣
叶
璧
璐
娅
琦
晶
妍
茜
秋
珊
莎
锦
黛
青
倩
婷
姣
婉
娴
瑾
颖
露
瑶
怡
婵
雁
蓓
纨
仪
荷
丹
蓉
眉
君
琴
蕊
薇
菁
梦
岚
苑
婕
馨
瑗
琰
韵
融
园
艺
咏
卿
聪
澜
纯
毓
悦
昭
冰
爽
琬
茗
羽
希
宁
欣
飘
育
滢
馥
婷
倩
睿
瑜
嘉
君
盈
男
萱
雨
乐
欣
悦
雯
晨
珺
月
雪
秀
晓
然
冰
新
淑
玟
萌
凝
文
展
露
静
智
丹
宁
颖
平
佳
玲
彤
芸
莉
璐
云
聆
芝
娟
超
香
英
菲
涓
洁
萍
蓉
潞
笑
迪
敏
靓
菁
慧
涵
韵
琳
燕
依
妙
美
宜
尚
诗
钰
娜
仪
娇
谊
语
彩
清
好
睻
曼
蔓
茜
沁
韶
舒
盛
越
琪
霞
艺
函
迎
虹
爽
瑞
珏
桐
筱
苹
莹
名
晗
甜
晴
亭
吉
玉
晶
妍
凤
蒙
霖
希
宣
昕
丽
心
可
旻
阳
真
蓝
畅
荣
岚
乔
育
芷
姿
妹
姗
瑾
奕
兰
航
蕾
艳
怡
青
珊
才
小
子
允
加
巧
冉
北
朵
多
羽
如
帆
伶
采
西
贝
其
春
易
咏
亚
明
秋
泓
伦
朔
哲
益
轩
容
玹
津
启
婧
晟
婉
常
浩
景
茗
尧
雅
杰
媛
诒
翔
为
捷
钧
毓
意
琸
靖
渺
渲
熙
微
祺
梦
赫
菡
纶
铭
齐
华
菏
毅
瑶
品
梓
国
卿
振
卫
叶
亿
娆
漫
兴
蓓
融
嫒
锦
翰
科
润
霏
灿
忆
聪
怿
蕊
谨
丰
丛
璇
议
馨
瀚
潇
莺
珑
俪
骄
骁
灵
忻
昭
金
昊
志
辰
宇
安
凡
禾
竹
愉
丫
珂
洺
苒
若
偌
珮
棋
淇
群
会
维
影
逸
娴
赏
霄
辉
莲
优
瑷
朦
涛
识
誉
巍
鑫
逦
湾
中
予
卉
永
同
州
任
宏
卓